"level","Gini","var","type","year"
0,NA,"#descendants","data",1901
1,0.2017642686672,"#descendants","data",1901
2,0.213658576048627,"#descendants","data",1901
3,0.246404535519665,"#descendants","data",1901
4,0.2466823474751,"#descendants","data",1901
5,0.353979731103174,"#descendants","data",1901
6,NA,"#descendants","data",1901
0,NA,"#children","data",1901
1,0.2017642686672,"#children","data",1901
2,0.191595179414622,"#children","data",1901
3,0.207155658593532,"#children","data",1901
4,0.306122448979592,"#children","data",1901
5,0.333333333333333,"#children","data",1901
6,NA,"#children","data",1901
0,NA,"phi","data",1901
1,0.431130180426625,"phi","data",1901
2,0.373228819807455,"phi","data",1901
3,0.343623331614823,"phi","data",1901
4,0.290824056567726,"phi","data",1901
5,0.349912478364512,"phi","data",1901
6,NA,"phi","data",1901
0,0.356036814492244,"area","data",1901
1,0.319347552842068,"area","data",1901
2,0.295468856438803,"area","data",1901
3,0.243987053623278,"area","data",1901
4,0.264339978582427,"area","data",1901
5,0.232601005288908,"area","data",1901
6,NA,"area","data",1901
