"level","Gini","var","type","year"
0,NA,"#descendants","data",1940
1,0.227550078602057,"#descendants","data",1940
2,0.256729105603704,"#descendants","data",1940
3,0.206539441266129,"#descendants","data",1940
4,0.325051154633148,"#descendants","data",1940
5,NA,"#descendants","data",1940
0,NA,"#children","data",1940
1,0.227550078602057,"#children","data",1940
2,0.230340360006372,"#children","data",1940
3,0.175238095238095,"#children","data",1940
4,0.2,"#children","data",1940
5,NA,"#children","data",1940
0,NA,"phi","data",1940
1,0.486199598838972,"phi","data",1940
2,0.40636601171863,"phi","data",1940
3,0.232705435285407,"phi","data",1940
4,0.37427959006747,"phi","data",1940
5,NA,"phi","data",1940
0,0.715349856241182,"area","data",1940
1,0.657758201893959,"area","data",1940
2,0.585504762923389,"area","data",1940
3,0.519295483085375,"area","data",1940
4,0.39315705330476,"area","data",1940
5,NA,"area","data",1940
