"level","Gini","var","type","year"
0,NA,"#descendants","data",1970
1,0.237708851270979,"#descendants","data",1970
2,0.264340439045691,"#descendants","data",1970
3,0.269921075708857,"#descendants","data",1970
4,0.416837182110494,"#descendants","data",1970
5,NA,"#descendants","data",1970
0,NA,"#children","data",1970
1,0.237708851270979,"#children","data",1970
2,0.213731518079344,"#children","data",1970
3,0.302439024390244,"#children","data",1970
4,0.181818181818182,"#children","data",1970
5,NA,"#children","data",1970
0,NA,"phi","data",1970
1,0.503024177235165,"phi","data",1970
2,0.396235238476793,"phi","data",1970
3,0.267295312984127,"phi","data",1970
4,0.306872245970979,"phi","data",1970
5,NA,"phi","data",1970
0,0.715349856241182,"area","data",1970
1,0.660260668373547,"area","data",1970
2,0.590401563443035,"area","data",1970
3,0.467662125532358,"area","data",1970
4,0.39315705330476,"area","data",1970
5,NA,"area","data",1970
