n,avg.g,logn_log_6
100,3.97,2.570194417876938
117,4.07,2.657819878495994
137,4.11,2.7458936371341207
161,4.19,2.8359857739017214
189,4.24,2.9254747107980674
221,4.36,3.0127719675696465
259,4.42,3.1013247911526816
304,4.58,3.1907339124426635
356,4.66,3.278861271141004
418,4.78,3.368466323844811
489,4.86,3.456023308833262
574,4.94,3.545469972627785
672,4.93,3.6334443614398584
788,5.01,3.722317757712928
924,5.07,3.811176772842006
1083,5.11,3.8997925597744523
1269,5.21,3.988249868601558
1487,5.33,4.0767279715324545
1743,5.35,4.165382225514604
2043,5.53,4.254016638796663
2395,5.59,4.34273608901164
2807,5.68,4.43132670021977
3290,5.79,4.519938631745344
3857,5.87,4.608679401463342
4520,5.94,4.69720820085983
5298,5.96,4.78584587780994
6210,6.05,4.874491428634873
7279,6.12,4.9631375872954235
8532,6.18,5.0517824713888295
10000,6.24,5.140388835753876
