{
"type": "FeatureCollection",
"name": "FR_83320",
"features": [
{ "type": "Feature", "properties": { "id": 1, "name": "PARIS", "country": "75", "P": 2229621.0, "P0": 83320.0, "a": 60400731.661022663, "n": 6.0, "k": 1.0, "Phi": 2279277.0, "diff": 49656.0, "diff_null": 1480.8824123139034, "m": 5.333333333333333, "avg_Phi_neighbors": 884979.0, "avg_diff_neighbors": 786330.0, "avg_diff_null_neighbors": 132785.78963747999 }, "geometry": { "type": "MultiPolygon", "coordinates": [ [ [ [ 647440.889283043448813, 6862820.796192483976483 ], [ 648895.714737005648203, 6864798.175045257434249 ], [ 651323.169567635399289, 6866266.257559820078313 ], [ 655369.420004584360868, 6865631.571199928410351 ], [ 655922.737429426400922, 6859342.836322552524507 ], [ 649326.427234007860534, 6856115.395994211547077 ], [ 647440.889283043448813, 6862820.796192483976483 ] ] ] ] } },
{ "type": "Feature", "properties": { "id": 2, "name": "MARSEILLE", "country": "13", "P": 855393.0, "P0": 83320.0, "a": 1030577725.948096, "n": 4.0, "k": 32.0, "Phi": 1192709.0, "diff": 337316.0, "diff_null": 47388.237194044908, "m": 5.666666666666667, "avg_Phi_neighbors": 792811.0, "avg_diff_neighbors": 640854.66666666663, "avg_diff_null_neighbors": 349488.24930608121 }, "geometry": { "type": "MultiPolygon", "coordinates": [ [ [ [ 835512.134432361926883, 6251061.458338146097958 ], [ 837778.729768929537386, 6254436.13111831061542 ], [ 850416.992070343578234, 6255707.328407304361463 ], [ 848267.999999938998371, 6254660.90000263415277 ], [ 852618.19999993708916, 6252591.800002639181912 ], [ 855446.299999936134554, 6255240.900002632290125 ], [ 850514.699999937904067, 6249931.200002644211054 ], [ 835512.134432361926883, 6251061.458338146097958 ] ] ], [ [ [ 861815.682550191879272, 6256853.845554241910577 ], [ 926995.903266525245272, 6263409.882918758317828 ], [ 915900.828105271328241, 6234060.155040826648474 ], [ 911635.399999911431223, 6232742.000002688728273 ], [ 906271.799999914015643, 6238344.400002676062286 ], [ 890704.299999920651317, 6237642.300002673640847 ], [ 892723.099999920232221, 6246825.00000265520066 ], [ 887496.69999992265366, 6254026.700002637691796 ], [ 880465.499999925494194, 6250213.100002645514905 ], [ 866546.499999931198545, 6249404.200002647005022 ], [ 861815.682550191879272, 6256853.845554241910577 ] ] ] ] } },
{ "type": "Feature", "properties": { "id": 3, "name": "LYON", "country": "69", "P": 500715.0, "P0": 83320.0, "a": 5121154322.267025, "n": 5.0, "k": 396.0, "Phi": 1429592.0, "diff": 928877.0, "diff_null": 586429.43527630577, "m": 6.8, "avg_Phi_neighbors": 1531937.2, "avg_diff_neighbors": 1377158.0, "avg_diff_null_neighbors": 1793940.9542770626 }, "geometry": { "type": "MultiPolygon", "coordinates": [ [ [ [ 777092.277709724614397, 6610688.726429970003664 ], [ 803331.494927112129517, 6609017.237873218022287 ], [ 866044.024847314460203, 6474100.035992457531393 ], [ 860144.703036640188657, 6467304.811052436009049 ], [ 776236.732990295975469, 6547185.330706853419542 ], [ 777092.277709724614397, 6610688.726429970003664 ] ] ] ] } },
{ "type": "Feature", "properties": { "id": 4, "name": "TOULOUSE", "country": "31", "P": 458298.0, "P0": 83320.0, "a": 44940189369.885307, "n": 6.0, "k": 3224.0, "Phi": 3319626.0, "diff": 2861328.0, "diff_null": 4774364.8973000245, "m": 5.4, "avg_Phi_neighbors": 1535538.8, "avg_diff_neighbors": 1352892.8, "avg_diff_null_neighbors": 1721377.7160736811 }, "geometry": { "type": "MultiPolygon", "coordinates": [ [ [ [ 370992.009288779867347, 6217971.017380814999342 ], [ 544142.895737680839375, 6403345.943932277150452 ], [ 629087.076292906189337, 6406473.005588096566498 ], [ 671241.872556632733904, 6382853.047003531828523 ], [ 671818.641340068541467, 6273976.872907432727516 ], [ 584585.104308692971244, 6172019.264310227707028 ], [ 576340.60000005364418, 6173796.800002816133201 ], [ 571832.300000055925921, 6168354.600002827122808 ], [ 565300.200000058161095, 6181382.300002799369395 ], [ 549895.50000006495975, 6180448.700002802535892 ], [ 542669.300000067800283, 6189553.600002781488001 ], [ 530245.600000072969124, 6189976.500002782791853 ], [ 512550.800000080256723, 6198492.100002765655518 ], [ 507070.800000083050691, 6189939.000002783723176 ], [ 508897.30000008281786, 6179516.500002806074917 ], [ 489111.100000091362745, 6180225.80000280495733 ], [ 483562.70000009360956, 6184142.400002798996866 ], [ 477861.100000096310396, 6178840.600002808496356 ], [ 468501.400000100024045, 6186019.500002794899046 ], [ 452671.800000107148662, 6180877.600002804771066 ], [ 445251.100000110047404, 6185244.000002796761692 ], [ 441290.400000111316331, 6193831.200002779252827 ], [ 428953.900000116089359, 6200122.000002765096724 ], [ 422245.00000011944212, 6194862.100002777762711 ], [ 413115.600000123144127, 6198320.500002772547305 ], [ 407840.800000125833321, 6193392.400002783164382 ], [ 395507.200000130047556, 6206282.800002753734589 ], [ 393651.200000130280387, 6214874.600002736784518 ], [ 377793.600000136939343, 6214128.700002737343311 ], [ 370992.009288779867347, 6217971.017380814999342 ] ] ] ] } },
{ "type": "Feature", "properties": { "id": 5, "name": "NICE", "country": "06", "P": 342295.0, "P0": 83320.0, "a": 17991110014.738152, "n": 4.0, "k": 620.0, "Phi": 1591437.0, "diff": 1249142.0, "diff_null": 918147.09563462005, "m": 6.333333333333333, "avg_Phi_neighbors": 1264337.0, "avg_diff_neighbors": 1109163.6666666667, "avg_diff_null_neighbors": 714278.95020607277 }, "geometry": { "type": "MultiPolygon", "coordinates": [ [ [ [ 1226005.099999756319448, 6063417.100003056228161 ], [ 1221047.599999758414924, 6058357.000003062188625 ], [ 1221204.699999757576734, 6054189.600003069266677 ], [ 1224649.799999756272882, 6057066.800003065727651 ], [ 1221453.399999756831676, 6050209.800003078766167 ], [ 1218170.099999758647755, 6049666.900003077462316 ], [ 1210628.199999762466177, 6052159.300003072246909 ], [ 1212592.099999762140214, 6057590.400003065355122 ], [ 1208350.09999976400286, 6057624.800003062933683 ], [ 1208748.899999764282256, 6061358.700003056786954 ], [ 1205635.199999765260145, 6058803.200003061443567 ], [ 1195524.999999770428985, 6061649.300003055483103 ], [ 1183755.499999776482582, 6068439.300003042444587 ], [ 1184307.999999777181074, 6077784.900003027170897 ], [ 1193308.499999773222953, 6083624.600003018043935 ], [ 1182127.299999778857455, 6084116.400003015995026 ], [ 1181130.199999779462814, 6088754.600003006868064 ], [ 1171554.599999784026295, 6087834.800003009848297 ], [ 1177118.299999781884253, 6092312.600003001280129 ], [ 1175405.599999783094972, 6095073.300002994947135 ], [ 1180256.199999780859798, 6096485.000002994202077 ], [ 1178289.499999782070518, 6100128.000002986751497 ], [ 1182221.699999780859798, 6105912.600002977065742 ], [ 1177465.499999783467501, 6109917.600002968683839 ], [ 1166035.199999788310379, 6104861.000002977438271 ], [ 1164161.799999789800495, 6112379.500002963468432 ], [ 1168889.499999787658453, 6113322.400002963840961 ], [ 1169135.399999788030982, 6117789.000002954155207 ], [ 1176302.599999785423279, 6122867.600002944469452 ], [ 1171913.899999788030982, 6129501.300002930685878 ], [ 1159898.299999793758616, 6132385.400002923794091 ], [ 1162680.099999792873859, 6135018.900002921000123 ], [ 1157718.899999795714393, 6142429.800002905540168 ], [ 1169858.299999790964648, 6147607.400002896785736 ], [ 1162507.199999794829637, 6150397.600002887658775 ], [ 1163004.699999794829637, 6155309.600002879276872 ], [ 1158051.199999796925113, 6153117.500002882443368 ], [ 1156954.199999797856435, 6156966.70000287424773 ], [ 1165800.499999794410542, 6162887.900002865120769 ], [ 1167399.89999979455024, 6168905.400002852082253 ], [ 1164867.599999795667827, 6169792.600002849474549 ], [ 1170113.099999794270843, 6175513.900002839043736 ], [ 1168757.999999795341864, 6180258.60000282805413 ], [ 1170149.699999794829637, 6181998.40000282600522 ], [ 1175000.1999997922685, 6179258.000002830289304 ], [ 1176393.599999792641029, 6184496.800002818927169 ], [ 1193463.599999785423279, 6190102.500002809800208 ], [ 1201659.499999783234671, 6200804.500002788379788 ], [ 1209244.899999779881909, 6201687.600002788007259 ], [ 1216528.699999776203185, 6196025.900002801790833 ], [ 1219580.299999775830656, 6202911.800002787262201 ], [ 1215985.59999977867119, 6213430.900002763606608 ], [ 1219165.299999778624624, 6223561.900002743117511 ], [ 1216996.199999780859798, 6231337.40000272449106 ], [ 1223420.699999778298661, 6233783.100002720020711 ], [ 1227050.39999977638945, 6231254.800002725794911 ], [ 1231051.499999771593139, 6211354.700002771802247 ], [ 1228611.19999977061525, 6195905.700002802535892 ], [ 1236783.299999765586108, 6182809.200002830475569 ], [ 1242409.099999756552279, 6138290.500002924352884 ], [ 1232282.999999758787453, 6116552.300002963282168 ], [ 1233571.999999754829332, 6087477.400003017857671 ], [ 1230529.29999975557439, 6078704.800003031268716 ], [ 1224856.89999975822866, 6077080.800003032200038 ], [ 1225678.899999757297337, 6074490.600003036670387 ], [ 1231778.499999754596502, 6076517.400003034621477 ], [ 1224410.599999757483602, 6068474.100003046914935 ], [ 1226005.099999756319448, 6063417.100003056228161 ] ] ], [ [ [ 997603.252471186104231, 6253923.321329937316477 ], [ 964812.4482466802001, 6302910.210245492868125 ], [ 954818.573337491950952, 6360030.345057489350438 ], [ 1019632.41668024926912, 6412501.368924168869853 ], [ 1022662.999999883468263, 6407589.000002257525921 ], [ 1013918.399999886518344, 6405506.900002260692418 ], [ 1012138.699999885633588, 6393806.800002292729914 ], [ 1006230.999999887309968, 6388898.800002304837108 ], [ 1013849.499999883351848, 6378175.300002333708107 ], [ 1009791.899999884655699, 6376715.000002338550985 ], [ 1009696.399999883957207, 6370071.40000235568732 ], [ 1020000.29999987850897, 6356725.400002391077578 ], [ 1034270.299999872688204, 6353416.30000239983201 ], [ 1040848.399999869521707, 6347983.200002416968346 ], [ 1054009.499999863794073, 6344691.1000024266541 ], [ 1073808.299999857321382, 6353054.500002408400178 ], [ 1073213.899999856716022, 6347892.800002419389784 ], [ 1077560.299999854294583, 6342698.200002434663475 ], [ 1073101.499999854480848, 6330818.800002466887236 ], [ 1061621.999999857507646, 6318734.400002493523061 ], [ 1064496.49999985541217, 6308790.700002519413829 ], [ 1061334.89999985601753, 6304775.00000252854079 ], [ 1050901.699999859789386, 6300981.200002536177635 ], [ 1049205.89999985974282, 6295744.500002549961209 ], [ 1047675.799999861046672, 6299224.100002540275455 ], [ 1039320.699999863514677, 6291995.300002558156848 ], [ 1035355.499999865423888, 6292699.0000025536865 ], [ 1034426.899999864399433, 6280604.800002585165203 ], [ 1030870.49999986612238, 6283231.900002577342093 ], [ 1020303.199999870033935, 6279493.500002585351467 ], [ 1015148.999999871011823, 6266597.900002617388964 ], [ 1003592.999999875552021, 6265061.600002618506551 ], [ 1001369.69999987562187, 6256849.000002638436854 ], [ 997603.252471186104231, 6253923.321329937316477 ] ] ] ] } },
{ "type": "Feature", "properties": { "id": 6, "name": "NANTES", "country": "44", "P": 292718.0, "P0": 83320.0, "a": 13906525167.411369, "n": 5.0, "k": 469.0, "Phi": 2144615.0, "diff": 1851897.0, "diff_null": 694533.85137522069, "m": 5.5, "avg_Phi_neighbors": 1773613.75, "avg_diff_neighbors": 1600476.0, "avg_diff_null_neighbors": 1545300.7972495581 }, "geometry": { "type": "MultiPolygon", "coordinates": [ [ [ [ 368831.214297389436979, 6553442.182319471612573 ], [ 360155.542437769530807, 6551438.990838806144893 ], [ 358985.600000102538615, 6559322.400001834146678 ], [ 368831.214297389436979, 6553442.182319471612573 ] ] ], [ [ [ 295044.40000010910444, 6636866.00000162050128 ], [ 296573.300000109011307, 6634420.400001627393067 ], [ 292651.700000110082328, 6634457.400001628324389 ], [ 287992.000000110594556, 6638961.900001616217196 ], [ 295044.40000010910444, 6636866.00000162050128 ] ] ], [ [ [ 369520.60000009794021, 6569567.600001804530621 ], [ 350706.700000102457125, 6576965.300001784227788 ], [ 348653.100000102538615, 6581828.000001773238182 ], [ 354293.900000100664329, 6582486.400001768022776 ], [ 353434.300000101793557, 6576938.000001785345376 ], [ 360075.000000099476893, 6579531.500001776963472 ], [ 357558.300000100338366, 6577853.500001780688763 ], [ 369064.500000097497832, 6574277.300001791678369 ], [ 371834.800000096904114, 6571541.900001797825098 ], [ 369520.60000009794021, 6569567.600001804530621 ] ] ], [ [ [ 256230.100000105507206, 6710127.700001414865255 ], [ 257620.000000105123036, 6710533.400001412257552 ], [ 257856.200000105367508, 6709804.700001416727901 ], [ 255966.000000105937943, 6708985.700001419521868 ], [ 256230.100000105507206, 6710127.700001414865255 ] ] ], [ [ [ 238112.800000110175461, 6709365.40000141877681 ], [ 242834.200000109500252, 6707513.500001424923539 ], [ 239944.700000110839028, 6704209.400001434609294 ], [ 229240.900000112771522, 6707643.700001424178481 ], [ 229108.200000110955443, 6717202.500001400709152 ], [ 238112.800000110175461, 6709365.40000141877681 ] ] ], [ [ [ 272553.893444671586622, 6736712.283687107264996 ], [ 382356.035694395657629, 6741533.996442496776581 ], [ 415862.381154391798191, 6631903.11172541230917 ], [ 380188.9789385428885, 6567550.10091419890523 ], [ 379047.800000094866846, 6570198.900001799687743 ], [ 372792.500000096682925, 6570749.700001798570156 ], [ 383478.80000009201467, 6581737.900001765228808 ], [ 382811.400000091700349, 6586264.600001754239202 ], [ 376812.00000009307405, 6588177.200001747347414 ], [ 376177.500000094179995, 6582682.000001765787601 ], [ 369648.100000095029827, 6589434.900001745671034 ], [ 369601.100000095670111, 6585518.600001757964492 ], [ 366134.800000095798168, 6591731.900001741014421 ], [ 356611.700000098615419, 6592244.400001741014421 ], [ 353456.100000098347664, 6599199.500001719221473 ], [ 344796.900000100780744, 6600883.900001717731357 ], [ 331126.400000103225466, 6610512.800001691095531 ], [ 328500.500000101805199, 6623628.800001651979983 ], [ 308241.400000103458297, 6648194.900001586414874 ], [ 307765.900000102061313, 6656082.800001561641693 ], [ 308221.486885519290809, 6656549.25582258682698 ], [ 297187.000000102154445, 6671837.200001518242061 ], [ 303336.800000100804027, 6670533.000001521781087 ], [ 301563.400000101770274, 6668109.30000152811408 ], [ 305833.100000101199839, 6664167.400001538917422 ], [ 308247.693468660872895, 6656576.087616140954196 ], [ 322009.100000095786527, 6670665.80000151693821 ], [ 316919.700000095879659, 6678261.600001495331526 ], [ 302552.600000098871533, 6683454.800001484341919 ], [ 308860.100000096485019, 6686791.00000147242099 ], [ 309382.300000094459392, 6698143.5000014398247 ], [ 299668.900000097462907, 6694994.600001448765397 ], [ 293981.500000097905286, 6700322.500001437030733 ], [ 290477.500000099185854, 6698282.500001442618668 ], [ 281169.400000100664329, 6702560.30000143032521 ], [ 284734.000000099069439, 6706523.400001419708133 ], [ 280941.600000099046156, 6712015.200001404620707 ], [ 290734.800000095798168, 6715767.700001391582191 ], [ 286205.400000095367432, 6724669.900001366622746 ], [ 292210.40000009391224, 6724549.30000136513263 ], [ 285150.300000094866846, 6728501.500001356005669 ], [ 276409.500000097439624, 6726691.400001363828778 ], [ 282176.800000095041469, 6731469.000001346692443 ], [ 280254.000000095169526, 6732983.000001343898475 ], [ 278685.500000096275471, 6729475.900001354515553 ], [ 277793.500000096100848, 6730997.000001349486411 ], [ 278612.200000095472205, 6733323.600001340731978 ], [ 278045.700000095588621, 6733928.200001342222095 ], [ 277442.300000096554868, 6729585.900001355446875 ], [ 273832.800000097195152, 6731159.100001350045204 ], [ 277339.000000096682925, 6729172.000001355074346 ], [ 277190.000000096915755, 6728249.200001358054578 ], [ 262136.400000100955367, 6725943.50000136718154 ], [ 255631.900000101013575, 6734097.700001345016062 ], [ 269288.200000098149758, 6731405.90000134985894 ], [ 272553.893444671586622, 6736712.283687107264996 ] ] ], [ [ [ 251594.300000105984509, 6713907.600001404061913 ], [ 248509.500000106170774, 6716720.500001396983862 ], [ 248452.000000105996151, 6717338.000001394189894 ], [ 252407.400000105379149, 6716214.200001398101449 ], [ 251594.300000105984509, 6713907.600001404061913 ] ] ], [ [ [ 238879.679415132850409, 6735233.556733449921012 ], [ 240815.403884790517623, 6735318.559695824049413 ], [ 242522.900000106077641, 6725227.800001373514533 ], [ 238692.100000106729567, 6726003.200001372955739 ], [ 238879.679415132850409, 6735233.556733449921012 ] ] ], [ [ [ 252522.949654536612798, 6735832.670091264881194 ], [ 254141.086775741772726, 6735903.726923467591405 ], [ 254599.800000101211481, 6733963.300001345574856 ], [ 252522.949654536612798, 6735832.670091264881194 ] ] ], [ [ [ 250033.402636110578896, 6735723.347264151088893 ], [ 250191.629206550074741, 6735730.295426157303154 ], [ 250225.400000102003105, 6735492.600001341663301 ], [ 250033.402636110578896, 6735723.347264151088893 ] ] ], [ [ [ 257440.363635992078343, 6736048.607205351814628 ], [ 257686.883933898614487, 6736059.432586719281971 ], [ 257572.700000100187026, 6735817.800001340918243 ], [ 257440.363635992078343, 6736048.607205351814628 ] ] ], [ [ [ 263690.438585895695724, 6736323.065112006850541 ], [ 264184.717931761406362, 6736344.770271649584174 ], [ 263628.300000098533928, 6735823.600001337006688 ], [ 263690.438585895695724, 6736323.065112006850541 ] ] ], [ [ [ 270440.234545623301528, 6736619.467136670835316 ], [ 270474.178432035201695, 6736620.957705677486956 ], [ 270454.900000096939038, 6736600.600001335144043 ], [ 270440.234545623301528, 6736619.467136670835316 ] ] ] ] } },
{ "type": "Feature", "properties": { "id": 7, "name": "STRASBOURG", "country": "67", "P": 275718.0, "P0": 83320.0, "a": 6548451674.4913864, "n": 4.0, "k": 672.0, "Phi": 1210256.0, "diff": 934538.0, "diff_null": 995152.98107494309, "m": 4.666666666666667, "avg_Phi_neighbors": 1132134.0, "avg_diff_neighbors": 1020544.3333333334, "avg_diff_null_neighbors": 1464099.0783076792 }, "geometry": { "type": "MultiPolygon", "coordinates": [ [ [ [ 1041861.91018899949268, 6792983.934653591364622 ], [ 990396.182824273826554, 6808223.582683024927974 ], [ 994310.728170455549844, 6871813.097986654378474 ], [ 1006753.385723152896389, 6899177.493215285241604 ], [ 1013330.399999954, 6899109.000000850297511 ], [ 1018252.399999954039231, 6905769.30000083334744 ], [ 1023928.299999953247607, 6907405.000000828877091 ], [ 1038618.699999948847108, 6893752.30000086966902 ], [ 1050607.399999947287142, 6895577.800000864081085 ], [ 1055647.199999945936725, 6892462.800000874325633 ], [ 1060438.699999945703894, 6895482.200000867247581 ], [ 1082898.099999940488487, 6886774.300000896677375 ], [ 1073528.699999938951805, 6867990.600000946782529 ], [ 1065247.499999939231202, 6862338.400000963360071 ], [ 1056359.299999938812107, 6848835.40000099968165 ], [ 1050106.199999935226515, 6821051.800001076422632 ], [ 1051411.999999933876097, 6813445.400001099333167 ], [ 1041861.91018899949268, 6792983.934653591364622 ] ] ] ] } },
{ "type": "Feature", "properties": { "id": 8, "name": "MONTPELLIER", "country": "34", "P": 272084.0, "P0": 83320.0, "a": 12848914328.790112, "n": 6.0, "k": 517.0, "Phi": 1229033.0, "diff": 956949.0, "diff_null": 765616.20716628805, "m": 5.6, "avg_Phi_neighbors": 1481579.0, "avg_diff_neighbors": 1272917.6, "avg_diff_null_neighbors": 1904414.7822356797 }, "geometry": { "type": "MultiPolygon", "coordinates": [ [ [ [ 671818.641340068541467, 6273976.872907432727516 ], [ 671241.872556632733904, 6382853.047003531828523 ], [ 716569.51954260643106, 6394369.410871403291821 ], [ 719919.703786666039377, 6393747.878803935833275 ], [ 809858.815765030798502, 6262943.669391024857759 ], [ 796649.099999960511923, 6263695.400002610869706 ], [ 791215.399999962886795, 6266246.900002603419125 ], [ 790673.399999963352457, 6272644.600002586841583 ], [ 781737.899999966844916, 6273121.00000258628279 ], [ 752378.399999978486449, 6254175.000002632848918 ], [ 741504.399999982793815, 6241706.500002659857273 ], [ 733177.399999986286275, 6243367.200002658180892 ], [ 723334.599999990314245, 6238131.100002667866647 ], [ 721422.716256971703842, 6235907.712022657506168 ], [ 671818.641340068541467, 6273976.872907432727516 ] ] ] ] } },
{ "type": "Feature", "properties": { "id": 9, "name": "BORDEAUX", "country": "33", "P": 243626.0, "P0": 83320.0, "a": 37002718816.745598, "n": 5.0, "k": 1987.0, "Phi": 3013632.0, "diff": 2770006.0, "diff_null": 2942513.353267726, "m": 5.75, "avg_Phi_neighbors": 1943148.0, "avg_diff_neighbors": 1699762.75, "avg_diff_null_neighbors": 2176526.9254983594 }, "geometry": { "type": "MultiPolygon", "coordinates": [ [ [ [ 383713.681464954162948, 6549783.878241464495659 ], [ 462439.930165004683658, 6516370.070702655240893 ], [ 544142.895737680839375, 6403345.943932277150452 ], [ 370992.009288779867347, 6217971.017380814999342 ], [ 356676.600000144855585, 6226058.000002713873982 ], [ 352411.900000146823004, 6225526.50000271666795 ], [ 348945.500000148022082, 6228559.600002709776163 ], [ 352376.400000146066304, 6233768.800002697855234 ], [ 347263.400000148394611, 6232845.700002700090408 ], [ 344946.700000150187407, 6224142.100002720020711 ], [ 338498.800000152783468, 6226345.500002717599273 ], [ 335695.200000153447036, 6231033.300002705305815 ], [ 340730.500000150816049, 6235530.300002695061266 ], [ 344050.000000147905666, 6249226.300002661533654 ], [ 333689.900000151828863, 6254326.600002652965486 ], [ 325696.300000155635644, 6250142.400002663955092 ], [ 324818.800000155286398, 6256200.00000264775008 ], [ 316175.80000015895348, 6255560.300002651289105 ], [ 311897.600000159989577, 6262098.000002635642886 ], [ 312225.700000159675255, 6263233.000002631917596 ], [ 311760.40000015986152, 6264145.200002631172538 ], [ 311961.000000159547199, 6265019.800002627074718 ], [ 321819.300000155519228, 6265542.600002626888454 ], [ 326763.60000015294645, 6269522.900002616457641 ], [ 341310.600000144157093, 6293054.200002556666732 ], [ 355792.900000131514389, 6350788.400002408772707 ], [ 361803.800000124145299, 6392088.600002299062908 ], [ 367865.100000120466575, 6404552.900002267211676 ], [ 382673.10000011511147, 6402407.500002269633114 ], [ 370438.600000117905438, 6417242.800002232193947 ], [ 362112.200000122829806, 6401687.80000227317214 ], [ 375428.300000106159132, 6494839.200002014636993 ], [ 380994.600000103062484, 6504145.200001988559961 ], [ 389077.800000100163743, 6506022.200001982040703 ], [ 372588.200000103912316, 6519520.600001947022974 ], [ 373488.600000103819184, 6516907.500001953914762 ], [ 370984.800000104762148, 6517200.300001953728497 ], [ 370474.400000104447827, 6520656.900001944042742 ], [ 370510.400000103341881, 6529071.400001922622323 ], [ 378724.10000010044314, 6530660.40000191424042 ], [ 376558.100000100268517, 6537017.700001898221672 ], [ 380373.600000099046156, 6536876.500001897104084 ], [ 384185.000000097090378, 6542325.500001880340278 ], [ 382541.000000097148586, 6546540.400001869536936 ], [ 385278.000000096159056, 6547676.900001864880323 ], [ 383713.681464954162948, 6549783.878241464495659 ] ] ], [ [ [ 360155.542437769530807, 6551438.990838806144893 ], [ 368831.214297389436979, 6553442.182319471612573 ], [ 372105.400000099674799, 6551486.700001855380833 ], [ 373621.800000101211481, 6536552.200001897290349 ], [ 371462.000000102561899, 6531266.400001912377775 ], [ 369059.100000102131162, 6540211.800001888535917 ], [ 360590.800000103656203, 6548506.100001865066588 ], [ 360155.542437769530807, 6551438.990838806144893 ] ] ] ] } },
{ "type": "Feature", "properties": { "id": 10, "name": "LILLE", "country": "59", "P": 231491.0, "P0": 83320.0, "a": 4900770922.1454544, "n": 6.0, "k": 652.0, "Phi": 2102420.0, "diff": 1870929.0, "diff_null": 965535.33282866504, "m": 5.4, "avg_Phi_neighbors": 883605.6, "avg_diff_neighbors": 764603.0, "avg_diff_null_neighbors": 1240683.2850365883 }, "geometry": { "type": "MultiPolygon", "coordinates": [ [ [ [ 755774.119487468502484, 6990538.17813559435308 ], [ 733894.10432546667289, 6980197.238322424702346 ], [ 642323.88350929284934, 7041434.411156979389489 ], [ 676343.084544970653951, 7079490.127226029522717 ], [ 680624.200000001117587, 7079165.400000350549817 ], [ 685544.60000000090804, 7069785.900000372901559 ], [ 693350.800000000512227, 7066172.800000383518636 ], [ 696584.400000000256114, 7072815.80000036302954 ], [ 696599.004997698124498, 7072820.226317220367491 ], [ 706083.299715400091372, 7065615.492601784877479 ], [ 755774.119487468502484, 6990538.17813559435308 ] ] ] ] } },
{ "type": "Feature", "properties": { "id": 11, "name": "RENNES", "country": "35", "P": 211373.0, "P0": 83320.0, "a": 19001051223.122765, "n": 6.0, "k": 922.0, "Phi": 2074246.0, "diff": 1862873.0, "diff_null": 1365373.5841534189, "m": 4.8, "avg_Phi_neighbors": 1271330.6, "avg_diff_neighbors": 1104590.2, "avg_diff_null_neighbors": 940952.68478425418 }, "geometry": { "type": "MultiPolygon", "coordinates": [ [ [ [ 264184.717931761406362, 6736344.770271649584174 ], [ 263690.438585895695724, 6736323.065112006850541 ], [ 263820.800000098475721, 6737370.900001335889101 ], [ 265452.200000097742304, 6738124.400001332163811 ], [ 265516.300000097777229, 6737592.000001332722604 ], [ 264184.717931761406362, 6736344.770271649584174 ] ] ], [ [ [ 232960.056318123155506, 6746110.536267667077482 ], [ 261451.51252132555237, 6868341.737156509421766 ], [ 264550.300000072398689, 6866834.500000962987542 ], [ 263021.400000073364936, 6863273.100000971928239 ], [ 270898.600000073492993, 6855273.300000993534923 ], [ 270983.400000074703712, 6848719.800001010298729 ], [ 278394.400000074296258, 6843621.80000102519989 ], [ 277991.500000074855052, 6841139.700001032091677 ], [ 280565.10000007529743, 6836367.900001045316458 ], [ 280880.900000074354466, 6840739.500001031905413 ], [ 284617.300000073970295, 6839909.70000103674829 ], [ 296912.800000069662929, 6849790.400001004338264 ], [ 296201.500000069383532, 6852272.700000996701419 ], [ 301135.700000068871304, 6850676.50000100210309 ], [ 308836.700000066368375, 6856342.200000982731581 ], [ 311039.900000066380017, 6853481.100000988692045 ], [ 306864.700000068114605, 6848830.100001004524529 ], [ 313816.700000066310167, 6851216.000000995583832 ], [ 315709.300000067334622, 6842971.900001019239426 ], [ 317231.700000066426583, 6847062.800001008436084 ], [ 319109.400000066845678, 6843243.000001018866897 ], [ 320669.700000065669883, 6847702.40000100620091 ], [ 322500.100000065518543, 6846052.500001008622348 ], [ 320754.400000065390486, 6849386.600001 ], [ 328250.700000064040069, 6849310.40000099968165 ], [ 333154.50000006495975, 6837843.900001031346619 ], [ 330732.200000066368375, 6832954.800001046620309 ], [ 335247.90000006504124, 6835845.800001037307084 ], [ 329783.200000063574407, 6850430.30000099632889 ], [ 336924.600000061269384, 6856062.500000978820026 ], [ 343766.300000060000457, 6856396.000000976957381 ], [ 341628.200000061828177, 6848282.000001001171768 ], [ 348682.300000061048195, 6844186.100001009181142 ], [ 379802.300000055111013, 6845622.800001001916826 ], [ 376032.800000055460259, 6848810.600000993348658 ], [ 378365.60000005440088, 6852640.100000982172787 ], [ 372742.400000056019053, 6848640.700000993907452 ], [ 364072.100000056088902, 6859071.000000967644155 ], [ 364319.300000054645352, 6867683.70000094268471 ], [ 361468.800000054761767, 6869246.00000093691051 ], [ 363904.500000054133125, 6871105.900000931695104 ], [ 365700.800000052724499, 6878730.600000910460949 ], [ 366152.235806560085621, 6879624.721850642934442 ], [ 366415.92506993166171, 6879387.993239605799317 ], [ 365915.800000052724499, 6877894.300000912509859 ], [ 366576.800000053073745, 6875615.300000919029117 ], [ 366670.716062363644596, 6879159.253104449249804 ], [ 427999.832984640728682, 6824100.672108459286392 ], [ 422234.474985359294806, 6784414.670816482976079 ], [ 382356.035694395657629, 6741533.996442496776581 ], [ 272553.893444671586622, 6736712.283687107264996 ], [ 273390.700000095879659, 6738072.000001329928637 ], [ 273119.200000095181167, 6741712.20000131893903 ], [ 271531.70000009535579, 6743109.100001315586269 ], [ 272480.500000095868018, 6738739.60000132676214 ], [ 270474.178432035201695, 6736620.957705677486956 ], [ 270440.234545623301528, 6736619.467136670835316 ], [ 265376.400000096706208, 6743134.100001316517591 ], [ 265988.800000097136945, 6740406.100001323036849 ], [ 259997.600000098347664, 6740949.300001323223114 ], [ 257686.883933898614487, 6736059.432586719281971 ], [ 257440.363635992078343, 6736048.607205351814628 ], [ 251768.200000099430326, 6745941.400001310743392 ], [ 254141.086775741772726, 6735903.726923467591405 ], [ 252522.949654536612798, 6735832.670091264881194 ], [ 249833.10000010143267, 6738253.800001333467662 ], [ 250191.629206550074741, 6735730.295426157303154 ], [ 250033.402636110578896, 6735723.347264151088893 ], [ 247672.200000101933256, 6738561.100001333281398 ], [ 247938.800000102492049, 6735696.000001342967153 ], [ 246225.000000102387276, 6738163.100001335144043 ], [ 242167.500000103784259, 6735935.200001342222095 ], [ 240048.300000103423372, 6739851.900001331232488 ], [ 240815.403884790517623, 6735318.559695824049413 ], [ 238879.679415132850409, 6735233.556733449921012 ], [ 238932.800000104180072, 6737847.500001337379217 ], [ 234146.100000103819184, 6745215.800001316703856 ], [ 239446.100000100908801, 6753120.100001293234527 ], [ 242867.600000099919271, 6752989.500001290813088 ], [ 239104.000000100873876, 6753434.600001291371882 ], [ 241304.700000099604949, 6756804.400001281872392 ], [ 238743.000000100699253, 6754511.800001287832856 ], [ 236493.500000100815669, 6756848.300001282244921 ], [ 235921.200000101001933, 6756572.100001283921301 ], [ 237881.200000101525802, 6752048.000001296401024 ], [ 234299.20000010257354, 6751175.200001299381256 ], [ 234004.100000103877392, 6745576.700001317076385 ], [ 232960.056318123155506, 6746110.536267667077482 ] ] ] ] } },
{ "type": "Feature", "properties": { "id": 12, "name": "REIMS", "country": "51", "P": 182592.0, "P0": 83320.0, "a": 23770018902.272133, "n": 10.0, "k": 2014.0, "Phi": 1517811.0, "diff": 1335219.0, "diff_null": 2982497.1784002013, "m": 5.666666666666667, "avg_Phi_neighbors": 1383203.2222222222, "avg_diff_neighbors": 1256621.4444444445, "avg_diff_null_neighbors": 1244763.9387949645 }, "geometry": { "type": "MultiPolygon", "coordinates": [ [ [ [ 707681.456519902450964, 6910977.089308244176209 ], [ 703216.158432393567637, 6926131.561698224395514 ], [ 733894.10432546667289, 6980197.238322424702346 ], [ 755774.119487468502484, 6990538.17813559435308 ], [ 786482.091757289832458, 7002642.191139945760369 ], [ 788193.399999991292134, 6997907.700000559911132 ], [ 781472.599999991711229, 6991800.000000577419996 ], [ 786003.899999990942888, 6984649.400000596418977 ], [ 803876.49999998905696, 6983011.100000598467886 ], [ 821536.999999987543561, 6989859.600000582635403 ], [ 821279.199999987962656, 6999789.000000557862222 ], [ 830349.19999998761341, 7009300.700000532902777 ], [ 835757.499999986961484, 7006027.900000542402267 ], [ 828516.599999986588955, 6987054.300000592134893 ], [ 835700.599999985424802, 6980241.200000608339906 ], [ 833677.59999998495914, 6967511.60000064317137 ], [ 843991.899999983725138, 6968537.100000642240047 ], [ 856305.599999981466681, 6957028.40000067371875 ], [ 858741.755401485948823, 6957207.171141559258103 ], [ 852277.942768729873933, 6870562.757378707639873 ], [ 827988.831197345629334, 6804691.734432321973145 ], [ 762806.271352458163165, 6780758.821880684234202 ], [ 726211.299236460239626, 6861570.986506315879524 ], [ 707681.456519902450964, 6910977.089308244176209 ] ] ] ] } },
{ "type": "Feature", "properties": { "id": 13, "name": "LE HAVRE", "country": "76", "P": 172074.0, "P0": 83320.0, "a": 3100638988.0617943, "n": 3.0, "k": 367.0, "Phi": 559835.0, "diff": 387761.0, "diff_null": 543483.84531920252, "m": 6.5, "avg_Phi_neighbors": 1232654.0, "avg_diff_neighbors": 1123662.0, "avg_diff_null_neighbors": 1611940.5058036838 }, "geometry": { "type": "MultiPolygon", "coordinates": [ [ [ [ 532530.692816493101418, 6976958.860197080299258 ], [ 519436.910543011559639, 6867052.978791309520602 ], [ 476931.142548375471961, 6916310.112722534686327 ], [ 492090.100000027567148, 6926594.800000760704279 ], [ 507091.800000025308691, 6929380.200000752694905 ], [ 491280.600000027159695, 6933115.400000744499266 ], [ 487510.800000027113128, 6938473.000000730156898 ], [ 497190.400000023888424, 6959804.600000669248402 ], [ 525636.800000019255094, 6975133.100000625476241 ], [ 532530.692816493101418, 6976958.860197080299258 ] ] ] ] } },
{ "type": "Feature", "properties": { "id": 14, "name": "SAINT-ETIENNE", "country": "42", "P": 172023.0, "P0": 83320.0, "a": 13278140454.672037, "n": 6.0, "k": 777.0, "Phi": 1215669.0, "diff": 1043646.0, "diff_null": 1150645.634367903, "m": 6.0, "avg_Phi_neighbors": 1300442.8333333333, "avg_diff_neighbors": 1081218.5, "avg_diff_null_neighbors": 1064014.0132475395 }, "geometry": { "type": "MultiPolygon", "coordinates": [ [ [ [ 716569.51954260643106, 6394369.410871403291821 ], [ 776236.732990295975469, 6547185.330706853419542 ], [ 860144.703036640188657, 6467304.811052436009049 ], [ 845258.270779613638297, 6403737.577044552192092 ], [ 805314.622318231035024, 6394049.532643983140588 ], [ 719919.703786666039377, 6393747.878803935833275 ], [ 716569.51954260643106, 6394369.410871403291821 ] ] ] ] } },
{ "type": "Feature", "properties": { "id": 15, "name": "TOULON", "country": "83", "P": 163760.0, "P0": 83320.0, "a": 3866982816.8994341, "n": 4.0, "k": 99.0, "Phi": 832173.0, "diff": 668413.0, "diff_null": 146607.35881907644, "m": 5.0, "avg_Phi_neighbors": 1210629.6666666667, "avg_diff_neighbors": 764218.66666666663, "avg_diff_null_neighbors": 430936.78198334586 }, "geometry": { "type": "MultiPolygon", "coordinates": [ [ [ [ 915900.828105271328241, 6234060.155040826648474 ], [ 926995.903266525245272, 6263409.882918758317828 ], [ 964812.4482466802001, 6302910.210245492868125 ], [ 997603.252471186104231, 6253923.321329937316477 ], [ 991119.099999879370444, 6248886.600002653896809 ], [ 1000240.599999875295907, 6247832.300002659671009 ], [ 996629.699999875854701, 6236646.700002685189247 ], [ 989472.099999879021198, 6238682.300002680160105 ], [ 984285.799999881070107, 6234176.100002689287066 ], [ 975607.599999884492718, 6233175.100002691149712 ], [ 974087.899999884655699, 6226843.500002705492079 ], [ 960634.999999890569597, 6229341.300002698786557 ], [ 956954.899999891291372, 6219347.800002723000944 ], [ 952456.399999893270433, 6219311.200002721510828 ], [ 955303.89999989233911, 6221585.100002715364099 ], [ 953806.799999893293716, 6225447.80000270716846 ], [ 946205.899999896413647, 6224596.100002707913518 ], [ 937820.199999900069088, 6229359.000002698972821 ], [ 934654.499999901279807, 6227504.500002702698112 ], [ 940181.599999898811802, 6223198.500002711080015 ], [ 935510.099999900907278, 6224170.600002707913518 ], [ 931613.49999990221113, 6220687.900002717971802 ], [ 927719.499999903957359, 6222860.00000271294266 ], [ 928739.599999903817661, 6228012.60000270139426 ], [ 919351.599999908125028, 6230892.200002694502473 ], [ 918552.799999908660538, 6234879.700002685189247 ], [ 915900.828105271328241, 6234060.155040826648474 ] ] ] ] } },
{ "type": "Feature", "properties": { "id": 16, "name": "GRENOBLE", "country": "38", "P": 160215.0, "P0": 83320.0, "a": 23891145627.571365, "n": 8.0, "k": 1127.0, "Phi": 2113095.0, "diff": 1952880.0, "diff_null": 1668954.4786777692, "m": 5.2857142857142856, "avg_Phi_neighbors": 1242690.5714285714, "avg_diff_neighbors": 1026829.5714285715, "avg_diff_null_neighbors": 1003192.0570275043 }, "geometry": { "type": "MultiPolygon", "coordinates": [ [ [ [ 860144.703036640188657, 6467304.811052436009049 ], [ 866044.024847314460203, 6474100.035992457531393 ], [ 957497.414079047739506, 6570472.299822014756501 ], [ 993336.003924752702005, 6568204.499078683555126 ], [ 992971.999999913037755, 6566911.700001806952059 ], [ 1000799.799999910639599, 6565682.400001811794937 ], [ 999310.999999909894541, 6557594.60000183340162 ], [ 1004240.999999908730388, 6559230.500001830048859 ], [ 1013363.599999903817661, 6543889.700001874938607 ], [ 1005620.299999905284494, 6535079.100001898594201 ], [ 996262.99999990791548, 6533311.700001902878284 ], [ 996338.599999906378798, 6521230.100001937709749 ], [ 1004772.599999902653508, 6513355.400001962669194 ], [ 1011552.799999900627881, 6512342.500001963227987 ], [ 1012222.399999898159876, 6497390.000002007000148 ], [ 1027293.299999892013147, 6486968.600002038292587 ], [ 1021886.799999892478809, 6478061.600002062506974 ], [ 1024403.199999890639447, 6470317.800002084113657 ], [ 1019837.499999891617335, 6465264.100002098828554 ], [ 1011443.399999894434586, 6464354.700002099387348 ], [ 1005962.69999989529606, 6456197.700002122670412 ], [ 995952.499999898951501, 6458222.600002113729715 ], [ 985153.199999901931733, 6451493.400002132169902 ], [ 989293.999999899533577, 6442329.100002158433199 ], [ 994967.299999897601083, 6441819.500002159737051 ], [ 995939.799999895738438, 6429970.200002193450928 ], [ 1004832.199999891920015, 6424533.30000220797956 ], [ 1016471.299999887705781, 6423639.30000221170485 ], [ 1016198.199999887030572, 6418068.000002226792276 ], [ 1019632.41668024926912, 6412501.368924168869853 ], [ 954818.573337491950952, 6360030.345057489350438 ], [ 933651.876512861810625, 6362309.905225189402699 ], [ 845258.270779613638297, 6403737.577044552192092 ], [ 860144.703036640188657, 6467304.811052436009049 ] ] ] ] } },
{ "type": "Feature", "properties": { "id": 17, "name": "DIJON", "country": "21", "P": 153003.0, "P0": 83320.0, "a": 27286089404.031227, "n": 8.0, "k": 1875.0, "Phi": 1265373.0, "diff": 1112370.0, "diff_null": 2776654.5230885688, "m": 6.5, "avg_Phi_neighbors": 1409543.125, "avg_diff_neighbors": 1234874.375, "avg_diff_null_neighbors": 1674692.8980254855 }, "geometry": { "type": "MultiPolygon", "coordinates": [ [ [ [ 745903.441427471698262, 6760332.959885015152395 ], [ 762806.271352458163165, 6780758.821880684234202 ], [ 827988.831197345629334, 6804691.734432321973145 ], [ 896528.807450116495602, 6769299.801381056196988 ], [ 885162.5662876307033, 6605669.05392349883914 ], [ 803331.494927112129517, 6609017.237873218022287 ], [ 777092.277709724614397, 6610688.726429970003664 ], [ 719670.40027707000263, 6658864.479876574128866 ], [ 745903.441427471698262, 6760332.959885015152395 ] ] ] ] } },
{ "type": "Feature", "properties": { "id": 18, "name": "NIMES", "country": "30", "P": 150564.0, "P0": 83320.0, "a": 7800738298.9318466, "n": 6.0, "k": 388.0, "Phi": 698517.0, "diff": 547953.0, "diff_null": 574582.37597779452, "m": 5.4, "avg_Phi_neighbors": 1088472.4, "avg_diff_neighbors": 782202.4, "avg_diff_null_neighbors": 587910.3176886196 }, "geometry": { "type": "MultiPolygon", "coordinates": [ [ [ [ 841273.965003478107974, 6263701.581924618221819 ], [ 837778.729768929537386, 6254436.13111831061542 ], [ 835512.134432361926883, 6251061.458338146097958 ], [ 834804.099999944446608, 6251114.800002640113235 ], [ 826549.099999947939068, 6254010.800002634525299 ], [ 829254.299999947077595, 6257671.600002624094486 ], [ 825917.699999948497862, 6262029.800002614967525 ], [ 809858.815765030798502, 6262943.669391024857759 ], [ 719919.703786666039377, 6393747.878803935833275 ], [ 805314.622318231035024, 6394049.532643983140588 ], [ 841273.965003478107974, 6263701.581924618221819 ] ] ] ] } },
{ "type": "Feature", "properties": { "id": 19, "name": "ANGERS", "country": "49", "P": 150125.0, "P0": 83320.0, "a": 8960055770.8169022, "n": 5.0, "k": 346.0, "Phi": 959172.0, "diff": 809047.0, "diff_null": 512385.31466061057, "m": 5.8, "avg_Phi_neighbors": 1393918.6, "avg_diff_neighbors": 1219805.6, "avg_diff_null_neighbors": 1042541.218268988 }, "geometry": { "type": "MultiPolygon", "coordinates": [ [ [ [ 415862.381154391798191, 6631903.11172541230917 ], [ 382356.035694395657629, 6741533.996442496776581 ], [ 422234.474985359294806, 6784414.670816482976079 ], [ 480907.632839634723496, 6721091.748401168733835 ], [ 474194.274895932641812, 6669460.783142868429422 ], [ 415862.381154391798191, 6631903.11172541230917 ] ] ] ] } },
{ "type": "Feature", "properties": { "id": 20, "name": "VILLEURBANNE", "country": "69", "P": 147192.0, "P0": 83320.0, "a": 10299555222.041428, "n": 5.0, "k": 833.0, "Phi": 1690337.0, "diff": 1543145.0, "diff_null": 1233575.0494574816, "m": 6.75, "avg_Phi_neighbors": 1443727.0, "avg_diff_neighbors": 1211005.75, "avg_diff_null_neighbors": 1797421.0279460002 }, "geometry": { "type": "MultiPolygon", "coordinates": [ [ [ [ 866044.024847314460203, 6474100.035992457531393 ], [ 803331.494927112129517, 6609017.237873218022287 ], [ 885162.5662876307033, 6605669.05392349883914 ], [ 939600.661824750248343, 6579180.517334631644189 ], [ 940628.899999929824844, 6577110.400001772679389 ], [ 929300.399999932851642, 6572706.700001782737672 ], [ 928176.299999932292849, 6563414.100001809187233 ], [ 942030.399999928311445, 6564997.700001806952059 ], [ 951944.260518032475375, 6573174.358184512704611 ], [ 957497.414079047739506, 6570472.299822014756501 ], [ 866044.024847314460203, 6474100.035992457531393 ] ] ] ] } },
{ "type": "Feature", "properties": { "id": 21, "name": "LE MANS", "country": "72", "P": 144244.0, "P0": 83320.0, "a": 12279944803.022076, "n": 7.0, "k": 715.0, "Phi": 808202.0, "diff": 663958.0, "diff_null": 1058830.9248044409, "m": 6.1428571428571432, "avg_Phi_neighbors": 1329665.4285714286, "avg_diff_neighbors": 1199103.7142857143, "avg_diff_null_neighbors": 1162492.6936664141 }, "geometry": { "type": "MultiPolygon", "coordinates": [ [ [ [ 480907.632839634723496, 6721091.748401168733835 ], [ 422234.474985359294806, 6784414.670816482976079 ], [ 427999.832984640728682, 6824100.672108459286392 ], [ 523354.589266231574584, 6850199.558392681181431 ], [ 546690.902484064572491, 6839877.799262644723058 ], [ 561419.735151208471507, 6815521.280909307301044 ], [ 554906.733797859633341, 6759936.561167226172984 ], [ 480907.632839634723496, 6721091.748401168733835 ] ] ] ] } },
{ "type": "Feature", "properties": { "id": 22, "name": "AIX-EN-PROVENCE", "country": "13", "P": 141545.0, "P0": 83320.0, "a": 6793329189.3176451, "n": 7.0, "k": 221.0, "Phi": 847743.0, "diff": 706198.0, "diff_null": 327275.01312137267, "m": 5.0, "avg_Phi_neighbors": 1230856.5, "avg_diff_neighbors": 937101.16666666663, "avg_diff_null_neighbors": 667384.3404827991 }, "geometry": { "type": "MultiPolygon", "coordinates": [ [ [ [ 837778.729768929537386, 6254436.13111831061542 ], [ 841273.965003478107974, 6263701.581924618221819 ], [ 933651.876512861810625, 6362309.905225189402699 ], [ 954818.573337491950952, 6360030.345057489350438 ], [ 964812.4482466802001, 6302910.210245492868125 ], [ 926995.903266525245272, 6263409.882918758317828 ], [ 861815.682550191879272, 6256853.845554241910577 ], [ 859519.599999934667721, 6260469.500002620741725 ], [ 853443.599999936996028, 6257951.100002625957131 ], [ 850666.299999938462861, 6263429.000002613291144 ], [ 852114.499999937601388, 6258630.100002623163164 ], [ 847790.599999939324334, 6260057.200002619996667 ], [ 851724.899999937624671, 6256344.200002630241215 ], [ 850416.992070343578234, 6255707.328407304361463 ], [ 837778.729768929537386, 6254436.13111831061542 ] ], [ [ 862373.799999933689833, 6265459.300002610310912 ], [ 865965.099999932, 6265072.400002609938383 ], [ 868701.399999930756167, 6257843.70000262465328 ], [ 873416.799999928916804, 6258127.000002625398338 ], [ 880525.799999926355667, 6265436.30000260937959 ], [ 878284.599999927449971, 6268283.500002601183951 ], [ 873681.199999928940088, 6264522.900002612732351 ], [ 870933.899999930639751, 6271615.900002595037222 ], [ 865494.499999932711944, 6271373.700002593919635 ], [ 863339.699999933713116, 6275105.200002586469054 ], [ 862373.799999933689833, 6265459.300002610310912 ] ] ] ] } },
{ "type": "Feature", "properties": { "id": 23, "name": "CLERMONT-FERRAND", "country": "63", "P": 141463.0, "P0": 83320.0, "a": 30189892335.911098, "n": 7.0, "k": 1445.0, "Phi": 1375212.0, "diff": 1233749.0, "diff_null": 2139875.0857935902, "m": 6.4285714285714288, "avg_Phi_neighbors": 1584675.7142857143, "avg_diff_neighbors": 1326733.4285714286, "avg_diff_null_neighbors": 1923243.1443350995 }, "geometry": { "type": "MultiPolygon", "coordinates": [ [ [ [ 671241.872556632733904, 6382853.047003531828523 ], [ 629087.076292906189337, 6406473.005588096566498 ], [ 643103.088391075609252, 6629355.887805175036192 ], [ 719670.40027707000263, 6658864.479876574128866 ], [ 777092.277709724614397, 6610688.726429970003664 ], [ 776236.732990295975469, 6547185.330706853419542 ], [ 716569.51954260643106, 6394369.410871403291821 ], [ 671241.872556632733904, 6382853.047003531828523 ] ] ] ] } },
{ "type": "Feature", "properties": { "id": 24, "name": "BREST", "country": "29", "P": 139386.0, "P0": 83320.0, "a": 11082691996.329525, "n": 2.0, "k": 478.0, "Phi": 1311445.0, "diff": 1172059.0, "diff_null": 707861.79308604577, "m": 6.0, "avg_Phi_neighbors": 2074246.0, "avg_diff_neighbors": 1862873.0, "avg_diff_null_neighbors": 1365373.5841534189 }, "geometry": { "type": "MultiPolygon", "coordinates": [ [ [ [ 111766.400000108755194, 6839573.100001075305045 ], [ 111353.000000108731911, 6839989.200001074001193 ], [ 111761.600000108359382, 6840945.700001072138548 ], [ 112263.600000108359382, 6840265.70000107306987 ], [ 111766.400000108755194, 6839573.100001075305045 ] ] ], [ [ [ 218163.100000107951928, 6744005.800001325085759 ], [ 215162.600000108475797, 6744289.900001322850585 ], [ 211597.700000108568929, 6747990.900001313537359 ], [ 217788.700000107462984, 6746522.000001316890121 ], [ 218163.100000107951928, 6744005.800001325085759 ] ] ], [ [ [ 104478.000000107218511, 6850741.90000104624778 ], [ 106831.400000107474625, 6847834.000001052394509 ], [ 99272.20000010903459, 6847443.400001055561006 ], [ 99728.400000108871609, 6848378.700001053512096 ], [ 104478.000000107218511, 6850741.90000104624778 ] ] ], [ [ [ 261451.51252132555237, 6868341.737156509421766 ], [ 232960.056318123155506, 6746110.536267667077482 ], [ 223430.60000010515796, 6750983.100001303479075 ], [ 229429.100000103644561, 6750719.900001301430166 ], [ 223192.400000104447827, 6753663.100001293234527 ], [ 227990.100000102596823, 6757516.500001281499863 ], [ 230002.900000101421028, 6760513.10000127274543 ], [ 229491.700000101234764, 6762181.000001268461347 ], [ 230487.000000100990292, 6762307.900001267902553 ], [ 230683.900000100897159, 6762556.100001267157495 ], [ 229239.100000101374462, 6762452.900001269765198 ], [ 229589.70000010158401, 6760081.700001272372901 ], [ 225053.100000103295315, 6757000.600001282058656 ], [ 222470.000000101805199, 6766914.300001256167889 ], [ 224106.100000103877392, 6756054.000001287087798 ], [ 216528.200000106473453, 6752537.700001300312579 ], [ 211795.900000105786603, 6760492.600001277402043 ], [ 212702.300000104587525, 6765082.000001263804734 ], [ 211240.000000104482751, 6767774.300001258030534 ], [ 212692.100000103586353, 6770026.000001250766218 ], [ 211442.800000103306957, 6771859.800001244992018 ], [ 210822.000000105996151, 6760542.900001277215779 ], [ 203599.10000010690419, 6764503.300001268275082 ], [ 200244.200000107870437, 6762976.400001272559166 ], [ 197442.400000107940286, 6766226.60000126529485 ], [ 199343.300000106915832, 6767667.600001257844269 ], [ 202859.500000106228981, 6767597.000001258216798 ], [ 203821.100000105798244, 6768493.600001255050302 ], [ 199484.300000106683001, 6769130.600001255050302 ], [ 196632.700000107986853, 6766198.100001262500882 ], [ 195875.400000107067171, 6771435.500001248903573 ], [ 195858.800000108371023, 6765634.800001266412437 ], [ 187500.800000110291876, 6765771.900001268833876 ], [ 181714.800000108603854, 6778819.100001230835915 ], [ 178187.700000109616667, 6778237.800001233816147 ], [ 178863.400000110559631, 6773405.800001247785985 ], [ 169043.600000112084672, 6776302.500001240521669 ], [ 167511.200000111013651, 6782095.700001225806773 ], [ 172813.000000109779648, 6782792.700001223012805 ], [ 170015.000000110012479, 6784143.800001217983663 ], [ 171246.500000109197572, 6786207.900001212023199 ], [ 171040.40000010910444, 6787298.700001209974289 ], [ 169811.200000109151006, 6787913.200001207180321 ], [ 169917.500000108848326, 6788706.80000120587647 ], [ 169690.500000109197572, 6787809.200001209042966 ], [ 170829.600000109290704, 6787159.800001211464405 ], [ 169760.500000110128894, 6783451.700001220218837 ], [ 164591.600000112201087, 6780650.100001230835915 ], [ 168830.200000112410635, 6775235.000001246109605 ], [ 164421.100000114180148, 6773091.800001253373921 ], [ 164196.200000112876296, 6777450.500001237727702 ], [ 161358.100000113714486, 6776533.600001241080463 ], [ 165093.500000114087015, 6772202.100001255050302 ], [ 163391.400000115158036, 6769295.300001263618469 ], [ 148921.300000118557364, 6769863.200001266784966 ], [ 151276.100000116741285, 6774411.100001251325011 ], [ 149046.600000114762224, 6784267.00000122282654 ], [ 138877.700000114389695, 6794766.000001196749508 ], [ 142815.600000113015994, 6797347.800001188181341 ], [ 138839.900000113877468, 6797549.400001188740134 ], [ 136579.900000115274452, 6793595.200001199729741 ], [ 124268.400000116671436, 6799229.700001187622547 ], [ 151961.300000109127723, 6804474.800001164898276 ], [ 154931.100000109407119, 6800953.400001174770296 ], [ 159919.300000106566586, 6808648.30000115185976 ], [ 156923.000000105472282, 6814473.400001134723425 ], [ 146574.000000106520019, 6819347.900001123547554 ], [ 139256.000000110012479, 6812111.200001147575676 ], [ 140864.800000107381493, 6821099.30000111926347 ], [ 135086.800000108429231, 6821992.80000111926347 ], [ 134735.10000010766089, 6825012.600001108832657 ], [ 139276.700000106706284, 6824833.500001109205186 ], [ 138699.700000105658546, 6829043.300001096911728 ], [ 142661.600000104284845, 6831231.200001089833677 ], [ 141790.200000105891377, 6824853.400001108646393 ], [ 144825.000000105123036, 6827588.300001101568341 ], [ 144261.800000105984509, 6824258.000001111067832 ], [ 161471.900000102235936, 6824324.300001107156277 ], [ 159968.900000103167258, 6822045.100001112557948 ], [ 161423.800000103306957, 6820186.50000111758709 ], [ 165707.100000103004277, 6817590.900001125410199 ], [ 170877.300000102026388, 6816804.900001125410199 ], [ 172735.100000101490878, 6817552.500001123175025 ], [ 172079.600000102189369, 6814691.70000113081187 ], [ 173974.300000100862235, 6818676.80000111926347 ], [ 160713.700000102515332, 6822373.700001110322773 ], [ 167991.100000100908801, 6823775.400001106783748 ], [ 160885.500000101746991, 6826225.800001100637019 ], [ 163520.000000100932084, 6827630.300001096911728 ], [ 156964.900000102468766, 6826706.800001099705696 ], [ 158534.20000010158401, 6828998.800001093186438 ], [ 161500.200000100769103, 6829735.500001090578735 ], [ 162887.600000099977478, 6831394.300001083873212 ], [ 148044.800000103889033, 6829079.600001094862819 ], [ 152321.300000101560727, 6834622.800001079216599 ], [ 159586.500000099069439, 6837865.500001066364348 ], [ 162128.800000098184682, 6839720.500001062639058 ], [ 163112.900000097695738, 6840818.400001059286296 ], [ 137035.000000105355866, 6831319.100001091137528 ], [ 131928.10000010614749, 6833794.200001087971032 ], [ 125086.900000108056702, 6831443.300001094117761 ], [ 127201.900000106659718, 6835507.80000108294189 ], [ 123963.600000107311644, 6835295.000001084059477 ], [ 125746.400000104447827, 6844869.300001055933535 ], [ 130444.000000102794729, 6847204.300001048482955 ], [ 127155.700000103446655, 6847272.500001048669219 ], [ 126727.200000102166086, 6852572.50000103469938 ], [ 135032.000000098836608, 6858101.700001016259193 ], [ 146682.000000097905286, 6854144.200001025572419 ], [ 139404.800000098301098, 6857854.000001016072929 ], [ 140757.700000097043812, 6861147.100001006387174 ], [ 149109.800000096904114, 6856313.400001019239426 ], [ 142902.500000096857548, 6861038.000001006759703 ], [ 145113.30000009550713, 6863948.500000997446477 ], [ 155695.900000093737617, 6862843.600000997073948 ], [ 153142.600000093691051, 6865233.600000991486013 ], [ 160268.100000091711991, 6866972.500000985339284 ], [ 162944.800000092596747, 6861777.300000998191535 ], [ 176152.100000088626985, 6867521.300000980496407 ], [ 181026.400000088498928, 6864256.800000986084342 ], [ 186727.600000085891224, 6870195.500000968575478 ], [ 188127.0000000858563, 6869550.900000971741974 ], [ 187283.400000086636283, 6866982.800000978633761 ], [ 188783.100000087288208, 6863705.80000098887831 ], [ 188144.400000088615343, 6858023.000001003034413 ], [ 188897.400000088906381, 6856027.70000100787729 ], [ 191048.800000086601358, 6863960.400000985711813 ], [ 193240.200000086450018, 6863311.200000987388194 ], [ 192044.200000086973887, 6861976.600000991486013 ], [ 194070.200000088021625, 6855779.300001009367406 ], [ 195588.900000087742228, 6855612.200001008808613 ], [ 198669.400000086636283, 6858161.800001 ], [ 195168.700000086100772, 6863151.80000098887831 ], [ 198881.500000084168278, 6868143.800000973045826 ], [ 211606.900000082736369, 6864574.500000980682671 ], [ 210148.400000083725899, 6860551.800000989809632 ], [ 212913.400000082619954, 6863308.300000982359052 ], [ 216573.100000082282349, 6861751.300000985153019 ], [ 216962.900000079302117, 6874412.400000950321555 ], [ 223188.10000007704366, 6879496.900000933557749 ], [ 228177.400000077439472, 6874462.800000948831439 ], [ 243874.200000073120464, 6881081.500000925734639 ], [ 245150.500000073749106, 6877258.000000937841833 ], [ 242236.70000007544877, 6872473.500000952742994 ], [ 243423.200000075157732, 6871757.4000009521842 ], [ 247879.100000072910916, 6879143.80000093113631 ], [ 255120.800000070943497, 6881964.300000920891762 ], [ 250318.80000007461058, 6868590.200000960379839 ], [ 254723.400000072433613, 6874995.000000939704478 ], [ 259016.600000071746763, 6874727.400000941008329 ], [ 256207.300000073097181, 6870892.500000952742994 ], [ 261451.51252132555237, 6868341.737156509421766 ] ] ], [ [ [ 186472.900000085937791, 6871225.600000966340303 ], [ 184244.800000086077489, 6871665.300000965595245 ], [ 183059.50000008608913, 6872660.100000961683691 ], [ 185571.200000085460488, 6873056.200000961311162 ], [ 186472.900000085937791, 6871225.600000966340303 ] ] ] ] } },
{ "type": "Feature", "properties": { "id": 25, "name": "LIMOGES", "country": "87", "P": 135098.0, "P0": 83320.0, "a": 26580092286.765244, "n": 6.0, "k": 1267.0, "Phi": 1260946.0, "diff": 1125848.0, "diff_null": 1876278.0164017156, "m": 6.166666666666667, "avg_Phi_neighbors": 1837248.5, "avg_diff_neighbors": 1640583.1666666667, "avg_diff_null_neighbors": 2247239.0606863485 }, "geometry": { "type": "MultiPolygon", "coordinates": [ [ [ [ 602800.128520713653415, 6628700.044990781694651 ], [ 625452.938159335171804, 6633675.316271675750613 ], [ 643103.088391075609252, 6629355.887805175036192 ], [ 629087.076292906189337, 6406473.005588096566498 ], [ 544142.895737680839375, 6403345.943932277150452 ], [ 462439.930165004683658, 6516370.070702655240893 ], [ 602800.128520713653415, 6628700.044990781694651 ] ] ] ] } },
{ "type": "Feature", "properties": { "id": 26, "name": "TOURS", "country": "37", "P": 134803.0, "P0": 83320.0, "a": 10848319198.178093, "n": 5.0, "k": 495.0, "Phi": 895125.0, "diff": 760322.0, "diff_null": 733036.79409538221, "m": 6.4, "avg_Phi_neighbors": 1089643.2, "avg_diff_neighbors": 963389.4, "avg_diff_null_neighbors": 1268227.6979056268 }, "geometry": { "type": "MultiPolygon", "coordinates": [ [ [ [ 480907.632839634723496, 6721091.748401168733835 ], [ 554906.733797859633341, 6759936.561167226172984 ], [ 625452.938159335171804, 6633675.316271675750613 ], [ 602800.128520713653415, 6628700.044990781694651 ], [ 474194.274895932641812, 6669460.783142868429422 ], [ 480907.632839634723496, 6721091.748401168733835 ] ] ] ] } },
{ "type": "Feature", "properties": { "id": 27, "name": "AMIENS", "country": "80", "P": 132699.0, "P0": 83320.0, "a": 12037689484.920267, "n": 7.0, "k": 1574.0, "Phi": 1124118.0, "diff": 991419.0, "diff_null": 2330908.916982084, "m": 6.5, "avg_Phi_neighbors": 1367998.0, "avg_diff_neighbors": 1229518.0, "avg_diff_null_neighbors": 1126951.5157708805 }, "geometry": { "type": "MultiPolygon", "coordinates": [ [ [ [ 620588.320402541197836, 6926579.612096231430769 ], [ 581282.792166896164417, 6995729.618049236014485 ], [ 588889.400000010849908, 7001825.900000551715493 ], [ 596087.800000009592623, 7013894.100000518374145 ], [ 605729.800000008894131, 7009970.700000528246164 ], [ 595661.50000000919681, 7021362.100000497885048 ], [ 597104.100000008707866, 7030231.800000475719571 ], [ 603192.700000008218922, 7029102.500000478699803 ], [ 597332.400000008521602, 7035062.600000463426113 ], [ 598489.085439091082662, 7042961.56177141983062 ], [ 642323.88350929284934, 7041434.411156979389489 ], [ 733894.10432546667289, 6980197.238322424702346 ], [ 703216.158432393567637, 6926131.561698224395514 ], [ 664293.570934068528004, 6924666.505201680585742 ], [ 620588.320402541197836, 6926579.612096231430769 ] ] ] ] } },
{ "type": "Feature", "properties": { "id": 28, "name": "PERPIGNAN", "country": "66", "P": 120959.0, "P0": 83320.0, "a": 10447136745.857384, "n": 3.0, "k": 596.0, "Phi": 798871.0, "diff": 677912.0, "diff_null": 882605.91773908644, "m": 6.0, "avg_Phi_neighbors": 2274329.5, "avg_diff_neighbors": 1909138.5, "avg_diff_null_neighbors": 2769990.5522331563 }, "geometry": { "type": "MultiPolygon", "coordinates": [ [ [ [ 584585.104308692971244, 6172019.264310227707028 ], [ 671818.641340068541467, 6273976.872907432727516 ], [ 721422.716256971703842, 6235907.712022657506168 ], [ 708898.99999999627471, 6221343.50000270921737 ], [ 703499.099999998463318, 6206754.300002740696073 ], [ 702275.199999999022111, 6178402.900002803653479 ], [ 704283.499999998137355, 6160455.700002842582762 ], [ 711421.499999994994141, 6157265.000002847053111 ], [ 714395.499999993713573, 6148363.700002865865827 ], [ 707042.299999996903352, 6147292.400002870708704 ], [ 703331.599999998579733, 6152726.900002857670188 ], [ 695638.100000001839362, 6153551.500002856366336 ], [ 681708.100000008009374, 6145829.800002872943878 ], [ 673116.300000011920929, 6145029.100002874620259 ], [ 672907.400000012014061, 6137961.900002889335155 ], [ 663845.900000015972182, 6139779.100002883002162 ], [ 661425.300000017159618, 6137115.500002890825272 ], [ 638780.500000027008355, 6149020.000002865679562 ], [ 630461.700000030570664, 6147427.600002869963646 ], [ 624893.300000033224933, 6141958.500002880580723 ], [ 618473.400000036112033, 6139419.200002886354923 ], [ 612289.500000038649887, 6151002.600002862513065 ], [ 595443.100000045844354, 6155896.200002854689956 ], [ 596257.700000045355409, 6162359.50000283960253 ], [ 600216.600000043516047, 6164561.900002833455801 ], [ 595336.900000045658089, 6166331.700002829544246 ], [ 596210.500000045169145, 6169512.800002824515104 ], [ 584585.104308692971244, 6172019.264310227707028 ] ], [ [ 614352.600000037578866, 6152852.200002859346569 ], [ 614306.700000037671998, 6150939.800002860836685 ], [ 618656.600000035832636, 6150337.10000286437571 ], [ 616460.500000036670826, 6155454.100002854131162 ], [ 614352.600000037578866, 6152852.200002859346569 ] ] ] ] } },
{ "type": "Feature", "properties": { "id": 29, "name": "METZ", "country": "57", "P": 118634.0, "P0": 83320.0, "a": 8708258613.9379654, "n": 4.0, "k": 951.0, "Phi": 1215288.0, "diff": 1096654.0, "diff_null": 1408319.174110522, "m": 6.666666666666667, "avg_Phi_neighbors": 1229863.0, "avg_diff_neighbors": 1042402.3333333334, "avg_diff_null_neighbors": 1971548.1182605766 }, "geometry": { "type": "MultiPolygon", "coordinates": [ [ [ [ 852277.942768729873933, 6870562.757378707639873 ], [ 858741.755401485948823, 6957207.171141559258103 ], [ 863792.39999998069834, 6957577.800000672228634 ], [ 868494.999999979743734, 6953056.800000686198473 ], [ 867347.199999979464337, 6948262.500000697560608 ], [ 869689.699999979347922, 6950537.800000693649054 ], [ 875575.899999978370033, 6946859.200000703334808 ], [ 879040.599999977042899, 6935896.400000733323395 ], [ 885092.699999976553954, 6939656.200000722892582 ], [ 889155.199999975739047, 6937192.600000731647015 ], [ 891340.899999975925311, 6941938.200000719167292 ], [ 898902.799999974900857, 6941253.400000721216202 ], [ 900552.299999974900857, 6943962.80000071413815 ], [ 907874.499999973340891, 6937046.500000733882189 ], [ 915387.199999972246587, 6936472.000000734813511 ], [ 916255.499999971711077, 6932045.000000747852027 ], [ 924856.199999970616773, 6932578.500000745989382 ], [ 928610.699999970733188, 6938431.800000730901957 ], [ 935870.799999969894998, 6939384.600000729784369 ], [ 957421.299999966169707, 6931045.70000075455755 ], [ 961602.599999964702874, 6924551.200000773184001 ], [ 959086.299999964889139, 6922273.300000778399408 ], [ 966934.599999962840229, 6915199.700000800192356 ], [ 972589.699999960372224, 6902443.000000834465027 ], [ 979647.299999959301203, 6901414.100000839680433 ], [ 979531.199999960139394, 6908260.100000820122659 ], [ 986611.499999959254637, 6909639.000000816769898 ], [ 993992.999999957624823, 6906394.900000827386975 ], [ 995887.299999956274405, 6897911.400000852532685 ], [ 999039.399999956483953, 6902862.100000837817788 ], [ 1003459.099999955156818, 6899211.800000849179924 ], [ 1006753.385723152896389, 6899177.493215285241604 ], [ 994310.728170455549844, 6871813.097986654378474 ], [ 852277.942768729873933, 6870562.757378707639873 ] ] ] ] } },
{ "type": "Feature", "properties": { "id": 30, "name": "BESANCON", "country": "25", "P": 116952.0, "P0": 83320.0, "a": 14178505852.300774, "n": 6.0, "k": 1457.0, "Phi": 966848.0, "diff": 849896.0, "diff_null": 2157645.6747413571, "m": 6.2, "avg_Phi_neighbors": 1449983.8, "avg_diff_neighbors": 1314674.8, "avg_diff_null_neighbors": 1732632.4224072669 }, "geometry": { "type": "MultiPolygon", "coordinates": [ [ [ [ 993336.003924752702005, 6568204.499078683555126 ], [ 957497.414079047739506, 6570472.299822014756501 ], [ 951944.260518032475375, 6573174.358184512704611 ], [ 953852.599999925587326, 6574748.300001780502498 ], [ 954796.099999925820157, 6578142.400001768954098 ], [ 949250.099999927682802, 6580383.300001763738692 ], [ 953994.199999927426688, 6590513.800001733005047 ], [ 960662.799999925075099, 6587845.700001743622124 ], [ 969797.899999923422001, 6595428.600001720711589 ], [ 992281.899999916786328, 6595287.500001724809408 ], [ 990099.49999991687946, 6590032.300001738592982 ], [ 997466.499999913852662, 6582874.400001760572195 ], [ 993336.003924752702005, 6568204.499078683555126 ] ] ], [ [ [ 939600.661824750248343, 6579180.517334631644189 ], [ 885162.5662876307033, 6605669.05392349883914 ], [ 896528.807450116495602, 6769299.801381056196988 ], [ 945253.336920408881269, 6767644.321139148436487 ], [ 995653.785203730803914, 6686472.278817208483815 ], [ 981165.199999929405749, 6671355.000001502223313 ], [ 980817.999999928986654, 6666446.800001514144242 ], [ 961099.399999932618812, 6653277.400001551955938 ], [ 963711.49999993131496, 6649123.100001561455429 ], [ 962318.799999930197373, 6634781.400001605041325 ], [ 938227.899999934248626, 6613311.500001666136086 ], [ 941810.399999932968058, 6609868.300001674331725 ], [ 935279.799999933340587, 6595261.500001717358828 ], [ 943562.299999930430204, 6589959.500001734122634 ], [ 938797.199999930802733, 6580798.100001758895814 ], [ 939600.661824750248343, 6579180.517334631644189 ] ] ] ] } },
{ "type": "Feature", "properties": { "id": 31, "name": "BOULOGNE-BILLANCOURT", "country": "92", "P": 116794.0, "P0": 83320.0, "a": 106124771.98861408, "n": 5.0, "k": 14.0, "Phi": 563349.0, "diff": 446555.0, "diff_null": 20732.353772394647, "m": 5.8, "avg_Phi_neighbors": 1166079.8, "avg_diff_neighbors": 649536.2, "avg_diff_null_neighbors": 189256.77229371684 }, "geometry": { "type": "MultiPolygon", "coordinates": [ [ [ [ 644557.675943653797731, 6846153.98983930516988 ], [ 638179.310073069529608, 6861566.521218501031399 ], [ 643797.081238210899755, 6863487.594642044045031 ], [ 647440.889283043448813, 6862820.796192483976483 ], [ 649326.427234007860534, 6856115.395994211547077 ], [ 644557.675943653797731, 6846153.98983930516988 ] ] ] ] } },
{ "type": "Feature", "properties": { "id": 32, "name": "ORLEANS", "country": "45", "P": 114375.0, "P0": 83320.0, "a": 23310140865.041275, "n": 8.0, "k": 1035.0, "Phi": 1372491.0, "diff": 1258116.0, "diff_null": 1532713.29674489, "m": 6.25, "avg_Phi_neighbors": 1292660.125, "avg_diff_neighbors": 1170916.75, "avg_diff_null_neighbors": 1288552.8090146352 }, "geometry": { "type": "MultiPolygon", "coordinates": [ [ [ [ 554906.733797859633341, 6759936.561167226172984 ], [ 561419.735151208471507, 6815521.280909307301044 ], [ 640886.828707351116464, 6802958.991420997306705 ], [ 650805.019409962464124, 6799351.516827358864248 ], [ 745903.441427471698262, 6760332.959885015152395 ], [ 719670.40027707000263, 6658864.479876574128866 ], [ 643103.088391075609252, 6629355.887805175036192 ], [ 625452.938159335171804, 6633675.316271675750613 ], [ 554906.733797859633341, 6759936.561167226172984 ] ] ] ] } },
{ "type": "Feature", "properties": { "id": 33, "name": "MULHOUSE", "country": "68", "P": 112063.0, "P0": 83320.0, "a": 7103794058.9396648, "n": 4.0, "k": 707.0, "Phi": 1219592.0, "diff": 1107529.0, "diff_null": 1046983.8655059297, "m": 5.333333333333333, "avg_Phi_neighbors": 1046208.6666666666, "avg_diff_neighbors": 880628.0, "avg_diff_null_neighbors": 1696597.617040962 }, "geometry": { "type": "MultiPolygon", "coordinates": [ [ [ [ 995653.785203730803914, 6686472.278817208483815 ], [ 945253.336920408881269, 6767644.321139148436487 ], [ 990396.182824273826554, 6808223.582683024927974 ], [ 1041861.91018899949268, 6792983.934653591364622 ], [ 1040408.199999932316132, 6789869.300001164898276 ], [ 1040322.399999930988997, 6780262.400001192465425 ], [ 1044696.699999928940088, 6773633.900001212023199 ], [ 1038231.399999925517477, 6742627.10000130161643 ], [ 1044459.099999922211282, 6729657.200001338496804 ], [ 1038667.69999992265366, 6725560.600001350976527 ], [ 1040781.699999922071584, 6723898.400001355446875 ], [ 1037848.899999922025017, 6718737.700001371093094 ], [ 1033493.09999992325902, 6719994.700001366436481 ], [ 1035442.899999922257848, 6717259.800001375377178 ], [ 1030572.499999922700226, 6712780.400001388974488 ], [ 1014970.099999926518649, 6712910.800001383759081 ], [ 1016070.29999992728699, 6718791.900001366622746 ], [ 999750.29999993101228, 6717994.000001368112862 ], [ 1001194.399999930057675, 6713399.900001381523907 ], [ 992730.699999930337071, 6701871.800001413561404 ], [ 1002943.699999928358011, 6704538.800001407042146 ], [ 1006198.999999927007593, 6700526.100001419894397 ], [ 997886.699999928358011, 6694932.300001433119178 ], [ 999078.499999927473255, 6690045.600001446902752 ], [ 995653.785203730803914, 6686472.278817208483815 ] ] ] ] } },
{ "type": "Feature", "properties": { "id": 34, "name": "ROUEN", "country": "76", "P": 110755.0, "P0": 83320.0, "a": 9760206621.121212, "n": 8.0, "k": 1008.0, "Phi": 1332089.0, "diff": 1221334.0, "diff_null": 1492729.4716124146, "m": 5.7142857142857144, "avg_Phi_neighbors": 994901.14285714284, "avg_diff_neighbors": 874820.85714285716, "avg_diff_null_neighbors": 992614.32551097637 }, "geometry": { "type": "MultiPolygon", "coordinates": [ [ [ [ 523354.589266231574584, 6850199.558392681181431 ], [ 519436.910543011559639, 6867052.978791309520602 ], [ 532530.692816493101418, 6976958.860197080299258 ], [ 570363.500000013504177, 6986978.400000592693686 ], [ 581282.792166896164417, 6995729.618049236014485 ], [ 620588.320402541197836, 6926579.612096231430769 ], [ 595373.416374527500011, 6889272.784765558317304 ], [ 595323.414441365515813, 6889208.170854008756578 ], [ 546690.902484064572491, 6839877.799262644723058 ], [ 523354.589266231574584, 6850199.558392681181431 ] ] ] ] } },
{ "type": "Feature", "properties": { "id": 35, "name": "SAINT-DENIS", "country": "93", "P": 109343.0, "P0": 83320.0, "a": 1867506229.1805255, "n": 6.0, "k": 198.0, "Phi": 1237942.0, "diff": 1128599.0, "diff_null": 293214.71763815288, "m": 6.5, "avg_Phi_neighbors": 1369600.1666666667, "avg_diff_neighbors": 895952.16666666663, "avg_diff_null_neighbors": 1022796.1194381359 }, "geometry": { "type": "MultiPolygon", "coordinates": [ [ [ [ 651323.169567635399289, 6866266.257559820078313 ], [ 649297.641228081774898, 6873376.783100605942309 ], [ 664293.570934068528004, 6924666.505201680585742 ], [ 703216.158432393567637, 6926131.561698224395514 ], [ 707681.456519902450964, 6910977.089308244176209 ], [ 655369.420004584360868, 6865631.571199928410351 ], [ 651323.169567635399289, 6866266.257559820078313 ] ] ] ] } },
{ "type": "Feature", "properties": { "id": 36, "name": "CAEN", "country": "14", "P": 107229.0, "P0": 83320.0, "a": 12766525472.663145, "n": 5.0, "k": 1169.0, "Phi": 1133219.0, "diff": 1025990.0, "diff_null": 1731151.539994953, "m": 6.0, "avg_Phi_neighbors": 1193593.0, "avg_diff_neighbors": 1033981.5, "avg_diff_null_neighbors": 1115104.4564723691 }, "geometry": { "type": "MultiPolygon", "coordinates": [ [ [ [ 476931.142548375471961, 6916310.112722534686327 ], [ 519436.910543011559639, 6867052.978791309520602 ], [ 523354.589266231574584, 6850199.558392681181431 ], [ 427999.832984640728682, 6824100.672108459286392 ], [ 366670.716062363644596, 6879159.253104449249804 ], [ 366961.800000050745439, 6890143.400000877678394 ], [ 370691.200000050244853, 6889421.300000878982246 ], [ 366773.800000050512608, 6891665.000000873580575 ], [ 365219.900000051420648, 6887639.100000885315239 ], [ 363924.10000005090842, 6891732.20000087376684 ], [ 364207.100000047823414, 6911449.200000818818808 ], [ 367411.500000047381036, 6911974.700000817887485 ], [ 364123.900000047695357, 6913460.700000814162195 ], [ 362995.200000048032962, 6911136.200000820681453 ], [ 357635.700000046927016, 6924162.50000078510493 ], [ 359916.100000046542846, 6924611.600000783801079 ], [ 350837.400000047055073, 6929963.200000770390034 ], [ 346256.700000044715125, 6948261.700000720098615 ], [ 349782.300000042596366, 6958272.400000693276525 ], [ 342947.000000042608008, 6964041.000000678934157 ], [ 343651.900000041699968, 6969661.300000664778054 ], [ 366289.400000040361192, 6959135.200000688433647 ], [ 376084.400000038731378, 6961362.900000681169331 ], [ 377249.200000038137659, 6964472.700000672601163 ], [ 392133.600000036356505, 6963418.000000672414899 ], [ 394333.900000037509017, 6953594.800000699236989 ], [ 389320.30000003852183, 6951114.200000707060099 ], [ 388320.000000039231963, 6946238.100000718608499 ], [ 399558.000000040745363, 6925037.000000776723027 ], [ 412425.100000038393773, 6929107.200000764802098 ], [ 424260.600000037404243, 6923774.00000077765435 ], [ 453133.300000033690594, 6920136.300000783056021 ], [ 465315.900000032735988, 6913926.300000798888505 ], [ 475459.400000031106174, 6915311.60000079497695 ], [ 476931.142548375471961, 6916310.112722534686327 ] ] ], [ [ [ 366415.92506993166171, 6879387.993239605799317 ], [ 366152.235806560085621, 6879624.721850642934442 ], [ 366221.900000052468386, 6879762.700000908225775 ], [ 366649.300000052375253, 6880085.000000907108188 ], [ 366415.92506993166171, 6879387.993239605799317 ] ] ] ] } },
{ "type": "Feature", "properties": { "id": 37, "name": "ARGENTEUIL", "country": "95", "P": 106817.0, "P0": 83320.0, "a": 2489638198.605608, "n": 6.0, "k": 317.0, "Phi": 1240645.0, "diff": 1133828.0, "diff_null": 469439.72470350738, "m": 6.0, "avg_Phi_neighbors": 774312.16666666663, "avg_diff_neighbors": 671708.66666666663, "avg_diff_null_neighbors": 694780.66511060635 }, "geometry": { "type": "MultiPolygon", "coordinates": [ [ [ [ 595373.416374527500011, 6889272.784765558317304 ], [ 620588.320402541197836, 6926579.612096231430769 ], [ 664293.570934068528004, 6924666.505201680585742 ], [ 649297.641228081774898, 6873376.783100605942309 ], [ 646946.035627872915938, 6871394.015432961285114 ], [ 640792.898408171022311, 6870577.910528351552784 ], [ 595373.416374527500011, 6889272.784765558317304 ] ] ] ] } },
{ "type": "Feature", "properties": { "id": 38, "name": "MONTREUIL", "country": "93", "P": 104139.0, "P0": 83320.0, "a": 1976137402.8640482, "n": 5.0, "k": 234.0, "Phi": 1773431.0, "diff": 1669292.0, "diff_null": 346526.48448145337, "m": 6.6, "avg_Phi_neighbors": 1646027.4, "avg_diff_neighbors": 1105703.4, "avg_diff_null_neighbors": 846176.21039616433 }, "geometry": { "type": "MultiPolygon", "coordinates": [ [ [ [ 655369.420004584360868, 6865631.571199928410351 ], [ 707681.456519902450964, 6910977.089308244176209 ], [ 726211.299236460239626, 6861570.986506315879524 ], [ 658247.455638387356885, 6858218.089910748414695 ], [ 655922.737429426400922, 6859342.836322552524507 ], [ 655369.420004584360868, 6865631.571199928410351 ] ] ] ] } },
{ "type": "Feature", "properties": { "id": 39, "name": "NANCY", "country": "54", "P": 104072.0, "P0": 83320.0, "a": 13840487910.428305, "n": 6.0, "k": 1308.0, "Phi": 961522.0, "diff": 857450.0, "diff_null": 1936994.1953065856, "m": 6.0, "avg_Phi_neighbors": 1232528.0, "avg_diff_neighbors": 1072701.0, "avg_diff_null_neighbors": 1894542.2328202536 }, "geometry": { "type": "MultiPolygon", "coordinates": [ [ [ [ 827988.831197345629334, 6804691.734432321973145 ], [ 852277.942768729873933, 6870562.757378707639873 ], [ 994310.728170455549844, 6871813.097986654378474 ], [ 990396.182824273826554, 6808223.582683024927974 ], [ 945253.336920408881269, 6767644.321139148436487 ], [ 896528.807450116495602, 6769299.801381056196988 ], [ 827988.831197345629334, 6804691.734432321973145 ] ] ] ] } },
{ "type": "Feature", "properties": { "id": 40, "name": "ROUBAIX", "country": "59", "P": 95866.0, "P0": 83320.0, "a": 1811482422.0563259, "n": 4.0, "k": 214.0, "Phi": 806203.0, "diff": 710337.0, "diff_null": 316908.83623517532, "m": 6.333333333333333, "avg_Phi_neighbors": 1271015.3333333333, "avg_diff_neighbors": 1101663.0, "avg_diff_null_neighbors": 1320947.1117840018 }, "geometry": { "type": "MultiPolygon", "coordinates": [ [ [ [ 755774.119487468502484, 6990538.17813559435308 ], [ 706083.299715400091372, 7065615.492601784877479 ], [ 716499.765217161271721, 7069456.025771361775696 ], [ 718286.399999998742715, 7067126.700000379234552 ], [ 720348.499999998486601, 7047849.200000428594649 ], [ 726737.499999997904524, 7043809.900000438094139 ], [ 733655.999999997438863, 7048580.200000426732004 ], [ 736890.599999997182749, 7047409.300000429153442 ], [ 735592.499999997206032, 7043434.000000439584255 ], [ 743565.499999996623956, 7044070.200000438839197 ], [ 750677.999999995576218, 7023042.400000493973494 ], [ 753225.199999995413236, 7028386.300000479444861 ], [ 763175.899999994551763, 7025829.900000486522913 ], [ 772928.399999993853271, 7029456.90000047814101 ], [ 781063.399999992689118, 7018275.900000507943332 ], [ 782959.899999992689118, 7021838.100000496953726 ], [ 786187.599999992293306, 7020109.400000502355397 ], [ 780653.499999992316589, 7004652.800000541843474 ], [ 785881.999999991734512, 7004302.40000054333359 ], [ 786482.091757289832458, 7002642.191139945760369 ], [ 755774.119487468502484, 6990538.17813559435308 ] ] ] ] } },
{ "type": "Feature", "properties": { "id": 41, "name": "TOURCOING", "country": "59", "P": 93974.0, "P0": 83320.0, "a": 121756089.20432234, "n": 3.0, "k": 10.0, "Phi": 192815.0, "diff": 98841.0, "diff_null": 14808.824123139035, "m": 5.0, "avg_Phi_neighbors": 1454311.5, "avg_diff_neighbors": 1290633.0, "avg_diff_null_neighbors": 641222.08453192015 }, "geometry": { "type": "MultiPolygon", "coordinates": [ [ [ [ 716499.765217161271721, 7069456.025771361775696 ], [ 706083.299715400091372, 7065615.492601784877479 ], [ 696599.004997698124498, 7072820.226317220367491 ], [ 710652.499999999301508, 7077079.400000354275107 ], [ 716499.765217161271721, 7069456.025771361775696 ] ] ] ] } },
{ "type": "Feature", "properties": { "id": 42, "name": "NANTERRE", "country": "92", "P": 92227.0, "P0": 83320.0, "a": 259567658.81984329, "n": 6.0, "k": 30.0, "Phi": 556973.0, "diff": 464746.0, "diff_null": 44426.472369417104, "m": 5.666666666666667, "avg_Phi_neighbors": 835014.83333333337, "avg_diff_neighbors": 736725.16666666663, "avg_diff_null_neighbors": 459813.989023467 }, "geometry": { "type": "MultiPolygon", "coordinates": [ [ [ [ 595323.414441365515813, 6889208.170854008756578 ], [ 595373.416374527500011, 6889272.784765558317304 ], [ 640792.898408171022311, 6870577.910528351552784 ], [ 643561.879651524242945, 6867780.069809818640351 ], [ 643797.081238210899755, 6863487.594642044045031 ], [ 638179.310073069529608, 6861566.521218501031399 ], [ 595323.414441365515813, 6889208.170854008756578 ] ] ] ] } },
{ "type": "Feature", "properties": { "id": 43, "name": "AVIGNON", "country": "84", "P": 90305.0, "P0": 83320.0, "a": 9049147741.4810562, "n": 4.0, "k": 438.0, "Phi": 957208.0, "diff": 866903.0, "diff_null": 648626.49659348966, "m": 6.75, "avg_Phi_neighbors": 1218756.0, "avg_diff_neighbors": 1062669.25, "avg_diff_null_neighbors": 930364.3755362099 }, "geometry": { "type": "MultiPolygon", "coordinates": [ [ [ [ 805314.622318231035024, 6394049.532643983140588 ], [ 845258.270779613638297, 6403737.577044552192092 ], [ 933651.876512861810625, 6362309.905225189402699 ], [ 841273.965003478107974, 6263701.581924618221819 ], [ 805314.622318231035024, 6394049.532643983140588 ] ] ] ] } },
{ "type": "Feature", "properties": { "id": 44, "name": "VITRY-SUR-SEINE", "country": "94", "P": 90075.0, "P0": 83320.0, "a": 625751834.88260674, "n": 6.0, "k": 85.0, "Phi": 1232575.0, "diff": 1142500.0, "diff_null": 125875.00504668179, "m": 5.833333333333333, "avg_Phi_neighbors": 1582066.0, "avg_diff_neighbors": 1125367.6666666667, "avg_diff_null_neighbors": 583220.85671629233 }, "geometry": { "type": "MultiPolygon", "coordinates": [ [ [ [ 640886.828707351116464, 6802958.991420997306705 ], [ 644557.675943653797731, 6846153.98983930516988 ], [ 649326.427234007860534, 6856115.395994211547077 ], [ 655922.737429426400922, 6859342.836322552524507 ], [ 658247.455638387356885, 6858218.089910748414695 ], [ 650805.019409962464124, 6799351.516827358864248 ], [ 640886.828707351116464, 6802958.991420997306705 ] ] ] ] } },
{ "type": "Feature", "properties": { "id": 45, "name": "CRETEIL", "country": "94", "P": 89989.0, "P0": 83320.0, "a": 7474250290.1351929, "n": 5.0, "k": 559.0, "Phi": 1962532.0, "diff": 1872543.0, "diff_null": 827813.26848347194, "m": 7.4, "avg_Phi_neighbors": 1432336.2, "avg_diff_neighbors": 1303499.4, "avg_diff_null_neighbors": 1552853.2975523591 }, "geometry": { "type": "MultiPolygon", "coordinates": [ [ [ [ 762806.271352458163165, 6780758.821880684234202 ], [ 745903.441427471698262, 6760332.959885015152395 ], [ 650805.019409962464124, 6799351.516827358864248 ], [ 658247.455638387356885, 6858218.089910748414695 ], [ 726211.299236460239626, 6861570.986506315879524 ], [ 762806.271352458163165, 6780758.821880684234202 ] ] ] ] } },
{ "type": "Feature", "properties": { "id": 46, "name": "DUNKERQUE", "country": "59", "P": 89882.0, "P0": 83320.0, "a": 3783170502.9469223, "n": 3.0, "k": 377.0, "Phi": 777081.0, "diff": 687199.0, "diff_null": 558292.66944234155, "m": 6.5, "avg_Phi_neighbors": 1613269.0, "avg_diff_neighbors": 1431174.0, "avg_diff_null_neighbors": 1648222.1249053746 }, "geometry": { "type": "MultiPolygon", "coordinates": [ [ [ [ 676343.084544970653951, 7079490.127226029522717 ], [ 642323.88350929284934, 7041434.411156979389489 ], [ 598489.085439091082662, 7042961.56177141983062 ], [ 599471.700000007636845, 7049671.800000425428152 ], [ 603262.200000007404014, 7046596.600000432692468 ], [ 604999.000000007334165, 7046265.50000043399632 ], [ 599007.600000007427298, 7053696.800000415183604 ], [ 600155.200000005890615, 7086854.200000331737101 ], [ 619241.300000004470348, 7097813.200000301934779 ], [ 635565.80000000342261, 7101797.900000292807817 ], [ 638115.500000003376044, 7099261.600000298582017 ], [ 640148.400000003050081, 7104605.400000286288559 ], [ 642136.800000003073364, 7101523.000000293366611 ], [ 643069.000000002910383, 7102792.700000289827585 ], [ 641375.300000003073364, 7105722.600000282749534 ], [ 657497.000000002095476, 7106239.200000282377005 ], [ 668085.400000001536682, 7110480.10000027064234 ], [ 674130.500000001396984, 7094505.400000310502946 ], [ 671109.700000001583248, 7091520.100000318139791 ], [ 671708.700000001699664, 7083838.60000033583492 ], [ 674223.500000001629815, 7079650.900000347755849 ], [ 676343.084544970653951, 7079490.127226029522717 ] ] ] ] } },
{ "type": "Feature", "properties": { "id": 47, "name": "POITIERS", "country": "86", "P": 87427.0, "P0": 83320.0, "a": 18506508333.568832, "n": 6.0, "k": 919.0, "Phi": 1047405.0, "diff": 959978.0, "diff_null": 1360930.9369164773, "m": 5.2, "avg_Phi_neighbors": 1654698.0, "avg_diff_neighbors": 1463424.0, "avg_diff_null_neighbors": 1351749.465960131 }, "geometry": { "type": "MultiPolygon", "coordinates": [ [ [ [ 380188.9789385428885, 6567550.10091419890523 ], [ 415862.381154391798191, 6631903.11172541230917 ], [ 474194.274895932641812, 6669460.783142868429422 ], [ 602800.128520713653415, 6628700.044990781694651 ], [ 462439.930165004683658, 6516370.070702655240893 ], [ 383713.681464954162948, 6549783.878241464495659 ], [ 381176.800000096554868, 6553200.800001847557724 ], [ 386480.200000095006544, 6552947.500001848675311 ], [ 380188.9789385428885, 6567550.10091419890523 ] ] ] ] } },
{ "type": "Feature", "properties": { "id": 48, "name": "ASNIERES-SUR-SEINE", "country": "92", "P": 86020.0, "P0": 83320.0, "a": 25603696.773164034, "n": 5.0, "k": 4.0, "Phi": 282319.0, "diff": 196299.0, "diff_null": 5923.5296492556135, "m": 5.4, "avg_Phi_neighbors": 1018110.8, "avg_diff_neighbors": 494934.6, "avg_diff_null_neighbors": 154011.77088064596 }, "geometry": { "type": "MultiPolygon", "coordinates": [ [ [ [ 646096.61236948822625, 6868319.645358256995678 ], [ 646946.035627872915938, 6871394.015432961285114 ], [ 649297.641228081774898, 6873376.783100605942309 ], [ 651323.169567635399289, 6866266.257559820078313 ], [ 648895.714737005648203, 6864798.175045257434249 ], [ 646096.61236948822625, 6868319.645358256995678 ] ] ] ] } },
{ "type": "Feature", "properties": { "id": 49, "name": "COURBEVOIE", "country": "92", "P": 85523.0, "P0": 83320.0, "a": 20402792.907382011, "n": 5.0, "k": 3.0, "Phi": 220258.0, "diff": 134735.0, "diff_null": 4442.6472369417097, "m": 5.2, "avg_Phi_neighbors": 758870.0, "avg_diff_neighbors": 237022.2, "avg_diff_null_neighbors": 14808.824123139035 }, "geometry": { "type": "MultiPolygon", "coordinates": [ [ [ [ 648895.714737005648203, 6864798.175045257434249 ], [ 647440.889283043448813, 6862820.796192483976483 ], [ 643797.081238210899755, 6863487.594642044045031 ], [ 643561.879651524242945, 6867780.069809818640351 ], [ 646096.61236948822625, 6868319.645358256995678 ], [ 648895.714737005648203, 6864798.175045257434249 ] ] ] ] } },
{ "type": "Feature", "properties": { "id": 50, "name": "VERSAILLES", "country": "78", "P": 85272.0, "P0": 83320.0, "a": 5480808360.1825352, "n": 6.0, "k": 520.0, "Phi": 1541316.0, "diff": 1456044.0, "diff_null": 770058.85440322978, "m": 6.666666666666667, "avg_Phi_neighbors": 977613.16666666663, "avg_diff_neighbors": 866201.5, "avg_diff_null_neighbors": 712551.25405837316 }, "geometry": { "type": "MultiPolygon", "coordinates": [ [ [ [ 640886.828707351116464, 6802958.991420997306705 ], [ 561419.735151208471507, 6815521.280909307301044 ], [ 546690.902484064572491, 6839877.799262644723058 ], [ 595323.414441365515813, 6889208.170854008756578 ], [ 638179.310073069529608, 6861566.521218501031399 ], [ 644557.675943653797731, 6846153.98983930516988 ], [ 640886.828707351116464, 6802958.991420997306705 ] ] ] ] } },
{ "type": "Feature", "properties": { "id": 51, "name": "COLOMBES", "country": "92", "P": 84577.0, "P0": 83320.0, "a": 13404827.714229226, "n": 4.0, "k": 1.0, "Phi": 112432.0, "diff": 27855.0, "diff_null": 1480.8824123139034, "m": 5.5, "avg_Phi_neighbors": 575048.75, "avg_diff_neighbors": 482402.0, "avg_diff_null_neighbors": 131058.09348978045 }, "geometry": { "type": "MultiPolygon", "coordinates": [ [ [ [ 643561.879651524242945, 6867780.069809818640351 ], [ 640792.898408171022311, 6870577.910528351552784 ], [ 646946.035627872915938, 6871394.015432961285114 ], [ 646096.61236948822625, 6868319.645358256995678 ], [ 643561.879651524242945, 6867780.069809818640351 ] ] ] ] } }
]
}
