id,name,country,city_pop,cell_perimeter,cell_area,cell_pop,cell_nNeighbors,avg_nNeighbors_of_neighbors,avg_pop_of_neighbor_cells
AAR01101,Erevan,Armenia,1243000,1017950.86159142,50074246595.5266,2639100,2,5.5,2954583.5
AAZ01101,Baki,Azerbaijan,1937300,3992128.31482763,109475141214.424,3400819,6,5.166666666666667,1873318.6666666667
ABE01101,Minsk,Belarus,1850399,1115169.66695808,73868198715.7745,3141645,7,5.428571428571429,2184414.8571428573
ABE03104,Vitebsk,Belarus,351231,1203088.66392825,101676564945.199,1194073,7,5.714285714285714,2237074.5714285714
ABE04104,Gomel,Belarus,487200,1060926.74819858,61881892390.5474,1546136,5,6.6,2197587.2
ABE06110,Mogileu,Belarus,359596,799213.304568102,36514091902.1,901197,4,6.5,1778082.25
AES01140,Tallinn,Estonie,399340,1281802.84976222,40153035960.2005,666977,2,6,4041249
AGE01101,Tbilisi,Georgia,1251500,1318161.50078111,74375430064.9157,2508348,5,4.2,2061622.8
AKA011,Almaty,Kazakhstan,1413182,2900039.06345422,309745425059.298,1988148,3,5.666666666666667,1381429
AKA021,Astana / tselinograd,Kazakhstan,613006,2425092.31780373,307757264395.356,1088862,7,6.285714285714286,1526550.857142857
AKA04101,Aktobe,Kazakhstan,345687,2166314.7178846,271305535461.826,532998,4,7.5,941033.25
AKA09104,Karagandy,Kazakhstan,732973,2746369.38318476,410821337464.14,1051744,6,5.833333333333333,1605223
AKA13108,Shymkent,Kazakhstan,603499,2009222.31883954,275852457884.411,1504868,8,6,1393830.25
AKI02101,Bishkek,Kyrgyzstan,872848,1814253.53935177,163498785255.245,1024804,5,5,1349491.2
ALE01150,R_ga,Latvia,730109,1555869.41006824,80251183503.8218,1343739,6,4.333333333333333,1977540.3333333333
ALI02108,Kaunas,Lithuania,361992,975870.092694093,34943917302.0396,1248454,4,4.25,1763124.5
ALI10116,Vilnius,Lithuania,571706,1119873.20148865,51770176289.7581,1066178,5,5.6,2123938.2
AMO01113,Chisinau,Moldavia,700000,1009092.77585338,45275924596.755,1683897,3,4.333333333333333,1437324.3333333333
AR01401,Barnaoul,Russia,682529,2385193.55448055,344403234342.366,2067739,6,4.666666666666667,1544573
AR03401,Krasnodar,Russia,789741,1234806.67369976,43544706290.8055,1914647,5,5.2,1236374.8
AR03426,Sotchi,Russia,343285,911407.61780033,23496920375.6184,540736,4,5.25,1879710.5
AR04401,Krasnoiarsk,Russia,1047311.9999999999,10817996.6764749,2423848615137.65,2390187,6,4.166666666666667,1210005.8333333333
AR05401,Vladivostok,Russia,733964,1932486.90481128,93386810539.5733,1329030,1,2,2609117
AR07401,Stavropol,Russia,398266,1055565.53379989,70372609269.4807,1379951,6,6,1517945
AR07427,Piatigorsk,Russia,450491,1200707.90255142,82615063688.6104,1715896,5,5.6,1444839
AR08401,Khabarovsk,Russia,577668,25221255.7213812,4352734783270.9,2609117,2,2,1271676
AR11401,Arkhanguelsk,Russia,389328,8699115.31491441,770923957372.042,1028041,7,6.142857142857143,2302112.5714285714
AR12401,Astrakhan,Russia,520662.00000000006,3726347.68929987,221050613130.337,783597,9,6,1681673.6666666667
AR14401,Belgorod,Russia,373025,778667.684561388,26152702206.7162,654802,5,6.4,1488610
AR15401,Briansk,Russia,429514,1025131.08740083,66157494801.4662,1230475,7,5.714285714285714,3443515.1428571427
AR17401,Vladimir,Russia,345598,719160.750725429,30016487021.8682,1072192,5,6,4467957.4
AR18401,Volgograd,Russia,1396940,1530219.70295974,144863505541.091,1709737,6,7,1625872.1666666667
AR20401,Voronej,Russia,980581,1012919.03528504,63868718413.4613,1686406,6,6.5,1359845.5
AR22401,Nijni-Novgorod,Russia,1723120,1118742.03134295,67432520112.0919,2142651,6,5.666666666666667,962682.3333333334
AR24401,Ivanovo,Russia,438685,913063.124437234,32512947330.0841,790674,4,6.5,1617880.5
AR25401,Irkoutsk,Russia,635185,4500101.14402053,512629429830.561,1553167,3,4.333333333333333,1639589.3333333333
AR27401,Kaliningrad,Russia,443924,858450.951634464,17378267436.9987,950801,2,5,1296096.5
AR28401,Tver,Russia,403726,1332548.78454733,109610345997.663,1237529,5,6.6,5507995.6
AR32401,Kemerovo,Russia,561526,990665.543584522,56649517765.3268,1060715,5,5.2,1819155
AR32431,Novokouznetsk,Russia,924307,2404779.42751053,247192641061.368,1314259,4,5,1767952
AR33401,Kirov,Russia,473668,2245805.01736236,296063212649.563,1266241,8,5.625,1433514.625
AR36401,Samara,Russia,1328211,1278851.13828772,89578855833.5687,1948300,5,6.8,1436501.4
AR36440,toljatti,Russia,775074,785740.018188037,26797421657.3671,1037860,5,6.2,1397504
AR38401,Koursk,Russia,414595,894477.708250425,47927513030.4686,1019131,8,5.75,1864986.5
AR40,Saint-Pétersbourg,Russia,4848742,2437190.19425429,214124062173.12,6738759,6,5.666666666666667,1243466.1666666667
AR42401,Lipetsk,Russia,554922,967406.706049419,53032454706.9103,1313181,6,6.666666666666667,1379621
AR45,Moscou,Russia,14425208,823840.064450239,38020745060.5451,16386233,6,6,1396788.6666666667
AR47401,Mourmansk,Russia,382344,8426189.95559339,256416719060.447,689637,4,6.75,1832249.5
AR50401,Novossibirsk,Russia,1687247,1581313.59599898,133588447025,1895655,4,5.75,1628326.5
AR52401,Omsk,Russia,1153971,2816046.05125513,402110449709.918,1956917,6,6.166666666666667,1669128.3333333333
AR53401,Orenbourg,Russia,546987,1498307.85900638,132899089608.348,761751,7,6.428571428571429,1189172.142857143
AR53423,Orsk,Russia,337936,1966281.02807842,210976276245.968,447069,6,6.5,1063898.5
AR56401,Penza,Russia,517136.99999999994,982148.673309451,54408250648.8786,871459,6,6.166666666666667,1109298.3333333333
AR57401,Perm,Russia,1043459.0000000001,2301790.02844672,205055496589.433,1783538,6,6.166666666666667,1553679.5
AR60401,Rostov-sur-le-Don,Russia,1243691,1051497.36780642,52645730886.3954,2443057,7,5.142857142857143,1423737.4285714286
AR61401,Riazan,Russia,543440,818059.735894327,45037351750.0146,1029791,7,5.571428571428571,3458153
AR63401,Saratov,Russia,1074596,1505471.29871115,128693876877.992,1850632,8,6.25,1264036.375
AR65401,Ekatérinbourg,Russia,1496136,957117.257549506,52681343319.6862,2533849,5,6.2,1997470.6
AR65476,Nijni-Taguil,Russia,433932,3616176.56760936,422389082964.127,1163340,4,6.5,1957065.75
AR69401,Tomsk,Russia,522940.00000000006,6928449.18589184,1267750976650.41,1427935,6,5.5,1745991
AR70401,Toula,Russia,620830,819807.684240068,41700262965.1124,1820307,5,6.8,4195762.2
AR71401,Tioumen,Russia,581758,5983276.18139842,704431414277.502,2482835,8,5.5,1550976
AR73401,Oulianovsk,Russia,640205,763368.302197198,32074351340.9576,823278,6,5.333333333333333,1074133.3333333333
AR75401,Tchéliabinsk,Russia,1330245,1553826.72364378,137316973906.151,2519227,5,6.6,1773431
AR75438,Magnitogorsk,Russia,408401,1460920.25410057,96780729135.5677,723196,5,6.6,1371064.4
AR78401,Iaroslavl,Russia,591486,1527902.29515023,156503326947.347,1990438,7,5.857142857142857,4074238.4285714286
AR80401,Oufa,Russia,1062300,1111273.26575471,84876018621.5415,2038413,8,5.5,1631988.125
AR81401,Oulan-Oude,Russia,404357,6851533.99972779,1846063360781.51,1214322,3,3.6666666666666665,2184157
AR82401,Makhatchkala,Russia,758892,1883538.18910294,71941017479.7229,2011563,4,6.25,2102165
AR89401,Saransk,Russia,344954,860145.15583215,44973056683.0522,601048,5,6,1176665.4
AR92401,Kazan,Russia,1313825,792438.573801803,37170100347.6291,1424434,5,6,1178342.2
AR92430,Naberejnie Tchelny,Russia,513241.99999999994,904817.507166509,49881412251.8668,1493851,6,5.666666666666667,1427413
AR94401,Ijevsk,Russia,628116,953081.171901379,54027256232.999,1292193,5,6.6,1601295.4
AR97401,Tcheboksary,Russia,577758,890155.71870816,46961855255.4874,1016148,5,6,1251530.4
ATA02101,Doushanbe,Tajikistan,796000,1778268.92490595,82522734779.9352,1798808,3,4.666666666666667,2211161.6666666665
ATU02101,Ashgabat,Turkmenistan,1034542.9999999999,2395538.14841679,188785023228.013,1525588,3,6,2043809
ATU05103,Turkmenabat / Tchardjou,Turkmenistan,427252,1741777.13421645,164127913576.257,958892,4,5,1483742.75
AUA01113,Simferopol,Ukraine,360337,1088507.44148008,28300205437.1587,1076194,5,4.6,1208658.4
AUA02103,Vinnitsya,Ukraine,369214,1288672.64919128,81649314286.8521,2196052,6,5.333333333333333,2601328.3333333335
AUA04106,Dniepropetrovsk,Ukraine,1356913,712490.389652683,28699725452.5193,1966369,5,6.2,2148368.6
AUA04111,Krivii Rig,Ukraine,670397,911575.180840608,42860413957.1296,1549894,6,5.666666666666667,2024984.5
AUA05111,Gorlivka,Ukraine,428911,352178.740564789,6062660261.72756,919039,4,6.25,1724183.75
AUA05117,Donetsk,Ukraine,1491507,456441.007954859,11188614188.4809,1689262,5,5.6,1325479.2
AUA05126,Kramatorsk,Ukraine,428750,613995.677005029,21726598711.2361,1152826,7,5.142857142857143,1454956.7142857143
AUA05132,Maryoupol' / jdanov,Ukraine,480129,1062248.83157196,16545249253.5732,741936,4,5.75,1854376
AUA08107,Zaporizhzha,Ukraine,780733,728817.147718273,29714413288.3184,1370538,6,5.333333333333333,1362746.8333333333
AUA12117,Lougansk,Ukraine,458156,916706.121016141,55778074374.011,1611590,6,5.833333333333333,1427644.5
AUA13118,Lviv,Ukraine,760391,1618385.46210957,106225788316.044,3691780,4,5.5,1913082.25
AUA14104,Mikolaiv,Ukraine,501183,1329685.53299252,33444317980.94,845266,5,4.4,1555338.4
AUA15114,Odesa,Ukraine,1082099,891256.459715547,18436916684.819,1270655,2,4,1264581.5
AUA20116,Kharkiv,Ukraine,1546603,836766.981606947,35246732294.9768,1973097,5,6.4,1897723.2
AUA26101,Kiiv,Ukraine,2862217,1222767.72845571,82065068131.0283,4695488,7,6,1913189.142857143
AUA27103,Sevastopol,Ukraine,351964,387822.12859474,2991634072.01363,362947,1,5,1076194
AUZ01101,Andidjan,Uzbekistan,554539,1340761.90295787,48806748660.9262,1287079,3,4.666666666666667,973413.6666666666
AUZ02101,Bukhara,Uzbekistan,340033,1496332.05339185,110953622998.062,917416,5,6,1977828.2
AUZ03101,Fergana,Uzbekistan,407452,1618195.48486492,90494751458.3077,979820,4,4.25,1983729.5
AUZ05104,Namangan,Uzbekistan,603126,754498.416239692,29961475191.3766,915617,5,5.2,1745997
AUZ08104,Nukus,Uzbekistan,443835,3039347.10305963,505064388583.155,1771716,8,5.625,1258905.875
AUZ09104,Samarkand,Uzbekistan,418166,1297423.31541481,79809216921.5844,1720251,4,4.5,1902132.5
AUZ12112,Tashkent,Uzbekistan,2601360,1094447.17059151,56718066434.5189,3933414,6,4.833333333333333,1306130
