id,name,country,city_pop,cell_perimeter,cell_area,cell_pop,cell_nNeighbors,avg_nNeighbors_of_neighbors,avg_pop_of_neighbor_cells
AR40,Saint-Pétersbourg,Russia,4848742,8987416.57962004,927912663208.728,11192020,2,2,46126797
AR45,Moscou,Russia,14425208,5295185.57877438,1703954433030.68,49137513,2,2,27154050.5
AUA26101,Kiiv,Ukraine,2862217,8361238.4835401,1065013443313.29,43116081,2,2,30164766.5
