id,name,country,city_pop,cell_perimeter,cell_area,cell_pop,cell_nNeighbors,avg_nNeighbors_of_neighbors,avg_pop_of_neighbor_cells
AAR01101,Erevan,Armenia,1243000,423339.479159974,9243764635.21723,1480700,4,4.25,272900
AAR06107,Vanadzor,Armenia,104800,411124.720314214,8721494810.1282,230500,4,5.25,899175
AAR08102,Gyoumri,Armenia,146300,473664.177977645,8121491257.12524,163600,4,5.25,873075
AAZ01101,Baki,Azerbaijan,1937300,247175.289012005,1656111121.19054,2075900,2,3.5,413450
AAZ02102,Naxtchivan,Azerbaijan,72700,510943.275781598,15391190058.7507,180000,3,5.666666666666667,849433.3333333334
AAZ03101,Sumqayit,Azerbaijan,299600,378757.304802635,6748982773.86081,380600,4,3.75,835938.25
AAZ04110,Mingatchevir,Azerbaijan,97800,710700.887179276,25386510969.0512,550100,7,4,415283
AAZ04115,shirvan,Azerbaijan,73900,910568.73444239,24271194068.3194,446300,3,4.333333333333333,1002200
AAZ05105,Ganca,Azerbaijan,315900,671870.987085429,20715554262.2753,517500,6,5.166666666666667,682580.8333333334
ABE01101,Minsk,Belarus,1850399,373812.645136903,8910161545.15181,1935123,5,6.4,239256.2
ABE02101,Baranabitchi,Belarus,168666,461600.157397035,13975164346.8237,305753,7,5.142857142857143,516017.85714285716
ABE02103,Brest,Belarus,312779,534192.571268349,15048582235.6702,417995,4,5.5,359590.25
ABE02119,Pinsk,Belarus,131357,580274.368176285,21651529431.2257,292726,6,6,353848
ABE03104,Vitebsk,Belarus,351231,445464.799766984,11832444415.0337,374029,5,6.2,272184.6
ABE03114,Orsha,Belarus,128827,391366.187667473,8707241529.36548,171091,4,6.75,410503
ABE03116,Polatsk,Belarus,181803,558295.220537457,19404300492.0641,217408,6,6.333333333333333,246959.5
ABE04104,Gomel,Belarus,487200,541742.671769737,18911855878.5446,714646,6,6.666666666666667,340191.6666666667
ABE04107,Zhlobin,Belarus,75703,391523.087301891,8605021919.1275,179260,4,7,405015.75
ABE04110,Mazyr,Belarus,147812,554105.253988254,22373633380.6702,199592,9,5.777777777777778,352447.55555555556
ABE05104,Grodna,Belarus,332870,473649.829226348,9879323814.80228,420163,4,5.75,365821.25
ABE05107,Lida,Belarus,97918,413516.644180775,10202836999.3657,163121,5,6,414078.4
ABE06102,Babrouisk,Belarus,215378,391764.257269158,10427366334.6748,247659,6,6.166666666666667,541208
ABE06110,Mogileu,Belarus,359596,505551.514217349,15557844176.3946,458166,7,6,397258.5714285714
ABE07101,Barysau,Belarus,146910,428342.313165246,12303806857.4125,259872,7,5.714285714285714,510176.85714285716
ABE07113,Maladzetchna,Belarus,94083,434371.43304403,12274196932.1534,167762,7,5.857142857142857,536044
ABE07117,Saligorsk,Belarus,102692,482996.665146741,15092250102.2786,215235,5,6.6,596170.6
AES01140,Tallinn,Estonie,399340,1013688.62921354,18156973803.9007,488150,2,5.5,666005.5
AES01143,Tartu,Estonie,103284,718614.939394242,31640569813.5675,262730,4,5.25,539946.75
AGE01101,Tbilisi,Georgia,1251500,598132.211830856,23111632787.6183,1434900,7,5.428571428571429,329953.5714285714
AGE04108,Koustaisi,Georgia,209600,598342.08839275,19315760835.0645,346200,6,5.166666666666667,468668
AGE08102,Zougdidi,Georgia,74200,616316.884706643,14403246481.9961,252878,4,5.5,267077.25
AKA011,Almaty,Kazakhstan,1413182,1538625.07564759,107859404314.176,1708904,3,5.333333333333333,520073.6666666667
AKA021,Astana / tselinograd,Kazakhstan,613006,1284231.83887321,94023017049.0993,686453,4,7.5,324211.5
AKA03106,Kokshetau,Kazakhstan,135106,1293955.60714828,94082085432.3327,250095,7,6.285714285714286,458323
AKA04101,Aktobe,Kazakhstan,345687,1711794.40198364,186662834972.479,467635,7,7,402304.5714285714
AKA05109,Taldykorgai,Kazakhstan,139075,2200418.03423746,211948778465.785,348077,5,5,848937.6
AKA06101,Atyrau/guriev,Kazakhstan,178341,2292780.87845766,161461876195.26,268089,7,6.142857142857143,384962.71428571426
AKA07102,Oral,Kazakhstan,229226,1199398.57587349,97791334979.7004,262099,7,6.428571428571429,323166.14285714284
AKA08103,Taraz - djambul,Kazakhstan,320634,1263640.01453428,97080297018.1722,390603,8,6.5,416711.5
AKA09103,Zhezkazgan,Kazakhstan,146332,2027142.31948517,256385838661.78,174501,10,6.1,402196.9
AKA09104,Karagandy,Kazakhstan,732973,1588649.89780233,176357785623.383,747238,7,6.285714285714286,440876.5714285714
AKA10103,Kostanai,Kazakhstan,237869,1097477.01983687,59911724934.5691,260777,5,7,222754.6
AKA10105,Roudnyi,Kazakhstan,109659,1223346.52919161,87340615194.8448,190948,5,7,326794.8
AKA11104,Kyzylorda,Kazakhstan,207557,2053166.97882602,189956887481.296,337684,5,8.4,348760.6
AKA12101,Aktau,Kazakhstan,181780,911976.690023913,25106556896.0937,194003,2,6,209943.5
AKA12102,Zhanaezen,Kazakhstan,108020,1647435.11804793,130970991649.399,151798,5,4.8,301969.4
AKA13106,Tourkistan,Kazakhstan,142899,1239031.09006202,90671975676.6893,243467,7,7.428571428571429,666140.4285714285
AKA13108,Shymkent,Kazakhstan,603499,665930.298708229,24459318598.7806,676939,5,6.8,725055.8
AKA14102,Ekibastouz,Kazakhstan,125012,1128802.82599002,67771194902.5198,125012,6,6,632081.1666666666
AKA14104,Pavlodar,Kazakhstan,317289,1303223.48393474,96004346264.8097,453440,5,6.6,767508.2
AKA15103,Petropavlovsk,Kazakhstan,201446,1074109.66055329,69698324912.4547,302447,5,7,543435.2
AKA16106,Oskemen (oust-kamenogorsk,Kazakhstan,303720,1836972.51864534,174334519907.004,427056,4,5.75,290040.25
AKA16108,Semei/semipalatinsk,Kazakhstan,299264,1275607.04292423,108161363349.128,346928,6,5.5,380722.6666666667
AKI02101,Bishkek,Kyrgyzstan,872848,1541688.18929463,105654802877.885,1014562,5,5.8,678480.8
AKI05101,Osh,Kyrgyzstan,234552,1283429.59832591,50203116858.2785,343609,4,5.75,435594
AKI09207,Zhalalabat,Kyrgyzstan,90258,971358.613370206,37410925319.2154,197582,6,5,731300.3333333334
ALE01117,Daugavpils,Latvia,103922,640901.508632647,27931815231.4883,270733,6,6.166666666666667,410887.6666666667
ALE01150,R_ga,Latvia,730109,1113525.40514294,30057896128.0215,1069281,7,4.571428571428571,295589.4285714286
ALI02108,Kaunas,Lithuania,361992,505764.357218654,16618484840.0398,576416,7,4.142857142857143,371390.5714285714
ALI03102,Klaip_da,Lithuania,182752,641096.237035363,14233477797.5352,362908,4,5,633779.5
ALI05106,Panev_zys,Lithuania,111959,426270.751581556,11823821952.5456,163823,5,5.8,558151.2
ALI06110,siauliai,Lithuania,125453,522295.309306749,15265569451.387,274028,4,5.75,543107
ALI10116,Vilnius,Lithuania,571706,428250.983128795,11842700614.816,600298,5,6,268371
AMO01102,Balti,Moldavia,122900,507248.267997945,16167122058.1404,380515,4,5.75,489238.5
AMO01113,Chisinau,Moldavia,700000,534704.702349003,13668558320.1862,948270,4,5,306480.75
AMO02108,Tiraspol,Moldavia,229527,547308.723591198,15726443121.5477,291259,5,5,674774
AR01401,Barnaoul,Russia,682529,901730.270817296,46111750800.1394,882196,5,6,715958.2
AR01405,bijsk,Russia,210055,1354338.6307292,101790976729.2,281643,6,5.333333333333333,457456.5
AR01416,rubcovsk,Russia,147008,976814.935821417,58845329438.1778,183513,6,5.666666666666667,710836.3333333334
AR03401,Krasnodar,Russia,789741,539400.844102435,17823351121.9348,1012384,5,5.4,318714.4
AR03405,Armavir,Russia,188897,359147.108991693,6954448853.54468,334540,6,6,227811.16666666666
AR03411,ejsk,Russia,87771,695828.09606557,9144458415.38532,120024,6,5.666666666666667,436574.3333333333
AR03414,kropotkin,Russia,80743,543381.806992616,20007610687.3939,204552,9,5.444444444444445,419392.55555555556
AR03420,novrossijsk,Russia,241788,545609.439300159,8525221405.88836,569760,3,4.333333333333333,434115
AR03426,Sotchi,Russia,343285,480569.947484871,10981643994.3145,417718,4,5.25,430667.25
AR04401,Krasnoiarsk,Russia,1047311.9999999999,809952.839578859,31722559967.1331,1078553,4,6.5,283876.75
AR04403,achinsk,Russia,109156,2056710.05199761,175603265442.498,248785,10,6,378735.2
AR04420,kansk,Russia,94230,1916099.70355582,150390222125.108,173925,6,5.333333333333333,429020
AR04429,Norilsk,Russia,175301,10656709.6104907,1589215508739.82,197508,7,6.285714285714286,252765.14285714287
AR04535,zhelezngrsk,Russia,85559,1873049.26665216,110593949295.369,279349,5,6.8,386041.4
AR05401,Vladivostok,Russia,733964,850892.075969301,6680143920.53019,747999,2,3,304316
AR05414,Nakhodka,Russia,159695,1033600.8618376,33733776395.6651,274922,3,3.3333333333333335,574161.3333333334
AR05423,ussurijsk,Russia,157946,1186727.747711,60643342281.8386,333710,3,3.3333333333333335,554565.3333333334
AR07258501,mihajlovsk,Russia,71018,526031.323853973,18357303548.7219,188291,6,6.666666666666667,269322.6666666667
AR07401,Stavropol,Russia,398266,276375.538493642,2360501730.34097,398266,4,6.25,225179.5
AR07407,georgijevsk,Russia,72126,561933.412078411,20872121899.4558,259536,8,5.375,299606.625
AR07415,kislovodsk,Russia,128502.00000000001,361411.064668345,7368422018.67056,128502.00000000001,5,5.6,335719.4
AR07424,nevinnomysk,Russia,118351,349875.791373773,5172129690.97217,118351,5,6,323744.4
AR07427,Piatigorsk,Russia,450491,283023.523322208,3539058512.11298,450491,5,6.2,227083.4
AR08401,Khabarovsk,Russia,577668,1643690.66961922,138969348756.045,640775,5,3.4,274521
AR08409,Komsomolsk-na-Amoure,Russia,263906,5364738.05009231,410552822797.059,415723,6,3.8333333333333335,328423
AR10401,Blagoveschensk,Russia,214397,2838945.18458267,345866002641.618,486355,4,4.75,376489.75
AR11401,Arkhanguelsk,Russia,389328,2949475.13516799,162484486855.323,430617,7,5.142857142857143,313657.4285714286
AR11410,Kotlas,Russia,73422,1505834.86866063,140742456263.205,155977,6,6.666666666666667,350849.6666666667
AR11430,severodvinsk,Russia,192265,2346037.88250434,61185420201.3402,237902,3,6,366352.6666666667
AR12401,Astrakhan,Russia,520662.00000000006,1612124.61590197,80082127024.0403,580871,6,6.5,484074.1666666667
AR14401,Belgorod,Russia,373025,509843.786029992,13952911327.4708,531493,6,6,590372.6666666666
AR14430,gubkin,Russia,88562,414154.805766957,7317697764.68985,88562,4,6,384239
AR14440,staryjoskol,Russia,221163,557615.446677303,14468919743.1055,294936,5,6.6,499576.2
AR15401,Briansk,Russia,429514,647804.084058188,29737320270.9118,658337,7,6.428571428571429,405208.14285714284
AR17401,Vladimir,Russia,345598,401171.19900493,9931865938.58706,463943,7,6.428571428571429,327598.85714285716
AR17410,aleksandrov,Russia,90784,365879.017647005,8863573564.91204,238226,7,5.857142857142857,382569.28571428574
AR17425,kovrov,Russia,145492,357608.087790914,7996147161.22108,214027,5,6.6,334952.2
AR17435,murom,Russia,132491,499216.93590964,15922608086.8895,273151,7,6,500873
AR18401,Volgograd,Russia,1396940,1079159.27908101,66356120741.0079,1572743,6,6.666666666666667,321995.8333333333
AR18415,kamyshin,Russia,148269,1096523.96247884,66811806990.3055,286999,7,6.285714285714286,662902
AR19401,Vologda,Russia,301642,1106888.46830602,78464557274.2117,424373,7,6.571428571428571,312441.14285714284
AR19430,Tchérépovets,Russia,312311,976572.26972335,60157685133.8681,372539,6,6.666666666666667,1251059.3333333333
AR20401,Voronej,Russia,980581,720542.372843705,33756523759.2757,1211408,8,6.625,400604
AR22228503,zavolzhje,Russia,70964,672513.455920123,19455569236.2267,97350,5,6.6,578952
AR22401,Nijni-Novgorod,Russia,1723120,603836.484192854,18096108227.5076,1841795,5,6.2,310374.2
AR22403,arzamas,Russia,106367,491984.700599498,14787057149.2658,142703,5,6,677983
AR22503,sarov,Russia,92073,570899.798158281,21779267132.6019,155218,6,6.666666666666667,429880
AR24401,Ivanovo,Russia,438685,371377.514055554,8587356906.13623,611422,6,6,362887.8333333333
AR24405,kineshma,Russia,110365,797442.469603469,38178782498.1729,228895,8,5.875,338180.75
AR25401,Irkoutsk,Russia,635185,1094855.5928081,59053717005.5865,678846,2,4.5,381512
AR25405,angarsk,Russia,233765,963579.371561654,14848810108.1102,233765,3,4,477025.3333333333
AR25414,Bratsk,Russia,246348,1801244.58017709,152487624677.949,401982,5,5.8,261388.6
AR25436,usoljesibir,Russia,83364,1587033.38093162,120063238308.819,222971,4,5,328589.5
AR25438,Oust-Ilimsk,Russia,86591,3674601.67212111,918697400718.667,231436,7,5.571428571428571,369113.71428571426
AR26406,nazranj,Russia,93357,398881.162074689,8030565649.0079,230986,4,6.5,386316.25
AR27401,Kaliningrad,Russia,443924,544994.294717099,9836268403.363,615393,2,5.5,469662
AR28401,Tver,Russia,403726,828895.91398637,46868452327.9194,696888,8,6.125,338960.625
AR29401,Kalouga,Russia,325185,560912.989107447,19872914722.4456,436136,6,6.333333333333333,503955.1666666667
AR29415,obninsk,Russia,116948,510649.69478169,14959296452.8803,435024,6,6.5,2806442.6666666665
AR30401,Petropavlovsk-Kamtchatski,Russia,179526,2941737.8201706,214078562824.919,241979,1,3,95925
AR32401,Kemerovo,Russia,561526,587269.075579101,16062767069.4405,608818,5,6.8,206520.4
AR32404,anzherosud,Russia,76669,737276.397543327,27729128015.5357,154207,5,6,334694.2
AR32419,leninskkuzn,Russia,234389,664865.823244693,21664553790.3716,316573,6,5.833333333333333,767018.8333333334
AR32425,mezhdurechk,Russia,145024,1172900.41881551,60571029654.2066,178315,7,6,423275.14285714284
AR32431,Novokouznetsk,Russia,924307,622171.524933028,18758351786.4466,924307,4,6,414681.75
AR32449,jurga,Russia,81536,487211.749891657,13517440953.0109,134722,6,5.5,605749.8333333334
AR33401,Kirov,Russia,473668,961403.328935711,55002054389.0938,515239,5,6.6,223881.8
AR33407,kirovchepec,Russia,80920,829996.74652645,29596664255.9327,137333,5,7,398908.8
AR34401,Kostroma,Russia,268617,525638.743930014,14135813720.8457,350166,5,6.4,436407.2
AR36401,Samara,Russia,1328211,456252.514445405,11889650082.5839,1401899,5,6,284620.2
AR36435,syzranj,Russia,206017,431855.576113385,12034419483.1314,217092,5,6,412140.6
AR36440,toljatti,Russia,775074,318160.323707307,5955774913.4116,775074,5,6,510672.2
AR36450,chapajevsk,Russia,72689,451313.940062981,13368480353.8086,95641,6,5.833333333333333,537434.5
AR37401,Kourgan,Russia,333640,881120.890134404,49189961887.2903,350738,7,5.857142857142857,450741.28571428574
AR37405,shadrinsk,Russia,77744,619723.918877045,21842572448.5991,125698,5,6.2,598506.6
AR38401,Koursk,Russia,414595,463962.285457127,13677600043.8428,509343,6,6,290815
AR38405,zhelezgorsk,Russia,95057,433614.060506179,11849980050.0437,105085,5,6.6,434847.8
AR40,Saint-Pétersbourg,Russia,4848742,857577.059134889,29199523181.7793,5211562,5,5.4,356911
AR41417,vyborg,Russia,80013,745336.420562421,18000098164.7272,118157,3,5.666666666666667,1993594
AR41420,gatchina,Russia,92566,647876.586163105,19394281810.2633,355602,5,5,1272768.4
AR42401,Lipetsk,Russia,554922,459450.090088254,10112109641.1623,596969,5,6.6,478311.8
AR42415,elec,Russia,108404,493328.535547436,16518157166.5695,201184,7,6,493505.85714285716
AR44401,Magadan,Russia,95925,13037079.379044,1884915844356.64,95925,3,4.333333333333333,352311.6666666667
AR45,Moscou,Russia,14425208,284045.985637674,4991421506.42628,14661926,7,5.571428571428571,273097
AR46204501,balashiha,Russia,215353,216963.841125173,2576455526.92063,495485,4,6.25,3814803.75
AR46206501,voskresensk,Russia,91301,182009.346502026,2164705816.8427,130228,6,5.5,2649398.8333333335
AR46212501,egorjevsk,Russia,70133,278867.856346803,4655137575.10208,124859,5,6.4,333763.4
AR46215501,sergiposad,Russia,132490,261747.005208148,3945671283.94512,226629,6,5.666666666666667,2677954
AR46221501,klin,Russia,80584,461061.893786651,10760391735.3732,213442,5,6.4,3247736
AR46253501,stupino,Russia,108822,272307.067111958,4216568124.06086,130552,7,6.142857142857143,2427306.285714286
AR46418,dubna,Russia,70569,422928.477114058,10946661255.706,218213,5,6.6,322092.2
AR46438,kolomna,Russia,162854,236000.457117149,3129795837.6285,243139,4,6.75,244178.5
AR46457,orehovozuev,Russia,120620,273033.163157469,4670285152.00127,240432,6,5.833333333333333,279895
AR46470,serpuhov,Russia,126496,261596.295806262,4135337579.69024,280319,5,6.2,3275851.6
AR47401,Mourmansk,Russia,382344,1739804.53632598,46255192837.159,463247,2,5.5,342720
AR47405,Apatity,Russia,88329,2466731.55503024,130119723309.246,254823,4,4.75,386346
AR49401,Veliki Novgorod,Russia,228336,927857.737571742,56379152316.5779,524639,6,6.166666666666667,1174325.3333333333
AR50401,Novossibirsk,Russia,1687247,1350205.5585584,113576481060.003,1873755,8,6.125,488803.25
AR52401,Omsk,Russia,1153971,1604991.18935114,181605652593.265,1308333,7,6.571428571428571,512707.85714285716
AR53401,Orenbourg,Russia,546987,959154.985565529,54337407690.9218,575356,5,6.6,346496.2
AR53412,buzuluk,Russia,82655,716034.463152895,34798238250.3056,209089,7,6,454286.28571428574
AR53423,Orsk,Russia,337936,1420884.89709531,109773028990.633,447069,6,6.833333333333333,393194.1666666667
AR54401,Orel,Russia,329849,506527.490633358,17688617837.4754,384486,7,6.142857142857143,427791.71428571426
AR56401,Penza,Russia,517136.99999999994,630894.799043206,26492812177.408,689997,6,6.166666666666667,463630.6666666667
AR56405,kuzneck,Russia,88883,529003.846493339,18438207120.5866,147054,6,5.833333333333333,602036.6666666666
AR57401,Perm,Russia,1043459.0000000001,793459.403933834,39117949891.4554,1334870,8,5.75,239139.25
AR57408,Berezniki,Russia,162206,671848.21475045,22239278685.7955,268508,5,6.6,509669.2
AR57430,solikamsk,Russia,97239,995290.533437715,60514906976.9416,113337,5,6.4,251940.8
AR57435,chajkovskij,Russia,82933,439091.652866783,8875100785.39706,82933,5,6.4,502706.2
AR58401,Pskov,Russia,203281,721409.837892638,33135398980.7252,246754,7,5.714285714285714,409000
AR58410,velikie luki,Russia,98778,789094.117825182,42046962384.2409,162607,6,6.666666666666667,434943.8333333333
AR60401,Rostov-sur-le-Don,Russia,1243691,374480.157335903,5266378418.95581,1270541,5,6.6,207604.6
AR60404,azov,Russia,82882,415060.4707246,7378173586.14893,82882,4,7,463202.25
AR60412,volgodonsk,Russia,185650,786554.915552083,39300895351.1104,315314,7,6.142857142857143,405073.14285714284
AR60419,kamenskshah,Russia,95306,684868.725638984,29283314334.1499,292126,7,6.571428571428571,659765.8571428572
AR60427,novcherkask,Russia,169039,374886.429315956,7154374043.53845,169039,5,6.4,483859.6
AR60430,novoshahtsk,Russia,111087,225414.251712836,3423939597.781,323858,7,5.857142857142857,435345
AR60437,taganrog,Russia,257692,406274.952453626,4254130945.70791,257692,8,5.25,543307.75
AR60440,shahty,Russia,251406,293244.217990124,5133770788.10321,305033,4,6.5,275084.25
AR61401,Riazan,Russia,543440,562389.386556976,21652417268.8022,591075,9,6,263314.3333333333
AR63401,Saratov,Russia,1074596,725964.682343788,30262230742.1155,1244221,5,6.4,367268.2
AR63407,Balakovo,Russia,199573,792707.923900031,37659265227.3486,359354,6,6,375517.6666666667
AR63410,balashov,Russia,82222,893212.480182696,54389312928.8536,352937,7,6.571428571428571,823124.5714285715
AR64401,Ioujno-Sakhalinsk,Russia,181727,2406391.45970019,48541989090.8684,259787,2,5.5,528249
AR65401,Ekatérinbourg,Russia,1496136,293133.574687278,5047537209.6185,1580812,5,5.8,246887.8
AR65409,asbest,Russia,94960,598160.191464045,20560278999.7061,357512,6,5.5,562865.8333333334
AR65436,kamenskural,Russia,174710,457996.507117566,11398643006.5962,215602,5,5.6,735735
AR65456,krasnotursk,Russia,188200,1481139.00983985,139618797141.642,318482,7,6.142857142857143,320637.85714285716
AR65476,Nijni-Taguil,Russia,433932,796124.457323229,33916027102.8747,614917,6,6.333333333333333,519923
AR65480,pervouralsk,Russia,186445,550875.309103682,20017456015.9912,275187,7,6,735099.7142857143
AR65540,novouraljsk,Russia,85519,432287.847905004,7665047570.75812,142919,5,6.4,832659.6
AR66401,Smolensk,Russia,326863,751756.048348379,39058638568.3891,549945,8,6.125,424034.75
AR68401,Tambov,Russia,312308,709778.56586428,29601266556.3685,464378,7,6.428571428571429,534765.1428571428
AR68415,michurinsk,Russia,98758,549995.666223459,14467792273.6395,145752,4,7,505314.75
AR69401,Tomsk,Russia,522940.00000000006,438914.243141972,5514537811.99901,522940.00000000006,3,5.666666666666667,149045
AR69541,seversk,Russia,108466,1939998.52989554,194239260460.09,158206,6,6.666666666666667,567975.3333333334
AR70234501,novmoskovsk,Russia,279563,458676.952476216,13146968188.4394,368837,7,6.285714285714286,395091.14285714284
AR70401,Toula,Russia,620830,379797.193109718,8432717101.07532,715620,5,6.4,320066
AR71131,Khanti-Mansiisk,Russia,79410,1674268.25351613,177850345068.772,194031,6,6.5,216192.83333333334
AR71134,Nefte-Ougansk,Russia,123276,1247766.29623796,59596408544.912,203651,5,6.4,274181.4
AR71135,Nijni-Vartovsk,Russia,251860,2349763.50548567,273507333459.587,473443,8,6.75,562020.375
AR71136,Sourgout,Russia,306703,902543.124495103,29924951097.0674,367165,3,7,300866.3333333333
AR71176,Novy Ourengoï,Russia,104144,4736118.28098953,325049020204.865,191954,3,6.666666666666667,205369
AR71178,Noiabrsk,Russia,110572,2370827.31162455,191982584165.283,225505,8,5.875,258703.875
AR71401,Tioumen,Russia,581758,1005643.84721763,58038177094.331,697247,7,6.142857142857143,311508.14285714284
AR71410,tobolsk,Russia,99698,1441613.68597017,124252325802.495,110763,7,6.428571428571429,499662
AR73401,Oulianovsk,Russia,640205,549440.881780201,21414946668.2531,683580,7,6,538234
AR73405,dimitrvgrad,Russia,122549,504026.425486866,16825454301.106,155149,7,5.571428571428571,705775.8571428572
AR75401,Tchéliabinsk,Russia,1330245,504677.895171673,15898009584.5627,1371434,6,5.666666666666667,219289.33333333334
AR75412,zlatoust,Russia,174985,619937.365146264,23924961216.9161,347386,5,6.4,522267.4
AR75438,Magnitogorsk,Russia,408401,833790.442413759,45910515328.8244,604136,8,5.375,405213.75
AR75442,miass,Russia,195217,409054.551738215,9843098925.78641,232988,5,6.2,542733.2
AR75452,troickch,Russia,78637,688643.839801193,27587609454.8757,147491,6,6,501836.8333333333
AR75543,ozjorskch,Russia,82268,431347.326703823,11112329362.435,243219,6,5.5,670568.1666666666
AR76401,Tchita,Russia,323964,3315763.51530054,615447851402.507,602540,4,5.75,411570.75
AR78401,Iaroslavl,Russia,591486,422012.6471921,9686904037.85837,682070,4,6.25,358772.5
AR78415,Rybinsk,Russia,200771,572529.532915422,19335609075.7666,235276,7,6,426067.85714285716
AR79401,majkop,Russia,154978,451316.93354432,12242258320.814,281518,5,6.2,429016.6
AR80401,Oufa,Russia,1062300,742994.014465878,34722548406.3708,1255807,6,6.5,341849.6666666667
AR80427,Neftekamsk,Russia,121757,626689.591399577,22486253884.9846,240685,7,6.428571428571429,558892.8571428572
AR80435,oktjabrskij,Russia,109379,556727.809387694,19202333392.554,310272,8,5.875,404474.375
AR80439,salavat,Russia,222327,662233.14074835,24935023243.8712,346589,6,6.333333333333333,403225.6666666667
AR80445,sterlitamak,Russia,273432,564622.987638385,15325704337.2044,273432,4,7,629201
AR81401,Oulan-Oude,Russia,404357,1979202.38308631,187868065511.656,529259,6,4.166666666666667,395256.6666666667
AR82401,Makhatchkala,Russia,758892,660736.028359724,10172361308.5651,891843,3,5.333333333333333,346946
AR82410,derbent,Russia,150632,519513.251002187,14785496273.8356,271453,3,4.666666666666667,607514.3333333334
AR82435,hasavjurt,Russia,133929,810422.52584365,21003475277.0672,219285,6,6,738135.8333333334
AR83401,Naltchik,Russia,271774,437977.953098476,11330367607.9181,453139,6,5.5,299117.3333333333
AR85401,Elista,Russia,103728,948275.235179113,61168210804.8577,103728,6,6.666666666666667,561726
AR86401,Petrozavodsk,Russia,263540,1668141.10579679,152529789491.794,413618,7,5,1007139
AR87401,Syktyvkar,Russia,235006,1326158.18926182,94879072751.0852,260312,6,5.833333333333333,222381.33333333334
AR87410,Vorkouta,Russia,91631,5045820.4629497,407974453026.126,193094,5,6.2,210932
AR87425,Oukhta,Russia,127451,2270794.30966364,309331329645.297,245662,7,6,237978.57142857142
AR88401,Iochkar-Ola,Russia,265528,822025.623304062,38143935117.2239,336892,8,6.25,698908.25
AR89401,Saransk,Russia,344954,648790.538720855,25964647678.3407,417976,6,6,420054.5
AR90401,Vladikavkaz,Russia,328410,420473.925531348,10699086870.6631,378989,5,6,583765.2
AR91401,cherkessk,Russia,121439,439045.447813452,11327132889.9004,175889,7,4.857142857142857,283428.28571428574
AR92401,Kazan,Russia,1313825,670834.751303749,25910179927.9905,1353518,7,6.571428571428571,439797.71428571426
AR92405,Almetevsk,Russia,146309,485261.427691946,11775672916.568,170254,5,6.4,314663.6
AR92410,bugulma,Russia,89144,460872.450759183,11269491268.0784,188148,5,6.4,449332.6
AR92415,elabuga,Russia,70750,416042.977801762,9042465342.67035,117869,4,7,747157
AR92430,Naberejnie Tchelny,Russia,513241.99999999994,345872.401445887,7140151679.13006,551791,7,6,289112.71428571426
AR92435,nizhnekamsk,Russia,234108,432871.09726232,10479325309.5268,367958,5,6,469716.2
AR93401,Kyzyl,Russia,124925,2183708.79453262,182495562409.706,149352,6,5.5,282047.3333333333
AR94401,Ijevsk,Russia,628116,502713.205736875,15526021463.5082,715361,9,5.666666666666667,329965.6666666667
AR94410,votkinsk,Russia,100034,427819.357207914,10873820738.8482,121225,4,7.25,574976
AR94420,glazov,Russia,95835,866550.924022229,41942060969.0703,166740,7,6,421563.71428571426
AR94440,sarapul,Russia,101390,277363.503981781,4314104335.60688,101390,4,7,397692.5
AR95401,Abakan,Russia,323053,1342534.31504133,91690364812.886,433448,5,6.6,365786
AR96401,groznyj,Russia,271596,716206.562517623,22906919744.2363,453601,7,6,458327.85714285716
AR97401,Tcheboksary,Russia,577758,620057.172582709,24408424674.961,701775,6,6.333333333333333,796077.3333333334
AR98401,Iakoutsk,Russia,269486,8559102.77660672,2316848327789.28,399233,6,5.166666666666667,338247.8333333333
AR99401,birobidgan,Russia,75419,1360022.53961254,99110483475.172,88463,3,5,514284.3333333333
ATA01101,Koulob,Tajikistan,95000,1309031.68475153,41439942121.5214,233000,6,5.166666666666667,434310.3333333333
ATA01102,Kourgonteppa,Tajikistan,75000,463749.443107952,10884931027.5024,165000,4,5.5,390085.5
ATA02101,Doushanbe,Tajikistan,796000,513476.985387932,16853660275.0408,874000,6,6.166666666666667,228445
ATA05101,Khoutchand / leninabad,Tajikistan,205000,459890.583627961,11978917072.6619,243433,6,5.5,365693.5
ATU01102,Tedzhen,Turkmenistan,84777,1094125.65988111,37891078646.0736,105549,3,5,614149.6666666666
ATU02101,Ashgabat,Turkmenistan,1034542.9999999999,866100.736439267,44906508720.6269,1135002,4,4.5,278999.75
ATU03101,Balkanabat,Turkmenistan,133489,1442318.40302829,62093408092.3117,193515,4,5,282263.25
ATU03102,"Serdar (Gyzylarbat, Kizyl-Arvat)",Turkmenistan,98278,1246411.30754337,70341306983.1432,123015,4,5.25,621304.5
ATU03103,Turkmenbashi,Turkmenistan,102906,1241223.49986853,13464307658.3873,102906,2,4.5,172656.5
ATU04101,Dashougouz,Turkmenistan,275278,887635.676072756,36169374268.7005,405367,4,6,622854.75
ATU05103,Turkmenabat / Tchardjou,Turkmenistan,427252,934397.077331554,49628539350.0493,510383,7,5.571428571428571,283796.4285714286
ATU05202,Govurdak,Turkmenistan,76157,869198.222604067,28233576111.4822,109157,6,5.166666666666667,307980
ATU06101,Bayramaly,Turkmenistan,131173,1086602.74090364,54142989314.9024,190130,3,5.666666666666667,281639.6666666667
ATU06102,Mary,Turkmenistan,208682,1020090.19861868,32558501894.4053,225379,4,5,322032.5
AUA01107,Evpatoria,Ukraine,106846,674956.384955889,10112083262.6077,205327,5,5.4,414209.2
AUA01109,Kertch,Ukraine,147269,564096.302415012,3273875134.4299,169937,2,3,335073.5
AUA01113,Simferopol,Ukraine,360337,385760.969445584,8316606305.48118,452688,5,3.8,208099
AUA01116,Feodosiya,Ukraine,70392,438979.252748262,6148228944.53115,100387,3,4.333333333333333,292726.6666666667
AUA01118,Yalta,Ukraine,98071,168880.794698983,1331929884.02584,127262,2,4,402326
AUA02103,Vinnitsya,Ukraine,369214,456751.175385339,14237011733.2975,529878,6,5.833333333333333,284199.3333333333
AUA03107,Loutsk,Ukraine,210775,513085.246270839,16676677177.9098,419719,5,5.4,524382.8
AUA04106,Dniepropetrovsk,Ukraine,1356913,370281.086766115,9322520436.89143,1383939,7,5.571428571428571,461205.14285714284
AUA04111,Krivii Rig,Ukraine,670397,450986.131757311,12190735998.8694,744371,5,6,584564.6
AUA04113,Nikopol',Ukraine,172617,477452.596219463,12855010243.3553,333664,6,6,693301.6666666666
AUA04116,Pavlograd,Ukraine,140034,431362.415610501,11651955653.6647,292910,6,6.5,869368.5
AUA05103,Artemivsk,Ukraine,78849,174721.496921264,1742597913.72197,105460,4,6.5,435955.75
AUA05111,Gorlivka,Ukraine,428911,174030.631909417,1876873815.56901,503279,7,5.285714285714286,447688.28571428574
AUA05117,Donetsk,Ukraine,1491507,287572.41210115,5005401901.44649,1568050,5,6.4,357533.2
AUA05126,Kramatorsk,Ukraine,428750,364921.739668053,8513815450.13727,514663,6,6.333333333333333,563078
AUA05128,Krasnoarmiisk,Ukraine,116409,357508.70577684,7897135735.84991,261504,7,5.571428571428571,627751
AUA05132,Maryoupol' / jdanov,Ukraine,480129,344726.541149711,6251034377.86418,492176,5,6,467401.2
AUA05148,Torez,Ukraine,180031,233270.532283866,3265422115.74993,273015,5,6,539083.2
AUA06103,Berditchiv,Ukraine,79600,376435.305286833,7191663137.82208,126125,4,6.5,433200.5
AUA06104,Zhitomir,Ukraine,271714,498749.427515775,15756190201.7599,483174,6,6.5,287832.1666666667
AUA07104,Moukatcheve,Ukraine,83763,420980.704564758,8943009129.5963,178986,3,3.6666666666666665,282797.6666666667
AUA07109,Ouzhgorod,Ukraine,116456,222126.638946698,2016252352.63946,116456,2,3.5,230220.5
AUA08101,Berdyansk,Ukraine,117517,337109.239518816,5360667851.80564,129736,4,6,475669.5
AUA08107,Zaporizhzha,Ukraine,780733,376104.383959357,9035494879.06508,893443,6,6,442884.6666666667
AUA08109,Melitopol,Ukraine,157626,683494.404268413,16373578739.2195,255555,6,4.833333333333333,352540.8333333333
AUA09106,Ivano-Frankivsk,Ukraine,224401,476565.782947563,14573513427.1964,450482,5,4.2,416650.6
AUA10102,Bila Tserkva,Ukraine,209250,410848.255033215,11364731266.0786,366206,8,6,668175.5
AUA10106,Brovari,Ukraine,94968,366050.742832143,7602132044.80075,229025,6,6.166666666666667,761522.1666666666
AUA10111,Irpin,Ukraine,82750,373750.775909092,9308528656.64332,116732,6,6.5,769504.8333333334
AUA11105,Kirovograd,Ukraine,236097,461068.058062479,14187991787.8317,328281,5,6.8,500110
AUA11110,Oleksandriya,Ukraine,83419,329348.430113775,5961281067.56776,199764,5,6,671953.2
AUA12102,Altchevsk / kommunarsk,Ukraine,140287,153189.541012464,1207522591.97285,150479,5,5.8,357985
AUA12113,Krasnii Loutch,Ukraine,102276,223067.412987461,3084392911.95443,215916,5,6.4,308422.4
AUA12116,Lisitchansk,Ukraine,287540,549313.153845373,19192670069.5488,465234,8,5.875,650719.5
AUA12117,Lougansk,Ukraine,458156,555110.902362913,13436539154.586,537068,7,6.428571428571429,417095.4285714286
AUA12135,Stakhanov/Brianka,Ukraine,173417,170956.779840904,1541392273.06172,260647,5,6.2,352304
AUA13111,Drogobitch,Ukraine,164097,388972.491545015,9542029279.1962,281455,4,3.5,433096.75
AUA13118,Lviv,Ukraine,760391,420624.993919012,10830547373.6597,986463,4,5.25,377898
AUA14104,Mikolaiv,Ukraine,501183,1113284.94306618,24152766523.3499,677175,7,5.285714285714286,489278
AUA15109,Ismail,Ukraine,75787,575374.564503308,10840121979.1918,226381,3,4,811268.3333333334
AUA15114,Odesa,Ukraine,1082099,513884.878637767,9208222467.15501,1194276,3,5,398271.6666666667
AUA16108,Krementchouk,Ukraine,227611,423499.044088207,9711932805.48299,351703,4,7,636939
AUA16113,Poltava,Ukraine,300501,519116.978512053,17350110967.9247,412581,7,6.428571428571429,706542.4285714285
AUA17110,Rivne,Ukraine,249582,527305.234336023,18301462569.4275,564794,6,6.5,351448.5
AUA18106,Konotop,Ukraine,89816,480487.3745047,13252460659.3665,181612,6,6.666666666666667,356603.1666666667
AUA18113,Soumi,Ukraine,272326,503242.043353066,17007888400.3664,434080,7,6,525455.4285714285
AUA18115,Shostka,Ukraine,80683,515766.27086404,17700087577.9119,187993,6,6.333333333333333,408593.6666666667
AUA19115,Ternopil,Ukraine,217577,409079.639978937,11572188976.9144,359936,7,4.857142857142857,457493.28571428574
AUA20116,Kharkiv,Ukraine,1546603,521792.545964808,16676270154.4584,1750081,6,6.666666666666667,441826.8333333333
AUA22106,Kamyanets-Podilsk,Ukraine,102813,416437.858527726,10022529345.0334,151038,5,5.2,380057.2
AUA22112,Khmelnitskii,Ukraine,261397,430694.721706512,12042402857.7384,353544,6,5.666666666666667,369157.5
AUA23112,Ouman,Ukraine,87836,573533.127467119,23533706324.3885,327768,8,6,509132
AUA23114,Tcherkasi,Ukraine,287713,510475.57204007,17865615029.3138,551472,9,5.888888888888889,288070.1111111111
AUA24112,Tchernivtsi,Ukraine,251776,420967.52283532,9224217593.19429,276413,3,5.666666666666667,320485.3333333333
AUA25109,Nizhin,Ukraine,74365,442038.06628908,11006277827.3011,195691,4,7,329977.75
AUA25115,Tchernigiv,Ukraine,297402,446147.053107861,12424645992.34,357802,7,6.142857142857143,260755.85714285713
AUA26101,Kiiv,Ukraine,2862217,216572.11868257,2082853888.69626,2981230,3,6.666666666666667,237321
AUA27103,Sevastopol,Ukraine,351964,167167.242449973,1267616188.83815,351964,3,4,261759
AUZ01101,Andidjan,Uzbekistan,554539,267122.656064118,4015371120.38808,745888,5,5,378891.8
AUZ02101,Bukhara,Uzbekistan,340033,636720.578939759,20682139710.4137,460430,4,6.5,321779.75
AUZ03101,Fergana,Uzbekistan,407452,760700.356638524,26407676469.3476,565906,6,5.166666666666667,405784
AUZ03103,Kokand,Uzbekistan,210794,639730.527267974,12071627080.3673,413914,5,6.2,260933.8
AUZ04101,Djizzak,Uzbekistan,150382,707339.690760826,23845136784.6544,247511,9,6,621290.2222222222
AUZ05102,Chust,Uzbekistan,70993,352557.36268773,6376220063.48,95167,7,5.571428571428571,428841
AUZ05104,Namangan,Uzbekistan,603126,182720.52374918,2002175732.27622,603126,4,5.75,397799.25
AUZ05105,Uchqo'rg'on,Uzbekistan,71393,450503.143181848,12129582094.2415,184236,5,6,406473.2
AUZ06101,Navoi,Uzbekistan,189092,612551.928845893,18327193625.1853,257325,4,6.25,297760
AUZ06104,Zarafshon,Uzbekistan,70434,1181762.10586954,88540138904.1071,106866,9,6.444444444444445,389044.55555555556
AUZ07104,Karshi,Uzbekistan,249107,527100.164551641,17434499612.9298,412545,6,5.333333333333333,304995.6666666667
AUZ07105,Shatchrisabz,Uzbekistan,143632,441224.359050467,11286436013.0625,281480,5,5.8,303279
AUZ08104,Nukus,Uzbekistan,443835,1741356.03763283,203716176181.752,751334,9,5.777777777777778,281781.8888888889
AUZ09102,Kattakourgan,Uzbekistan,126173,615193.360329828,16608376657.6609,211199,6,6.166666666666667,311354.5
AUZ09104,Samarkand,Uzbekistan,418166,412983.560866786,7890671539.2375,562400,4,6.75,240321
AUZ10101,Goulistan,Uzbekistan,81191,454438.315033097,9527878589.5771,383075,4,6.25,870618.5
AUZ11101,Denau,Uzbekistan,103130,465418.675227114,13240725206.3081,221094,7,5.285714285714286,353113.71428571426
AUZ11102,Termez,Uzbekistan,144219,445959.589295697,7987060123.61249,232248,3,5.666666666666667,165083.66666666666
AUZ12101,Angren,Uzbekistan,126958,405633.228101496,8755580909.92381,167163,6,5.666666666666667,733964
AUZ12102,Bekabad,Uzbekistan,135166,393999.902030207,8434019924.57188,260632,5,6,398694.2
AUZ12109,Almalyk,Uzbekistan,152535,252590.682178283,3852514978.46387,245452,5,5.4,756636.4
AUZ12112,Tashkent,Uzbekistan,2601360,580601.641749912,18239310745.9466,2728879,6,6,327267.8333333333
AUZ13101,Ourgentch,Uzbekistan,140172,1150729.99045537,70383030017.4967,482068,7,5.714285714285714,462840
