id,name,country,city_pop,cell_perimeter,cell_area,cell_pop,cell_nNeighbors,avg_nNeighbors_of_neighbors,avg_pop_of_neighbor_cells
AAR01101,Erevan,Armenia,1243000,674920.210513722,19213230173.9503,1621500,3,5.333333333333333,974466.6666666666
AAR08102,Gyoumri,Armenia,146300,527497.783395582,10863193103.9615,299400,3,5.333333333333333,1209266.6666666667
AAZ01101,Baki,Azerbaijan,1937300,854383.349926897,13113941225.4309,2263400,1,3,639200
AAZ03101,Sumqayit,Azerbaijan,299600,614484.971427504,18508861188.8785,639200,3,3.3333333333333335,1233251
AAZ05105,Ganca,Azerbaijan,315900,916728.425067607,52223423910.6207,1152300,6,4,854596.8333333334
ABE01101,Minsk,Belarus,1850399,543826.345449875,16635299149.1396,2127974,4,6.75,498410
ABE02101,Baranabitchi,Belarus,168666,587076.504797557,21280622940.4819,448496,6,5.333333333333333,762028.6666666666
ABE02103,Brest,Belarus,312779,534192.571268349,15048582235.6702,417995,4,5.25,402286.5
ABE02119,Pinsk,Belarus,131357,628683.853928832,25292688299.0626,305716,6,5.833333333333333,419270.5
ABE03104,Vitebsk,Belarus,351231,689595.370936869,25332208105.2299,485825,7,5.857142857142857,467830.5714285714
ABE03114,Orsha,Belarus,128827,391366.187667473,8707241529.36548,171091,4,6.5,444173.5
ABE03116,Polatsk,Belarus,181803,783220.090612098,38021852237.7752,382922,5,6.6,633907.6
ABE04104,Gomel,Belarus,487200,618944.916120058,24492380368.9921,733656,5,6.8,478537.6
ABE04110,Mazyr,Belarus,147812,612443.811051111,26232154313.3365,215470,7,5.857142857142857,939446.4285714285
ABE05104,Grodna,Belarus,332870,502863.418331864,12672824881.1183,435215,4,5.5,643646.75
ABE06102,Babrouisk,Belarus,215378,521249.39327242,17525676535.0273,449149,7,5.857142857142857,649907.1428571428
ABE06110,Mogileu,Belarus,359596,517121.221796372,16590783015.1514,458166,6,6.166666666666667,478329.6666666667
ABE07101,Barysau,Belarus,146910,485235.632498585,13764068623.7,259872,7,5.714285714285714,701607.1428571428
AES01140,Tallinn,Estonie,399340,1148646.39704229,29138234776.1301,563693,3,5.666666666666667,2423335.6666666665
AGE01101,Tbilisi,Georgia,1251500,650652.773954418,25371320744.252,1471700,7,4.714285714285714,702623
AGE04108,Koustaisi,Georgia,209600,750408.143306001,29640147072.3609,534600,6,5,603466.8333333334
AKA011,Almaty,Kazakhstan,1413182,1541489.16697553,107863914563.166,1708904,2,5.5,681319.5
AKA021,Astana / tselinograd,Kazakhstan,613006,1392280.8848118,108576929557.994,686453,5,7.2,611723.8
AKA03106,Kokshetau,Kazakhstan,135106,1310630.37158741,94400839993.8063,250095,6,6.333333333333333,545699.5
AKA04101,Aktobe,Kazakhstan,345687,1711794.40198364,186662834972.48,467635,7,6.428571428571429,411120.5714285714
AKA05109,Taldykorgai,Kazakhstan,139075,2200418.03423746,211948778465.785,348077,5,4.8,848937.6
AKA06101,Atyrau/guriev,Kazakhstan,178341,2354195.30038429,175058815147.177,300541,6,6.5,449172.1666666667
AKA07102,Oral,Kazakhstan,229226,1289073.18300098,106416978492.079,262099,6,6.5,608557
AKA08103,Taraz - djambul,Kazakhstan,320634,1282964.10113413,99078601515.0363,390603,8,6.375,582998.125
AKA09103,Zhezkazgan,Kazakhstan,146332,2030772.97699675,257958344480.026,174501,9,6.555555555555555,446885.44444444444
AKA09104,Karagandy,Kazakhstan,732973,1639540.88541423,185119628355.707,747238,7,6.285714285714286,505653.71428571426
AKA10103,Kostanai,Kazakhstan,237869,1457231.45829274,145408485253.637,451725,6,6.833333333333333,574201.1666666666
AKA11104,Kyzylorda,Kazakhstan,207557,2136648.39615548,208214575152.032,337684,6,7.5,413866
AKA12101,Aktau,Kazakhstan,181780,1739590.7319929,110293346987.226,313349,3,5.666666666666667,490437
AKA13106,Tourkistan,Kazakhstan,142899,1295223.59898737,95429129978.804,243467,8,6.375,663907.5
AKA13108,Shymkent,Kazakhstan,603499,671639.436407494,24504038511.2853,676939,4,7.25,915156.5
AKA14104,Pavlodar,Kazakhstan,317289,1436631.60946416,134502336413.226,578452,6,6.5,861353.3333333334
AKA15103,Petropavlovsk,Kazakhstan,201446,1218478.94136509,78463348277.3253,302447,4,6.75,692937
AKA16106,Oskemen (oust-kamenogorsk,Kazakhstan,303720,1836972.51864534,174334519907.004,427056,4,5.5,290040.25
AKA16108,Semei/semipalatinsk,Kazakhstan,299264,1276509.52373376,108172096486.879,346928,5,5.6,456867.2
AKI02101,Bishkek,Kyrgyzstan,872848,1571658.24541979,112623387439.143,1014562,6,5,746983.5
AKI05101,Osh,Kyrgyzstan,234552,1801133.85710928,75043095625.6025,505319,3,5.333333333333333,787409.3333333334
ALE01150,R_ga,Latvia,730109,1281726.66668677,50961541746.6453,1158359,6,4.833333333333333,588381
ALI02108,Kaunas,Lithuania,361992,649662.794315976,26162396781.3306,871973,5,4.4,698261.2
ALI03102,Klaip_da,Lithuania,182752,675112.045790942,19645061133.1781,446216,3,4.333333333333333,881908.3333333334
ALI10116,Vilnius,Lithuania,571706,659702.821880042,28333056965.1045,836123,7,5.285714285714286,812115.8571428572
AMO01113,Chisinau,Moldavia,700000,863588.377921253,28742254637.5459,1336283,3,5.666666666666667,512325.6666666667
AMO02108,Tiraspol,Moldavia,229527,799719.704587813,23989388319.719,413993,5,5.2,866486.6
AR01401,Barnaoul,Russia,682529,901730.270817296,46111750800.1394,882196,5,5.8,720338.2
AR01405,bijsk,Russia,210055,1398725.51828617,103557304900.412,281643,6,5,532377.6666666666
AR01416,rubcovsk,Russia,147008,976814.935821417,58845329438.1779,183513,6,5.666666666666667,735321.6666666666
AR03401,Krasnodar,Russia,789741,683147.640533504,23886966916.8215,1012384,8,4.75,558568.875
AR03405,Armavir,Russia,188897,643569.821995003,20703523280.5357,539092,7,5.857142857142857,611063
AR03420,novrossijsk,Russia,241788,561988.996468929,8600545823.29559,569760,2,6,633768.5
AR03426,Sotchi,Russia,343285,565902.627236441,13482555044.2398,482196,4,6.25,533223.25
AR04401,Krasnoiarsk,Russia,1047311.9999999999,2733866.91350862,397502506598.664,1679360,7,5.571428571428571,527433.8571428572
AR04429,Norilsk,Russia,175301,13833631.1751874,1971653236802.12,207578,6,6.333333333333333,789598.1666666666
AR05401,Vladivostok,Russia,733964,850892.075969301,6680143920.53019,747999,2,3,304316
AR05414,Nakhodka,Russia,159695,1033600.8618376,33733776395.6651,274922,3,3.3333333333333335,599301
AR05423,ussurijsk,Russia,157946,1186727.747711,60643342281.8386,333710,3,3.3333333333333335,579705
AR07401,Stavropol,Russia,398266,847473.428801864,37519946676.641,737644,5,6.8,498597.4
AR07415,kislovodsk,Russia,128502.00000000001,508201.637959003,17724629490.9523,304391,7,5.142857142857143,525397.1428571428
AR07427,Piatigorsk,Russia,450491,677405.803437129,24288802458.974,649591,5,6.2,511469.2
AR08401,Khabarovsk,Russia,577668,2267034.34916303,202087950606.112,716194,5,3.2,356708.2
AR08409,Komsomolsk-na-Amoure,Russia,263906,5430947.63070347,421989865322.297,428767,4,4.25,480925.75
AR10401,Blagoveschensk,Russia,214397,3034556.56388194,370487349852.681,486355,4,4.75,552217
AR11401,Arkhanguelsk,Russia,389328,3074487.99329037,185434397355.34,430617,6,5,437621.5
AR11430,severodvinsk,Russia,192265,2923781.46130027,89117880016.7737,237902,3,5,527173.3333333334
AR12401,Astrakhan,Russia,520662.00000000006,1701715.65409531,97160086326.315,580871,8,5.875,587486.5
AR14401,Belgorod,Russia,373025,516578.428310239,14615906327.2557,531493,5,6.4,771371.2
AR14440,staryjoskol,Russia,221163,658075.236308543,21714949942.4061,383498,6,6.333333333333333,665035.3333333334
AR15401,Briansk,Russia,429514,747930.945904992,38415492546.8435,683379,8,6.125,585310.5
AR17401,Vladimir,Russia,345598,457319.056106885,13763694367.3193,565767,7,5.714285714285714,509562.14285714284
AR17425,kovrov,Russia,145492,401151.797466949,9482697224.65946,214027,4,6.75,925680.5
AR17435,murom,Russia,132491,662163.383705422,29420049010.4489,393341,6,6.666666666666667,803615.5
AR18401,Volgograd,Russia,1396940,1251113.01279969,78313225599.9705,1572743,5,7.6,669060.4
AR18415,kamyshin,Russia,148269,1256784.02905865,80395932389.8034,319745,8,6.25,796658.625
AR19401,Vologda,Russia,301642,1249009.12875748,110460826481.534,424373,7,6.142857142857143,447505.5714285714
AR19430,Tchérépovets,Russia,312311,976572.26972335,60157685133.8681,372539,6,6.166666666666667,1379686.1666666667
AR20401,Voronej,Russia,980581,874049.363683349,42673565954.1139,1211408,7,7,731972.4285714285
AR22401,Nijni-Novgorod,Russia,1723120,918280.472460653,49210572812.4028,2094583,8,5.875,500552.375
AR24401,Ivanovo,Russia,438685,514032.794387801,13130775457.5002,649031,6,6,753992.3333333334
AR25401,Irkoutsk,Russia,635185,1094855.5928081,59053717005.5865,678846,2,4,492997.5
AR25405,angarsk,Russia,233765,2271650.86952005,155647424923.339,456736,4,4.5,603437.25
AR25414,Bratsk,Russia,246348,3711536.0229211,882881159803.716,606765,7,5.142857142857143,647959.8571428572
AR27401,Kaliningrad,Russia,443924,544994.294717099,9836268403.363,615393,2,4,659094.5
AR28401,Tver,Russia,403726,944494.347589433,62279094216.1673,934100,8,6.25,2260935.625
AR29401,Kalouga,Russia,325185,641153.578689175,28122086068.876,555361,7,6.285714285714286,2700308.1428571427
AR30401,Petropavlovsk-Kamtchatski,Russia,179526,12557439.3086491,1273642645677.09,337904,1,6,461367
AR32401,Kemerovo,Russia,561526,890411.065739127,42473110817.3584,795284,5,6,976260.8
AR32419,leninskkuzn,Russia,234389,669779.847587646,21746383012.0407,316573,5,5.6,935151.4
AR32425,mezhdurechk,Russia,145024,1324922.5305994,63982211122.1732,178315,6,5.333333333333333,766007.6666666666
AR32431,Novokouznetsk,Russia,924307,622171.524933028,18758351786.4466,924307,4,5.5,414681.75
AR33401,Kirov,Russia,473668,1363288.35441366,120732112894.62,722501,8,6.25,851673.5
AR34401,Kostroma,Russia,268617,811808.725895579,38703224536.6395,477877,6,6.5,804001.3333333334
AR36401,Samara,Russia,1328211,751974.993890882,36614689522.9284,1599451,7,6,465701.5714285714
AR36435,syzranj,Russia,206017,560553.765320349,19202257112.6567,234241,6,5.833333333333333,811526.3333333334
AR36440,toljatti,Russia,775074,470356.434287763,11825910182.0244,775074,4,7,829439.75
AR37401,Kourgan,Russia,333640,937231.239200591,57027044455.3044,350738,6,5.833333333333333,651149.5
AR38401,Koursk,Russia,414595,590532.073198186,20324475429.6334,509343,5,6.6,572994.6
AR40,Saint-Pétersbourg,Russia,4848742,1432027.55556258,60225098150.0258,5682289,5,5.2,470299.2
AR42401,Lipetsk,Russia,554922,635839.283688244,23947861439.2797,730691,6,6.5,662401.1666666666
AR45,Moscou,Russia,14425208,437737.97347088,11135467069.6704,14835210,6,6.166666666666667,636381.6666666666
AR46204501,balashiha,Russia,215353,302656.217708717,4875675743.94867,720587,4,6.75,4094543.75
AR46215501,sergiposad,Russia,132490,496840.585654463,16185279164.5765,489630,7,5.857142857142857,2662602.1428571427
AR46438,kolomna,Russia,162854,403251.700434647,10267841253.8315,487568,7,5.285714285714286,2641738
AR46470,serpuhov,Russia,126496,401165.005715425,8857829212.87413,631044,4,6.25,4148439.75
AR47401,Mourmansk,Russia,382344,3079607.91032407,140707271298.621,689637,3,5,376595
AR49401,Veliki Novgorod,Russia,228336,1040805.38773912,67614506999.8419,524639,5,6.4,1580822.4
AR50401,Novossibirsk,Russia,1687247,1377342.72491374,120281456193.933,1895655,8,5.625,671195.875
AR52401,Omsk,Russia,1153971,1727003.97005512,201823016903.177,1308333,8,6,771189.875
AR53401,Orenbourg,Russia,546987,1050087.72843812,61427734813.3657,604616,5,6.4,624568.6
AR53423,Orsk,Russia,337936,1442968.93678195,116638434916.564,447069,6,6.833333333333333,441533.6666666667
AR54401,Orel,Russia,329849,619477.057157411,24274804195.8273,529973,7,6,569868.4285714285
AR56401,Penza,Russia,517136.99999999994,792356.504940665,37200513136.1353,820175,5,6.2,637764.6
AR57401,Perm,Russia,1043459.0000000001,958248.141856988,53586976352.9787,1389336,6,6.833333333333333,794139.5
AR57408,Berezniki,Russia,162206,1127689.84355433,79814585970.6599,381845,6,6.166666666666667,674313.6666666666
AR58401,Pskov,Russia,203281,964229.194512617,59853306303.2952,429359,6,5.166666666666667,1466287.8333333333
AR60401,Rostov-sur-le-Don,Russia,1243691,542960.830431451,14149975851.7194,1353423,6,6,518497.8333333333
AR60412,volgodonsk,Russia,185650,1057583.1273659,59917711577.5083,419042,7,6,730745.2857142857
AR60427,novcherkask,Russia,169039,463936.016326506,8039978956.87878,169039,4,6.25,753287.25
AR60437,taganrog,Russia,257692,750307.975976602,10419669211.2919,257692,5,6.8,1036114
AR60440,shahty,Russia,251406,526163.107111679,13766655067.638,701592,5,6.4,637385.6
AR61401,Riazan,Russia,543440,610113.796031637,24529299412.8272,612751,6,6.5,569024
AR63401,Saratov,Russia,1074596,880885.995726482,40027226567.2554,1260663,4,6.75,581216
AR63407,Balakovo,Russia,199573,857320.4100383,41402727926.0691,359354,6,6,749395.6666666666
AR64401,Ioujno-Sakhalinsk,Russia,181727,2406391.45970019,48541989090.8685,259787,2,4.5,572480.5
AR65401,Ekatérinbourg,Russia,1496136,555382.099673067,13009259171.0714,1817055,4,6.25,478634.5
AR65436,kamenskural,Russia,174710,722217.098446822,30043619907.137,421380,6,6.166666666666667,961609.3333333334
AR65456,krasnotursk,Russia,188200,1747197.54556075,198909328471.698,412820,5,6.4,689876.6
AR65476,Nijni-Taguil,Russia,433932,838190.86270214,41875559395.8852,708674,7,5.571428571428571,808223.2857142857
AR65480,pervouralsk,Russia,186445,631782.817180743,24902838083.3775,372545,5,6.4,1122816.6
AR66401,Smolensk,Russia,326863,844672.528249428,44340918787.1457,572831,6,6.666666666666667,547987
AR68401,Tambov,Russia,312308,957167.678587355,57232181533.5972,825590,8,6.125,732218.625
AR69401,Tomsk,Russia,522940.00000000006,2222869.67787358,258977312296.215,811401,4,6.5,1216028.5
AR70234501,novmoskovsk,Russia,279563,506780.796723277,15428714676.0767,411187,5,6.2,615320.6
AR70401,Toula,Russia,620830,400451.911185594,8772883934.71841,715620,5,6,523026.6
AR71135,Nijni-Vartovsk,Russia,251860,2824505.55224102,444554341675.029,493815,6,6.5,1167057.8333333333
AR71136,Sourgout,Russia,306703,3428414.98693456,451549226862.924,1100020,6,6.333333333333333,613565
AR71401,Tioumen,Russia,581758,1462673.42674804,147390414830.83,862582,7,6,657773.1428571428
AR73401,Oulianovsk,Russia,640205,671997.835453347,28210331946.6865,806129,6,6.166666666666667,708586.8333333334
AR75401,Tchéliabinsk,Russia,1330245,712154.715743484,30698758054.9551,1618668,6,6,415041.6666666667
AR75412,zlatoust,Russia,174985,670511.800653009,27292652416.0496,411939,7,5.714285714285714,910170.7142857143
AR75438,Magnitogorsk,Russia,408401,906994.276651543,53737723941.9302,604136,8,5.75,648510.875
AR75442,miass,Russia,195217,537652.420978108,13289339366.1732,250332,3,7,878247.6666666666
AR76401,Tchita,Russia,323964,3432120.8285052,649625447184.626,602540,4,5.25,520936.5
AR78401,Iaroslavl,Russia,591486,442985.80987117,10619425488.0902,682070,4,6.25,466997
AR78415,Rybinsk,Russia,200771,586280.048029447,20844454185.571,251450,6,6.333333333333333,563431.5
AR79401,majkop,Russia,154978,544049.584715323,14148125946.1147,281518,4,6.5,584515.75
AR80401,Oufa,Russia,1062300,852441.26302671,48494532963.1302,1287079,8,6.25,720209.875
AR80439,salavat,Russia,222327,774511.633940134,29313886313.8994,346589,6,6.5,717982.6666666666
AR80445,sterlitamak,Russia,273432,668631.403176249,19174147494.4305,374686,4,7.75,728935.5
AR81401,Oulan-Oude,Russia,404357,2016360.0004854,189347558165.508,529259,4,4.25,586221.75
AR82401,Makhatchkala,Russia,758892,663916.494984083,10256813022.2392,891843,3,4.666666666666667,551879.3333333334
AR82410,derbent,Russia,150632,562741.14110388,18774803904.6183,284053,3,4,894447.6666666666
AR82435,hasavjurt,Russia,133929,810616.175718242,21003672329.0533,219285,5,6,915603
AR83401,Naltchik,Russia,271774,582338.477579247,15837743293.0892,453139,5,5.6,515971.6
AR86401,Petrozavodsk,Russia,263540,1830583.33564153,161917106181.47,461266,6,5,1306226.1666666667
AR87401,Syktyvkar,Russia,235006,1625896.2916142,166026843678.83,416289,5,6.6,471119.6
AR87425,Oukhta,Russia,127451,3773795.72844359,559682266952.344,396262,6,5.666666666666667,491528.1666666667
AR88401,Iochkar-Ola,Russia,265528,855726.430842856,39197730368.0355,336892,5,6.8,1232914
AR89401,Saransk,Russia,344954,789774.673714078,39656152371.7833,508975,7,6.285714285714286,839404.8571428572
AR90401,Vladikavkaz,Russia,328410,540775.122396107,15362081614.7922,609975,4,6,735185
AR92401,Kazan,Russia,1313825,701334.882043509,27313727021.4654,1353518,6,6,705000.6666666666
AR92405,Almetevsk,Russia,146309,770981.790845172,37905620518.2291,677938,9,5.444444444444445,844056.5555555555
AR92430,Naberejnie Tchelny,Russia,513241.99999999994,532138.812526881,15336146088.5952,638905.9999999999,4,7,918071.75
AR92435,nizhnekamsk,Russia,234108,561872.174356229,16227282229.3734,415077,4,6.5,990638.75
AR94401,Ijevsk,Russia,628116,946686.802856206,53640955499.3755,1292193,7,5.857142857142857,877615.5714285714
AR95401,Abakan,Russia,323053,2210163.54225788,242872461449.59,598879,5,6,640563.8
AR96401,groznyj,Russia,271596,797899.497548874,29904615522.1437,481301,6,5.666666666666667,664093.5
AR97401,Tcheboksary,Russia,577758,630673.503995355,24926610754.6455,701775,5,6.4,1020019.4
AR98401,Iakoutsk,Russia,269486,10707673.8600169,3221025565820.13,461367,6,4.333333333333333,444984.8333333333
ATA02101,Doushanbe,Tajikistan,796000,1438556.44455252,53622828332.933,1413387,8,4.875,395495.75
ATA05101,Khoutchand / leninabad,Tajikistan,205000,498956.677315912,12668439691.8122,243433,5,5.8,538322.4
ATU02101,Ashgabat,Turkmenistan,1034542.9999999999,1277757.91551941,79351312195.048,1155774,4,5,413364.75
ATU03101,Balkanabat,Turkmenistan,133489,2465345.84624731,127544168729.985,419436,4,4.5,656456
ATU04101,Dashougouz,Turkmenistan,275278,941172.124127833,41476888906.793,405367,4,5.75,711261
ATU05103,Turkmenabat / Tchardjou,Turkmenistan,427252,994255.795875908,51155522759.0535,510383,5,5.4,400183.6
ATU06101,Bayramaly,Turkmenistan,131173,1126268.33719257,58480413942.7372,190130,4,5,406815.5
ATU06102,Mary,Turkmenistan,208682,1157284.32389088,59117611491.4198,310156,4,5.25,593696.75
AUA01109,Kertch,Ukraine,147269,762009.90012122,5056267488.8167,255153,4,5,772830
AUA01113,Simferopol,Ukraine,360337,705893.678410876,20809572052.8064,779459,4,4.25,393263.75
AUA02103,Vinnitsya,Ukraine,369214,647727.640214293,26901706627.0451,694155,7,5.142857142857143,583322
AUA03107,Loutsk,Ukraine,210775,513085.246270839,16676677177.9098,419719,5,5.2,526980.8
AUA04106,Dniepropetrovsk,Ukraine,1356913,373166.946316847,9388032788.92845,1407715,6,5.5,529931.1666666666
AUA04111,Krivii Rig,Ukraine,670397,468496.692732996,13494065393.4355,811867,5,6,656844
AUA04113,Nikopol',Ukraine,172617,482246.068435092,12867653549.6268,333664,5,5.8,813596
AUA04116,Pavlograd,Ukraine,140034,464918.408266304,13613893526.3323,292910,6,6,1137096.3333333333
AUA05111,Gorlivka,Ukraine,428911,205932.314020861,2614914726.47998,582128,6,5.833333333333333,613062.6666666666
AUA05117,Donetsk,Ukraine,1491507,365396.009127103,8328023495.99442,1653858,7,5.857142857142857,555996.8571428572
AUA05126,Kramatorsk,Ukraine,428750,422557.667102805,11113381061.6574,704900,5,6.6,951256.2
AUA05132,Maryoupol' / jdanov,Ukraine,480129,770531.804257207,11515571970.0168,729717,6,5.833333333333333,723384
AUA05148,Torez,Ukraine,180031,288479.102770475,5387854314.8508,431188,7,5.857142857142857,787629.7142857143
AUA06104,Zhitomir,Ukraine,271714,554950.072239049,21419667625.4497,609299,6,5.833333333333333,945953
AUA08107,Zaporizhzha,Ukraine,780733,391235.900326894,9381627098.16833,893443,6,5.833333333333333,780939.6666666666
AUA08109,Melitopol,Ukraine,157626,768567.48158188,19057300668.9957,267774,5,5.6,684692.8
AUA09106,Ivano-Frankivsk,Ukraine,224401,538242.72390294,17061764265.1849,450482,4,4.25,588031.25
AUA10102,Bila Tserkva,Ukraine,209250,549557.883490275,18026111877.7936,493946,5,6.4,1127793.4
AUA11105,Kirovograd,Ukraine,236097,575130.209431751,22007483533.3484,420538,7,5.857142857142857,589178.8571428572
AUA12102,Altchevsk / kommunarsk,Ukraine,140287,185213.15224852,1656490098.14259,150479,4,6.25,522049.75
AUA12116,Lisitchansk,Ukraine,287540,562393.20130179,19545752366.7748,477304,8,5.875,779798.875
AUA12117,Lougansk,Ukraine,458156,717630.508396998,32020591778.2279,814236,8,5.875,653050.375
AUA12135,Stakhanov/Brianka,Ukraine,173417,183591.322740515,1706863984.49395,260647,4,6.5,506036.75
AUA13111,Drogobitch,Ukraine,164097,631300.828893806,18013039923.4435,576897,2,4,718472.5
AUA13118,Lviv,Ukraine,760391,420624.993919012,10830547373.6597,986463,4,4.25,451758.5
AUA14104,Mikolaiv,Ukraine,501183,1174195.13105956,25299789978.856,687181,7,4.714285714285714,603081.5714285715
AUA15114,Odesa,Ukraine,1082099,764086.588438084,10313568292.9294,1194276,2,6,550587
AUA16108,Krementchouk,Ukraine,227611,459704.137115234,12763346218.4776,435122,5,6.2,728137.8
AUA16113,Poltava,Ukraine,300501,534669.426434153,17610673839.7785,412581,6,6.166666666666667,868407.6666666666
AUA17110,Rivne,Ukraine,249582,527305.234336023,18301462569.4275,564794,6,5.833333333333333,381751
AUA18113,Soumi,Ukraine,272326,668652.103764255,31042679273.4086,736630,7,6.142857142857143,723055.5714285715
AUA19115,Ternopil,Ukraine,217577,420207.66041955,11992133947.2442,359936,6,4.833333333333333,538442.1666666666
AUA20116,Kharkiv,Ukraine,1546603,521792.545964808,16676270154.4585,1750081,6,6.166666666666667,525969.6666666666
AUA22112,Khmelnitskii,Ukraine,261397,512075.24713296,16134273563.0409,380366,5,6,531402.6
AUA23114,Tcherkasi,Ukraine,287713,600692.110815842,21910860135.1872,587988,7,5.857142857142857,916046.8571428572
AUA24112,Tchernivtsi,Ukraine,251776,694952.692636863,17001161168.5851,428829,5,5,644244.4
AUA25115,Tchernigiv,Ukraine,297402,675984.517621548,28342219859.6241,586524,6,6.5,1047351.6666666666
AUA26101,Kiiv,Ukraine,2862217,545133.964855059,17657937098.2386,3326987,5,6.2,498645.4
AUA27103,Sevastopol,Ukraine,351964,387822.128594739,2991634072.01369,362947,1,4,779459
AUZ01101,Andidjan,Uzbekistan,554539,490828.714352299,12193683894.712,781760,5,5.4,666949
AUZ02101,Bukhara,Uzbekistan,340033,874085.80617664,36300080548.592,460430,4,6.5,469586
AUZ03101,Fergana,Uzbekistan,407452,969242.840877949,42289116648.6834,565906,5,5.2,799381.8
AUZ03103,Kokand,Uzbekistan,210794,726763.127441264,13991067246.6245,438088,5,6,649648.8
AUZ04101,Djizzak,Uzbekistan,150382,721663.842744674,27175737412.0826,333182,6,6.166666666666667,952894.6666666666
AUZ05104,Namangan,Uzbekistan,603126,494099.250544726,14729318717.3677,858355,5,6,468704
AUZ06101,Navoi,Uzbekistan,189092,914747.017093501,45874580697.1367,327759,6,6.5,382163.6666666667
AUZ07104,Karshi,Uzbekistan,249107,784452.347794314,34231347151.5691,521702,7,4.857142857142857,327619.4285714286
AUZ07105,Shatchrisabz,Uzbekistan,143632,502141.39518651,15797412435.469,308414,5,5.8,598741.8
AUZ08104,Nukus,Uzbekistan,443835,1814176.75120496,225739595194.99,751334,7,5.428571428571429,394644.5714285714
AUZ09102,Kattakourgan,Uzbekistan,126173,635116.50850428,17010591184.4773,211199,6,6,382820.6666666667
AUZ09104,Samarkand,Uzbekistan,418166,414422.344198782,7891397191.70322,562400,4,6.25,566545.5
AUZ11102,Termez,Uzbekistan,144219,744417.850681329,18963583021.826,285021,4,6,608408.25
AUZ12101,Angren,Uzbekistan,126958,432694.847438084,10428298837.607,167163,7,5.285714285714286,816037.5714285715
AUZ12102,Bekabad,Uzbekistan,135166,462044.707666849,11794085565.4999,427522,5,5.8,1018969.4
AUZ12109,Almalyk,Uzbekistan,152535,290008.723475824,4371375531.30968,245452,4,5.75,924377.75
AUZ12112,Tashkent,Uzbekistan,2601360,600571.808549022,20558898897.9264,2859393,6,5.666666666666667,348954.1666666667
AUZ13101,Ourgentch,Uzbekistan,140172,1258694.14885902,92310475360.2308,518500,8,5,532360.875
