\relax 
\providecommand\hyper@newdestlabel[2]{}
\providecommand\HyperFirstAtBeginDocument{\AtBeginDocument}
\HyperFirstAtBeginDocument{\ifx\hyper@anchor\@undefined
\global\let\oldcontentsline\contentsline
\gdef\contentsline#1#2#3#4{\oldcontentsline{#1}{#2}{#3}}
\global\let\oldnewlabel\newlabel
\gdef\newlabel#1#2{\newlabelxx{#1}#2}
\gdef\newlabelxx#1#2#3#4#5#6{\oldnewlabel{#1}{{#2}{#3}}}
\AtEndDocument{\ifx\hyper@anchor\@undefined
\let\contentsline\oldcontentsline
\let\newlabel\oldnewlabel
\fi}
\fi}
\global\let\hyper@last\relax 
\gdef\HyperFirstAtBeginDocument#1{#1}
\providecommand\HyField@AuxAddToFields[1]{}
\providecommand\HyField@AuxAddToCoFields[2]{}
\citation{cottineau:rank-size}
\citation{bretagnolle-2006}
\citation{simpop}
\citation{}
\citation{}
\newlabel{FirstPage}{{}{1}{}{section*.1}{}}
\@writefile{toc}{\contentsline {title}{The spatial organization of urban hierarchies}{1}{section*.2}}
\@writefile{toc}{\contentsline {abstract}{Abstract}{1}{section*.1}}
\@writefile{toc}{\contentsline {section}{\numberline {}Results}{1}{section*.3}}
\@writefile{toc}{\contentsline {subsection}{\numberline {}Geometrical properties of urban tesselations at different scales}{1}{section*.4}}
\citation{okabe:1998}
\@writefile{lof}{\contentsline {figure}{\numberline {1}{\ignorespaces  Number of French municipalities such as $P\geq P_0$.}}{2}{figure.1}}
\newlabel{fig:N_P0}{{1}{2}{Number of French municipalities such as $P\geq P_0$}{figure.1}{}}
\@writefile{toc}{\contentsline {paragraph}{\numberline {a}Perimeter of the Voronoi cells}{2}{section*.5}}
\@writefile{toc}{\contentsline {paragraph}{\numberline {b}Shapes}{2}{section*.6}}
\@writefile{lof}{\contentsline {figure}{\numberline {2}{\ignorespaces  Average perimeter $<p>$ of the Voronoi cells built from the municipalities centroids. Value are plotted against the density $\rho $ of the point pattern, for the spatial Poisson case (red) ; for the data including country borders' cells (green) and in the bulk (blue ; for this latter case for there is no data for the smallest density values (highest $P_0$) because all cells touch the country border.}}{2}{figure.2}}
\newlabel{fig:p_P0}{{2}{2}{Average perimeter $<p>$ of the Voronoi cells built from the municipalities centroids. Value are plotted against the density $\rho $ of the point pattern, for the spatial Poisson case (red) ; for the data including country borders' cells (green) and in the bulk (blue ; for this latter case for there is no data for the smallest density values (highest $P_0$) because all cells touch the country border}{figure.2}{}}
\@writefile{lof}{\contentsline {figure}{\numberline {3}{\ignorespaces  Variance of the Voronoi cells area vs. the density of the point pattern.}}{2}{figure.3}}
\newlabel{fig:var-area}{{3}{2}{Variance of the Voronoi cells area vs. the density of the point pattern}{figure.3}{}}
\@writefile{toc}{\contentsline {subsection}{\numberline {}Aboav-Weaire law and Lewis law}{2}{section*.7}}
\@writefile{toc}{\contentsline {subsection}{\numberline {}Spatial dominance tree}{2}{section*.8}}
\citation{okabe:1998}
\@writefile{lof}{\contentsline {figure}{\numberline {4}{\ignorespaces $<n>$ vs $P_0$}}{3}{figure.4}}
\newlabel{fig:n_vs_P0}{{4}{3}{$<n>$ vs $P_0$}{figure.4}{}}
\@writefile{toc}{\contentsline {subsubsection}{\numberline {}Global scale}{3}{section*.9}}
\newlabel{sec:spatial-hierarchy-global}{{\tmspace  +\thinmuskip {.1667em}\tmspace  +\thinmuskip {.1667em}0\tmspace  +\thinmuskip {.1667em}b}{3}{}{section*.9}{}}
\@writefile{toc}{\contentsline {paragraph}{\numberline {c}tree structure -- depth and balance}{3}{section*.10}}
\@writefile{toc}{\contentsline {paragraph}{\numberline {d}cell population}{3}{section*.11}}
\@writefile{toc}{\contentsline {paragraph}{\numberline {e}cell area}{3}{section*.12}}
\@writefile{toc}{\contentsline {subsubsection}{\numberline {}Local scale}{3}{section*.13}}
\@writefile{toc}{\contentsline {section}{\numberline {}Methods}{3}{section*.14}}
\@writefile{toc}{\contentsline {subsection}{\numberline {}Data}{3}{section*.15}}
\@writefile{toc}{\contentsline {subsection}{\numberline {}Okabe-Sadahiro spatial dominance tree}{3}{section*.16}}
\@writefile{lof}{\contentsline {figure}{\numberline {5}{\ignorespaces  $\overline  {a(n)}=f(n)$ for different population threshold.}}{4}{figure.5}}
\newlabel{fig:N_P0}{{5}{4}{$\overline {a(n)}=f(n)$ for different population threshold}{figure.5}{}}
\@writefile{toc}{\contentsline {section}{\numberline {}Supplementary Figures}{4}{section*.17}}
\@writefile{lof}{\contentsline {figure}{\numberline {6}{\ignorespaces $nm(n)=f(n)$.}}{5}{figure.6}}
\newlabel{fig:Aboav}{{6}{5}{$nm(n)=f(n)$}{figure.6}{}}
\@writefile{lof}{\contentsline {figure}{\numberline {7}{\ignorespaces The Gini value of the cell population sizes $(\phi _i)$ and areas $(a_i)$ distributions, at different levels in the spatial dominance tree for France, at different dates.}}{5}{figure.7}}
\newlabel{fig:Gini-vs-k}{{7}{5}{The Gini value of the cell population sizes $(\phi _i)$ and areas $(a_i)$ distributions, at different levels in the spatial dominance tree for France, at different dates}{figure.7}{}}
\bibdata{draftNotes}
\bibstyle{apsrev4-1}
\citation{REVTEX41Control}
\citation{apsrev41Control}
\@writefile{lof}{\contentsline {figure}{\numberline {8}{\ignorespaces  $a_i$ vs $P_i$ for different population thresholds $P_0$}}{6}{figure.8}}
\newlabel{fig:p_vs_P}{{8}{6}{$a_i$ vs $P_i$ for different population thresholds $P_0$}{figure.8}{}}
\@writefile{lof}{\contentsline {figure}{\numberline {9}{\ignorespaces  }}{6}{figure.9}}
\newlabel{fig:a_vs_P}{{9}{6}{}{figure.9}{}}
\newlabel{LastPage}{{}{6}{}{}{}}
