id,name,country,city_pop,cell_pop,diff_pop,n_cities_included,diff_pop_null,cell_perimeter,cell_area,cell_nNeighbors,avg_nNeighbors_of_neighbors,avg_cell_pop_of_neighbors,avg_diff_pop_of_neighbors,avg_diff_pop_of_neighbors_null
217,Barcelona,ES,3437870,14622040.2,11184170.2,157,10725633.424473817,3593255.47754241,213183890524.793,4,4.666666666666667,32212643.04,25859013.04,25709639.35505507
338,Madrid,ES,4246450,28779212.9,24532762.9,281,19196834.345714282,4102867.27703752,517073468286.261,2,4,14622040.2,11184170.2,10725633.424473817
841,Paris,FR,10416100,18622807.28,8206707.280000001,162,11067214.1067819,2665642.34032536,283657960832.584,5,5,27342492.025,21933449.525,21570820.087755464
987,Dimos Athinaion,GR,3352870,27412070.91,24059200.91,377,25755183.446029484,10565316.5416135,496642744209.477,3,5.5,60168533.464999996,56118178.464999996,58956825.766375184
1526,Milano,IT,4398340,49235908.94,44837568.94,686,46864869.612669036,8513219.13663521,533827928065.904,7,4.166666666666667,31631340.368333332,26747647.035,27816053.562621586
2913,Berlin,DE,3702370,71101157.99,67398787.99,1040,71048781.92008133,17774194.3246652,1729970504534.58,4,4.666666666666667,37916673.07333333,33993969.739999995,36458044.825016096
3013,Great London,UK,9423910,24584092.5,15160182.5,251,17147350.251865786,3104045.45685485,84356178700.7142,4,4,22360756.01,16165956.01,13754315.474272156
3014,Greater Manchester,UK,3792250,27531534.29,23739284.29,273,18650305.25402135,5975030.50113013,233927266798.613,2,4,24584092.5,15160182.5,17147350.251865786
3416,Essen // Duisburg // Dortmund // Bochum // Gelsen*,DE,4016900,37102039.37,33085139.369999997,538,36754081.41634977,2556665.24807419,183226373105.742,4,5.333333333333333,47088331.129999995,42929411.129999995,43153026.198254526
3566,Brussels,BE,4376050,20927926.46,16551876.46,169,11545427.062013216,1569904.71219016,72571285384.834,5,5,32386212.0225,25322399.5225,27958378.846916623
