id,name,country,city_pop,cell_pop,diff_pop,n_cities_included,diff_pop_null,cell_perimeter,cell_area,cell_nNeighbors,avg_nNeighbors_of_neighbors,avg_cell_pop_of_neighbors,avg_diff_pop_of_neighbors,avg_diff_pop_of_neighbors_null
80,Wuppertal // Hagen // Solingen,DE,1123370,4789237,3665867,77,4332315.410115296,617214.570760111,20837359266.1924,4,6.75,8962726.567499999,6518624.0675,7131441.275741737
135,Kobenhavn,DK,1283700,5738556.7,4454856.7,80,4501106.919600308,4245357.08717413,101917977670.248,5,6,8318078.775,5966778.775,6034296.464089163
217,Barcelona,ES,3437870,8857706.2,5419836.199999999,80,4501106.919600308,1798056.3863147,126092388114.996,5,5,7172044.4625,5230275.2125,4107260.064135281
338,Madrid,ES,4246450,12598991.8,8352541.800000001,100,5626383.649500385,2086363.26604719,238472841179.164,5,3.5,6682095.65,4781590.65,3994732.391145273
481,Valencia,ES,1140620,6067280.4,4926660.4,66,3713413.208670254,1641429.44259879,93980610407.002,3,5,10728349,6886189,5063745.284550346
516,Helsinki = Helsingfors,FI,1079550,5281485.79,4201935.79,76,4276051.573620292,6721879.35702771,564114842736.65,3,5,7678451.600000001,5856531.600000001,5541987.894757878
695,Sofiya,BG,1175730,5020170.8,3844440.8,65,3657149.3721752497,2400292.96742695,122986111041.753,4,3.6666666666666665,8234766.57,5756023.236666666,6339058.911770433
783,Lyon,FR,1403560,5466422.55,4062862.55,78,4388579.2466103,1916114.47034458,158507524603.476,7,6.166666666666667,10038134.606666666,6328116.7733333325,6826678.828060467
789,Marseille,FR,976447,4555483.1,3579036.0999999996,48,2700664.1517601847,1352752.09936955,45814565396.1776,5,6.25,6624687.8875,4414710.3875,4304183.491867795
841,Paris,FR,10416100,17085116.88,6669016.879999999,134,7539354.090330515,2316186.95379056,194832768320.23,7,5.5,9251967.613333333,5869910.946666666,5879570.913727902
971,Lille // Roubaix // Tourcoing,FR // BE,1388300,4193531.26,2805231.26,51,2869455.661245196,701995.775139722,26046980655.7664,3,6.5,12455577.89,5059502.89,4810558.020322829
987,Dimos Athinaion,GR,3352870,5834145.2,2481275.2,41,2306817.2962951576,5196372.30112928,97123702086.9993,2,4,5020170.8,3844440.8,3657149.3721752497
1082,Budapest,HU,2057700,8150508.5,6092808.5,146,8214520.128270562,2247135.06361674,167131219933.055,6,5.4,8310132.262,6362130.262,6177769.247151422
1189,Dublin,IE,1121310,2897240.4,1775930.4,41,2306817.2962951576,2225922.20620333,83529400725.8367,4,4.333333333333333,7317062.663333333,4797602.663333333,4407333.858775301
1526,Milano,IT,4398340,13458014.69,9059674.69,176,9902435.223120676,1949181.92730832,79677185555.2969,6,7,7889952.044,6141698.044,7179265.536762491
1554,Napoli,IT,2435950,12902178.5,10466228.5,195,10971448.11652575,3645547.13936748,101643805789.06,2,8,8785599.8,6098999.800000001,5626383.649500385
1645,Roma,IT,2686600,8785599.8,6098999.800000001,100,5626383.649500385,2741093.36710707,99776332133.9883,8,5.142857142857143,8325957.555714286,6219007.984285714,6992791.107236193
1672,Praha,CZ,1232510,6575851.6,5343341.6,130,7314298.7443504995,1170431.86090385,87009197289.5537,5,6.8,9789883.154,7611159.153999999,8709641.889426596
1740,Torino,IT,1311880,3389023,2077143,48,2700664.1517601847,1015844.98412892,40785107816.6244,5,6.5,8066380.035,5700143.285,5654515.567747886
1840,Amsterdam,NL,1071050,6711028,5639978,93,5232536.794035357,666750.295008918,21112365128.5697,4,5.666666666666667,7467844.9,5072798.233333333,4688653.04125032
1977,Rotterdam,NL,1109250,4959825,3850575,43,2419344.9692851654,493510.312659506,7946745220.71508,4,5.333333333333333,8060273.633333334,4905606.966666667,4388579.2466103
2128,Katowice // Sosnowiec // Gliwice // Bytom // Zabr*,PL,1903450,10124000.7,8220550.699999999,146,8214520.128270562,1410647.8792977,111911371753.737,6,6,8601654.42,6385726.42,7168012.76946349
2339,Warszawa - Centrum,PL,2138490,11265211.8,9126721.8,145,8158256.291775557,2840669.04083135,215974231684.128,6,5,7070238.158,5175354.158,5435086.605417372
2407,Lisboa // Sintra,PT,1851170,7305241.9,5454071.9,80,4501106.919600308,2356011.57272212,97320812797.0038,3,4,8548572.95,5839167.95,4444843.083105304
2421,Porto,PT,1172360,4498154.1,3325794.0999999996,58,3263302.516710223,1503381.35910978,104271469096.988,3,4,9952116.850000001,6903306.850000001,5063745.284550346
2469,Bucuresti,RO,2025660,10719646.01,8693986.01,151,8495839.31074558,2173870.98351929,220413559495.584,3,5,6585339.65,4968624.65,5935834.750222906
2680,Stockholm,SE,1505350,4091691.4,2586341.4,52,2925719.4977402,4010772.53243187,276952614102.351,4,4.666666666666667,7428418.096666667,5927838.096666667,5645138.261665386
2913,Berlin,DE,3702370,10115456.2,6413086.199999999,129,7258034.907855496,1620808.67661093,122302915219.787,7,6.333333333333333,9064506.711666666,7341738.378333333,7933200.945795543
3000,Coatbridge,UK,1307880,3778200.9899999998,2470320.9899999998,50,2813191.8247501925,2694068.04982181,71299513757.5619,3,4,2637319.65,1525559.65,1969234.2773251347
3013,Great London,UK,9423910,19618616.4,10194706.399999999,161,9058477.675695619,2135571.8428739,53803960483.0511,3,6,14266356.44,7829181.4399999995,7764409.436310531
3014,Greater Manchester,UK,3792250,6725391,2933141,43,2419344.9692851654,922324.127670199,14941891196.1081,5,4.25,5438395.825,3826018.325,3657149.37217525
3280,Prudhoe,UK,1102210,2377398.9,1275188.9,29,1631651.2583551116,680933.940962263,18404357678.9679,4,4,5178313.33,2889023.33,2644400.315265181
3294,West Midlands,UK,2458250,11447596,8989346,142,7989464.782290546,1601133.56023666,54382320033.8857,5,4,8568148.95,4541846.449999999,4121326.0232590316
3296,Glusburn // Steeton,UK,1767740,5031348,3263608,48,2700664.1517601847,708237.061917857,20286566606.3438,4,4.666666666666667,6850128.633333333,4399225.3,4013487.0033102743
3416,Essen // Duisburg // Dortmund // Bochum // Gelsen*,DE,4016900,9643754,5626854,104,5851438.9954804,658492.481602534,24930180110.659,6,5,6268302.9,4315009.566666666,3854072.7999077635
3431,Frankfurt am Main,DE,1719470,12883463.77,11163993.77,242,13615848.431790931,1261690.72008771,95910844973.8066,9,6,8859893.16888889,5755887.613333333,6595371.944692117
3457,Wien,AT,1948570,6901244,4952674,87,4894953.7750653345,1651187.60350284,118185933049.757,6,6.2,8512242.34,6612238.34,7786914.970908533
3505,Hamburg,DE,2058990,7799955.7,5740965.7,103,5795175.158985396,1904140.39173412,70584664514.2762,7,5.833333333333333,8313582.611666666,6160772.611666666,6798546.9098129645
3566,Brussels,BE,4376050,7826038.9,3449988.9000000004,37,2081761.9503151423,822243.145578822,28516257352.149,6,5,8281191.988,4498871.988,4388579.2466103
3597,Koln,DE,1981050,5523732.8,3542682.8,58,3263302.516710223,745542.042544871,27247627361.114,5,6.4,10445522.11,6115144.109999999,6684143.775606457
3713,Munchen,DE,1619760,8925251.1,7305491.1,170,9564852.204150654,1690154.99557845,121457478104.883,6,6.8,9720834.772,7323736.772,8270783.9647655655
