{
"type": "FeatureCollection",
"features": [
{ "type": "Feature", "properties": { "id": 841, "name": "Paris", "country": "FR", "city_pop": 10416100.0, "cell_pop": 84370430.81, "diff_pop": 73954330.81, "n_cities_included": 861.0, "diff_pop_null": 64598035.920639433, "cell_perimeter": 8044907.0971017759, "cell_area": 1063402096724.0137, "cell_nNeighbors": 3.0, "avg_nNeighbors_of_neighbors": 3.0, "avg_cell_pop_of_neighbors": 117774180.015, "avg_diff_pop_of_neighbors": 110863055.015, "avg_diff_pop_of_neighbors_null": 115541202.45968027 }, "geometry": { "type": "MultiPolygon", "coordinates": [ [ [ [ 1818742.0, 984882.0 ], [ 1816703.0, 962897.0 ], [ 1813360.0, 954990.0 ], [ 1806455.0, 950667.0 ], [ 1789607.0, 948959.0 ], [ 1783116.0, 952806.0 ], [ 1774666.0, 965554.0 ], [ 1774188.0, 981312.0 ], [ 1776598.0, 985344.0 ], [ 1789261.0, 989395.0 ], [ 1792238.0, 995763.0 ], [ 1798511.0, 995899.0 ], [ 1813187.0, 985806.0 ], [ 1819449.0, 991452.0 ], [ 1821936.0, 989681.0 ], [ 1818742.0, 984882.0 ] ] ], [ [ [ 1964261.0, 951597.0 ], [ 1932465.0, 950815.0 ], [ 1918837.0, 941666.0 ], [ 1904428.0, 950003.0 ], [ 1904429.0, 952716.0 ], [ 1923491.0, 951876.0 ], [ 1934780.0, 957545.0 ], [ 1938972.0, 968025.0 ], [ 1962037.0, 991047.0 ], [ 1966953.0, 1003169.0 ], [ 1980198.0, 1003754.0 ], [ 1983639.0, 999167.0 ], [ 1981932.0, 984270.0 ], [ 1964261.0, 951597.0 ] ] ], [ [ [ 2030088.0, 1030444.0 ], [ 2027535.0, 1020265.0 ], [ 2019430.0, 1015543.0 ], [ 1999984.0, 1014840.0 ], [ 1992514.0, 1010431.0 ], [ 1984883.0, 1014451.0 ], [ 1995106.0, 1030805.0 ], [ 2017067.0, 1035357.0 ], [ 2023178.0, 1032589.0 ], [ 2030505.0, 1047994.0 ], [ 2035484.0, 1036355.0 ], [ 2030088.0, 1030444.0 ] ] ], [ [ [ 1761418.0, 1056830.0 ], [ 1762742.0, 1049990.0 ], [ 1751198.0, 1048594.0 ], [ 1736333.0, 1041421.0 ], [ 1723391.0, 1019765.0 ], [ 1709134.0, 1010895.0 ], [ 1692844.0, 1014274.0 ], [ 1682693.0, 1057393.0 ], [ 1692698.0, 1058488.0 ], [ 1699438.0, 1053681.0 ], [ 1722170.0, 1050919.0 ], [ 1745925.0, 1061054.0 ], [ 1761418.0, 1056830.0 ] ] ], [ [ [ 1605242.0, 1144569.0 ], [ 1617900.0, 1137744.0 ], [ 1619820.0, 1125646.0 ], [ 1613548.0, 1120396.0 ], [ 1611373.0, 1109290.0 ], [ 1600842.0, 1099690.0 ], [ 1598199.0, 1102218.0 ], [ 1594694.0, 1139034.0 ], [ 1605242.0, 1144569.0 ] ] ], [ [ [ 2932255.0, 1562346.0 ], [ 2929630.0, 1567616.0 ], [ 2933135.0, 1565288.0 ], [ 2932255.0, 1562346.0 ] ] ], [ [ [ 3254193.50271109258756, 2850356.031163315288723 ], [ 3385428.240228284150362, 2909250.873814069200307 ], [ 3388330.0, 2903099.0 ], [ 3415865.0, 2915309.0 ], [ 3425289.0, 2905437.0 ], [ 3449200.0, 2912934.0 ], [ 3452615.0, 2903462.0 ], [ 3464029.0, 2901112.0 ], [ 3482299.0, 2903418.0 ], [ 3474647.0, 2917449.0 ], [ 3477233.89415798522532, 2950450.937493329867721 ], [ 3534437.908598612062633, 2976122.6574449990876 ], [ 3539194.0, 2973495.0 ], [ 3567116.0, 2966889.0 ], [ 3579889.0, 2959383.0 ], [ 3590351.0, 2959853.0 ], [ 3607749.0, 2969219.0 ], [ 3627331.0, 2971270.0 ], [ 3634921.0, 2974257.0 ], [ 3640211.0, 2967746.0 ], [ 3642061.0, 2967376.0 ], [ 3634777.0, 2974522.0 ], [ 3616351.0, 2972955.0 ], [ 3605883.0, 2979198.0 ], [ 3604610.0, 2982596.0 ], [ 3613639.0, 2999526.0 ], [ 3646058.0, 3014382.0 ], [ 3691217.0, 3022136.0 ], [ 3705361.0, 3030982.0 ], [ 3716967.0, 3044130.0 ], [ 3724946.0, 3043644.0 ], [ 3720405.0, 3055701.0 ], [ 3722386.756068417336792, 3060469.363260406535119 ], [ 3722893.031918442808092, 3060696.567102082073689 ], [ 3727769.0, 3060350.0 ], [ 3726251.04699539532885, 3062203.559635594952852 ], [ 4576369.711100248619914, 3443715.390299833845347 ], [ 4576189.0, 3442702.0 ], [ 4570403.0, 3440165.0 ], [ 4577070.0, 3428068.0 ], [ 4578308.0, 3436920.0 ], [ 4584821.0, 3437064.0 ], [ 4585216.0, 3443083.0 ], [ 4589318.358707346953452, 3439877.983945002313703 ], [ 3152987.555334174074233, 1619315.291063825134188 ], [ 3144923.0, 1621046.0 ], [ 3130703.0, 1623134.0 ], [ 3116686.0, 1619846.0 ], [ 3101465.0, 1627884.0 ], [ 3031204.0, 1637580.0 ], [ 3005463.0, 1618968.0 ], [ 2980413.0, 1622971.0 ], [ 2957230.0, 1617724.0 ], [ 2938042.0, 1592777.0 ], [ 2931349.0, 1595160.0 ], [ 2926078.0, 1585923.0 ], [ 2912334.0, 1583037.0 ], [ 2896273.0, 1594168.0 ], [ 2887434.0, 1605851.0 ], [ 2877158.0, 1610396.0 ], [ 2864929.0, 1637954.0 ], [ 2866600.0, 1654671.0 ], [ 2856313.0, 1663933.0 ], [ 2853413.0, 1671237.0 ], [ 2854402.0, 1677015.0 ], [ 2862161.0, 1681572.0 ], [ 2858204.0, 1684086.0 ], [ 2854330.0, 1697161.0 ], [ 2845998.0, 1709323.0 ], [ 2810142.0, 1739087.0 ], [ 2788499.0, 1743423.0 ], [ 2763691.0, 1743525.0 ], [ 2728388.0, 1732031.0 ], [ 2708901.0, 1749382.0 ], [ 2672955.0, 1762023.0 ], [ 2640587.0, 1757938.0 ], [ 2638450.0, 1762678.0 ], [ 2663467.0, 1801242.0 ], [ 2673537.0, 1846032.0 ], [ 2669395.0, 1859388.0 ], [ 2682859.0, 1881736.0 ], [ 2685175.0, 1907123.0 ], [ 2694786.0, 1904734.0 ], [ 2694644.0, 1915722.0 ], [ 2691487.0, 1918613.0 ], [ 2687934.0, 1914700.0 ], [ 2681107.0, 1918765.0 ], [ 2666433.0, 1914600.0 ], [ 2651932.0, 1915895.0 ], [ 2656679.0, 1927097.0 ], [ 2656652.0, 1945285.0 ], [ 2636838.0, 1953512.0 ], [ 2637518.0, 1961616.0 ], [ 2661274.0, 2005932.0 ], [ 2663435.0, 2019912.0 ], [ 2690229.0, 2037155.0 ], [ 2718975.0, 2084387.0 ], [ 2723181.0, 2092937.0 ], [ 2722479.0, 2101456.0 ], [ 2749844.0, 2154464.0 ], [ 2753725.0, 2156198.0 ], [ 2761837.0, 2178697.0 ], [ 2764746.0, 2195490.0 ], [ 2763609.0, 2267842.0 ], [ 2772341.0, 2304717.0 ], [ 2787353.0, 2319088.0 ], [ 2781553.0, 2325571.0 ], [ 2789795.0, 2335160.0 ], [ 2780841.0, 2345187.0 ], [ 2799517.0, 2366661.0 ], [ 2771291.0, 2356962.0 ], [ 2771020.0, 2365381.0 ], [ 2783747.0, 2380644.0 ], [ 2772047.0, 2382446.0 ], [ 2771560.0, 2398382.0 ], [ 2762237.0, 2405958.0 ], [ 2766404.0, 2416635.0 ], [ 2773873.0, 2421430.0 ], [ 2776901.0, 2428206.0 ], [ 2794396.0, 2429759.0 ], [ 2795431.0, 2435518.0 ], [ 2805265.0, 2437834.0 ], [ 2818857.0, 2431717.0 ], [ 2839194.0, 2434474.0 ], [ 2844767.0, 2431532.0 ], [ 2850195.0, 2434421.0 ], [ 2855869.0, 2428128.0 ], [ 2857293.0, 2434554.0 ], [ 2852703.0, 2442923.0 ], [ 2857143.0, 2450951.0 ], [ 2890058.0, 2465754.0 ], [ 2893007.0, 2458149.0 ], [ 2906665.0, 2459936.0 ], [ 2911965.0, 2458938.0 ], [ 2913247.0, 2452540.0 ], [ 2918367.0, 2455899.0 ], [ 2923093.0, 2454513.0 ], [ 2937530.0, 2434501.0 ], [ 2954462.0, 2426795.0 ], [ 2963387.0, 2427885.0 ], [ 3006789.0, 2415739.0 ], [ 3017639.0, 2417137.0 ], [ 3027147.0, 2411943.0 ], [ 3040382.0, 2412139.0 ], [ 3050277.0, 2417151.0 ], [ 3062069.0, 2403327.0 ], [ 3089139.0, 2396020.0 ], [ 3096812.0, 2387991.0 ], [ 3150432.0, 2367562.0 ], [ 3176240.0, 2363717.0 ], [ 3205900.0, 2366431.0 ], [ 3209444.0, 2361132.0 ], [ 3226849.0, 2365334.0 ], [ 3238906.0, 2353945.0 ], [ 3267659.0, 2338874.0 ], [ 3268664.0, 2343591.0 ], [ 3276084.0, 2348230.0 ], [ 3290990.0, 2347774.0 ], [ 3316622.0, 2329179.0 ], [ 3335937.0, 2322765.0 ], [ 3377003.0, 2327004.0 ], [ 3398071.0, 2350932.0 ], [ 3427515.0, 2440388.0 ], [ 3433584.0, 2454472.0 ], [ 3442165.0, 2462050.0 ], [ 3433820.0, 2472325.0 ], [ 3454292.0, 2549265.0 ], [ 3458783.0, 2552104.0 ], [ 3462671.0, 2549649.0 ], [ 3480142.0, 2517897.0 ], [ 3482990.0, 2528821.0 ], [ 3476732.0, 2548563.0 ], [ 3449190.0, 2576055.0 ], [ 3448911.0, 2594455.0 ], [ 3441359.0, 2606578.0 ], [ 3441365.0, 2614906.0 ], [ 3451566.0, 2607248.0 ], [ 3454450.0, 2595830.0 ], [ 3451686.0, 2587012.0 ], [ 3457143.0, 2586896.0 ], [ 3467113.0, 2609272.0 ], [ 3463072.0, 2621525.0 ], [ 3457202.0, 2626313.0 ], [ 3470684.0, 2642070.0 ], [ 3462646.0, 2643191.0 ], [ 3458972.0, 2639023.0 ], [ 3418164.0, 2669935.0 ], [ 3410584.0, 2693924.0 ], [ 3398461.0, 2711766.0 ], [ 3399116.0, 2716821.0 ], [ 3414069.0, 2730768.0 ], [ 3399433.0, 2745590.0 ], [ 3403554.0, 2759028.0 ], [ 3395042.0, 2758135.0 ], [ 3382732.0, 2764095.0 ], [ 3379974.0, 2775712.0 ], [ 3385828.0, 2782799.0 ], [ 3384999.0, 2789344.0 ], [ 3377157.0, 2794451.0 ], [ 3361498.0, 2792140.0 ], [ 3353454.0, 2803177.0 ], [ 3338775.0, 2805594.0 ], [ 3325617.0, 2822749.0 ], [ 3315369.0, 2826308.0 ], [ 3314364.0, 2840217.0 ], [ 3306531.0, 2834357.0 ], [ 3292564.0, 2839342.0 ], [ 3281746.0, 2849695.0 ], [ 3261979.0, 2846047.0 ], [ 3254833.0, 2848152.0 ], [ 3254193.50271109258756, 2850356.031163315288723 ] ], [ [ 3956060.0, 3160631.0 ], [ 3958612.0, 3155704.0 ], [ 3961708.0, 3157615.0 ], [ 3958574.0, 3161253.0 ], [ 3956060.0, 3160631.0 ] ] ] ] } },
{ "type": "Feature", "properties": { "id": 1526, "name": "Milano", "country": "IT", "city_pop": 4398340.0, "cell_pop": 151232582.34, "diff_pop": 146834242.34, "n_cities_included": 2129.0, "diff_pop_null": 159731961.06276578, "cell_perimeter": 24828697.583706722, "cell_area": 2020812881223.0425, "cell_nNeighbors": 3.0, "avg_nNeighbors_of_neighbors": 3.0, "avg_cell_pop_of_neighbors": 84343104.25, "avg_diff_pop_of_neighbors": 74423099.25, "avg_diff_pop_of_neighbors_null": 67974239.888617098 }, "geometry": { "type": "MultiPolygon", "coordinates": [ [ [ [ 4718334.0, 1447655.0 ], [ 4737791.0, 1435524.0 ], [ 4736842.0, 1430486.0 ], [ 4723775.0, 1430420.0 ], [ 4716328.0, 1435468.0 ], [ 4715251.0, 1447229.0 ], [ 4718334.0, 1447655.0 ] ] ], [ [ [ 5582328.0, 1500184.0 ], [ 5594758.0, 1501063.0 ], [ 5607884.0, 1509859.0 ], [ 5611157.0, 1505645.0 ], [ 5609507.0, 1499642.0 ], [ 5617582.0, 1497819.0 ], [ 5627380.0, 1488246.0 ], [ 5647711.0, 1494619.0 ], [ 5659336.0, 1502195.0 ], [ 5687856.0, 1507344.0 ], [ 5695583.0, 1500202.0 ], [ 5722102.0, 1504768.0 ], [ 5733951.0, 1502942.0 ], [ 5746575.0, 1510237.0 ], [ 5754993.0, 1511011.0 ], [ 5757867.0, 1492080.0 ], [ 5764352.0, 1489369.0 ], [ 5785651.0, 1505578.0 ], [ 5795781.0, 1505275.0 ], [ 5802336.0, 1513571.0 ], [ 5807922.0, 1506842.0 ], [ 5807149.0, 1494482.0 ], [ 5800443.0, 1484854.0 ], [ 5780008.0, 1482631.0 ], [ 5675712.0, 1449736.0 ], [ 5668626.0, 1466863.0 ], [ 5654491.0, 1465458.0 ], [ 5636050.0, 1471593.0 ], [ 5627846.0, 1468434.0 ], [ 5565064.0, 1464616.0 ], [ 5558591.0, 1469002.0 ], [ 5558231.0, 1496289.0 ], [ 5568365.0, 1496572.0 ], [ 5570158.0, 1512251.0 ], [ 5582328.0, 1500184.0 ] ] ], [ [ [ 6342717.0, 1629586.0 ], [ 6343493.0, 1633059.0 ], [ 6351494.0, 1630160.0 ], [ 6356931.0, 1632100.0 ], [ 6363928.0, 1647324.0 ], [ 6374532.0, 1653533.0 ], [ 6388872.0, 1653394.0 ], [ 6393151.0, 1657824.0 ], [ 6392059.0, 1681912.0 ], [ 6427563.0, 1687358.0 ], [ 6455485.0, 1699228.0 ], [ 6479974.0, 1716700.0 ], [ 6497864.0, 1736067.0 ], [ 6512466.0, 1743118.0 ], [ 6481798.0, 1696612.0 ], [ 6484104.0, 1685687.0 ], [ 6500341.0, 1668944.0 ], [ 6470130.0, 1657078.0 ], [ 6464430.0, 1638792.0 ], [ 6445372.0, 1622294.0 ], [ 6423191.0, 1609709.0 ], [ 6419280.0, 1595957.0 ], [ 6406195.0, 1601848.0 ], [ 6392342.0, 1596120.0 ], [ 6363121.0, 1601183.0 ], [ 6352265.0, 1612146.0 ], [ 6342717.0, 1629586.0 ] ] ], [ [ [ 5949035.0, 1641719.0 ], [ 5947608.0, 1636532.0 ], [ 5942990.0, 1637177.0 ], [ 5937746.0, 1632484.0 ], [ 5927217.0, 1612354.0 ], [ 5919367.0, 1616231.0 ], [ 5919327.0, 1633694.0 ], [ 5912617.0, 1638629.0 ], [ 5917827.0, 1643755.0 ], [ 5919603.0, 1653452.0 ], [ 5951602.0, 1682291.0 ], [ 5955431.0, 1675313.0 ], [ 5950575.0, 1651570.0 ], [ 5947433.0, 1649529.0 ], [ 5946448.0, 1641363.0 ], [ 5949035.0, 1641719.0 ] ] ], [ [ [ 5754962.0, 1927250.0 ], [ 5739005.0, 1917754.0 ], [ 5718114.0, 1918686.0 ], [ 5713079.0, 1923143.0 ], [ 5696329.0, 1926502.0 ], [ 5686528.0, 1933964.0 ], [ 5688906.0, 1941469.0 ], [ 5707815.0, 1950204.0 ], [ 5712102.0, 1957838.0 ], [ 5725749.0, 1961154.0 ], [ 5731558.0, 1957702.0 ], [ 5730705.0, 1950637.0 ], [ 5745556.0, 1941696.0 ], [ 5754962.0, 1927250.0 ] ] ], [ [ [ 4278533.0, 2191926.0 ], [ 4276545.0, 2173921.0 ], [ 4281963.0, 2159505.0 ], [ 4283104.0, 2113497.0 ], [ 4273151.0, 2093942.0 ], [ 4266260.0, 2052536.0 ], [ 4253144.0, 2030389.0 ], [ 4220289.0, 2053342.0 ], [ 4219961.0, 2058359.0 ], [ 4227482.0, 2065526.0 ], [ 4212749.0, 2072221.0 ], [ 4220359.0, 2089666.0 ], [ 4217523.0, 2092193.0 ], [ 4206649.0, 2090305.0 ], [ 4205145.0, 2096589.0 ], [ 4215802.0, 2106106.0 ], [ 4212544.0, 2111884.0 ], [ 4204131.0, 2116247.0 ], [ 4203475.0, 2126671.0 ], [ 4211573.0, 2130700.0 ], [ 4206053.0, 2138587.0 ], [ 4202205.0, 2138904.0 ], [ 4212210.0, 2157224.0 ], [ 4223510.0, 2166576.0 ], [ 4240273.0, 2171840.0 ], [ 4250469.0, 2180559.0 ], [ 4264442.0, 2177586.0 ], [ 4267712.0, 2207211.0 ], [ 4274384.0, 2209658.0 ], [ 4278533.0, 2191926.0 ] ] ], [ [ [ 4946488.0, 2229853.0 ], [ 4950918.0, 2233238.0 ], [ 4960098.0, 2232740.0 ], [ 4968779.0, 2222958.0 ], [ 4995540.0, 2205662.0 ], [ 5007890.0, 2205349.0 ], [ 5023279.0, 2185928.0 ], [ 5001071.0, 2196531.0 ], [ 4996503.0, 2203896.0 ], [ 4984188.0, 2206941.0 ], [ 4961901.0, 2221177.0 ], [ 4955256.0, 2219822.0 ], [ 4934793.0, 2224711.0 ], [ 4912206.0, 2235143.0 ], [ 4907429.0, 2235291.0 ], [ 4904929.0, 2228113.0 ], [ 4876524.0, 2224002.0 ], [ 4864914.0, 2226545.0 ], [ 4867315.0, 2233190.0 ], [ 4881166.0, 2231514.0 ], [ 4896125.0, 2235363.0 ], [ 4895744.0, 2240055.0 ], [ 4911732.0, 2240387.0 ], [ 4946488.0, 2229853.0 ] ] ], [ [ [ 4657537.0, 1966000.0 ], [ 4647750.0, 1965297.0 ], [ 4648436.0, 1970599.0 ], [ 4656345.0, 1969256.0 ], [ 4657537.0, 1966000.0 ] ] ], [ [ [ 5647603.0, 1721962.0 ], [ 5640154.0, 1716426.0 ], [ 5637534.0, 1719424.0 ], [ 5639109.0, 1731354.0 ], [ 5643524.0, 1730850.0 ], [ 5647603.0, 1721962.0 ] ] ], [ [ [ 3586571.0, 1821548.0 ], [ 3590832.0, 1818906.0 ], [ 3591258.0, 1811457.0 ], [ 3583437.0, 1803171.0 ], [ 3574057.0, 1799625.0 ], [ 3571659.0, 1792201.0 ], [ 3566889.0, 1796659.0 ], [ 3558475.0, 1796247.0 ], [ 3556887.0, 1807533.0 ], [ 3563292.0, 1808426.0 ], [ 3564221.0, 1814472.0 ], [ 3586571.0, 1821548.0 ] ] ], [ [ [ 5718030.0, 1870770.0 ], [ 5727507.0, 1867488.0 ], [ 5731614.0, 1842168.0 ], [ 5729030.0, 1830323.0 ], [ 5724039.0, 1827560.0 ], [ 5722811.0, 1821991.0 ], [ 5708353.0, 1829543.0 ], [ 5714824.0, 1836588.0 ], [ 5715992.0, 1847436.0 ], [ 5699337.0, 1861321.0 ], [ 5700271.0, 1864990.0 ], [ 5718030.0, 1870770.0 ] ] ], [ [ [ 3735554.0, 1877908.0 ], [ 3740303.0, 1874996.0 ], [ 3749606.0, 1878914.0 ], [ 3756955.0, 1874405.0 ], [ 3757259.0, 1867951.0 ], [ 3736045.0, 1835599.0 ], [ 3718861.0, 1825650.0 ], [ 3710991.0, 1835173.0 ], [ 3695852.0, 1840165.0 ], [ 3690284.0, 1858385.0 ], [ 3681986.0, 1858753.0 ], [ 3673607.0, 1852592.0 ], [ 3662541.0, 1865028.0 ], [ 3698469.0, 1890320.0 ], [ 3715398.0, 1896682.0 ], [ 3728834.0, 1896584.0 ], [ 3732786.0, 1889083.0 ], [ 3731330.0, 1882254.0 ], [ 3735554.0, 1877908.0 ] ] ], [ [ [ 4813435.0, 1705139.0 ], [ 4805656.0, 1683727.0 ], [ 4783937.0, 1646751.0 ], [ 4780799.0, 1626997.0 ], [ 4774456.0, 1616445.0 ], [ 4775275.0, 1602135.0 ], [ 4777903.0, 1596984.0 ], [ 4788079.0, 1593186.0 ], [ 4785386.0, 1584369.0 ], [ 4794978.0, 1574504.0 ], [ 4797718.0, 1566272.0 ], [ 4785094.0, 1555003.0 ], [ 4780390.0, 1545404.0 ], [ 4782543.0, 1527474.0 ], [ 4778832.0, 1525265.0 ], [ 4771338.0, 1529624.0 ], [ 4745380.0, 1529872.0 ], [ 4725515.0, 1536510.0 ], [ 4710072.0, 1558883.0 ], [ 4696804.0, 1567017.0 ], [ 4670375.0, 1567566.0 ], [ 4656534.0, 1572978.0 ], [ 4638691.0, 1585833.0 ], [ 4629399.0, 1587329.0 ], [ 4603010.0, 1607317.0 ], [ 4590639.0, 1608251.0 ], [ 4578760.0, 1616091.0 ], [ 4560417.0, 1614030.0 ], [ 4541377.0, 1628262.0 ], [ 4537162.0, 1638527.0 ], [ 4543029.0, 1663531.0 ], [ 4560887.0, 1675321.0 ], [ 4563426.0, 1681564.0 ], [ 4574631.0, 1666984.0 ], [ 4584163.0, 1667360.0 ], [ 4591722.0, 1672940.0 ], [ 4594764.0, 1683524.0 ], [ 4603609.0, 1683109.0 ], [ 4613027.0, 1687887.0 ], [ 4620139.0, 1676787.0 ], [ 4632570.0, 1676486.0 ], [ 4636273.0, 1669629.0 ], [ 4650737.0, 1663238.0 ], [ 4674298.0, 1670969.0 ], [ 4719097.0, 1674302.0 ], [ 4730080.0, 1678739.0 ], [ 4740071.0, 1687974.0 ], [ 4750924.0, 1691001.0 ], [ 4771237.0, 1687996.0 ], [ 4805355.0, 1706238.0 ], [ 4813435.0, 1705139.0 ] ] ], [ [ [ 5864409.0, 1707732.0 ], [ 5846826.0, 1692321.0 ], [ 5840100.0, 1691188.0 ], [ 5836291.0, 1681992.0 ], [ 5832730.0, 1683234.0 ], [ 5831867.0, 1688108.0 ], [ 5847232.0, 1705143.0 ], [ 5857943.0, 1711257.0 ], [ 5864409.0, 1707732.0 ] ] ], [ [ [ 4292835.0, 1973770.0 ], [ 4305415.0, 1934707.0 ], [ 4289051.0, 1903388.0 ], [ 4297425.0, 1886304.0 ], [ 4283463.0, 1785782.0 ], [ 4279448.0, 1781873.0 ], [ 4271365.0, 1782774.0 ], [ 4254926.0, 1793045.0 ], [ 4240175.0, 1790079.0 ], [ 4235311.0, 1782904.0 ], [ 4234945.0, 1768120.0 ], [ 4221422.0, 1756133.0 ], [ 4209830.0, 1761159.0 ], [ 4201702.0, 1757667.0 ], [ 4192606.0, 1775287.0 ], [ 4188638.0, 1775578.0 ], [ 4183506.0, 1765795.0 ], [ 4178546.0, 1773206.0 ], [ 4178789.0, 1778939.0 ], [ 4186790.0, 1779685.0 ], [ 4181028.0, 1792168.0 ], [ 4183734.0, 1800555.0 ], [ 4181882.0, 1818822.0 ], [ 4187852.0, 1833796.0 ], [ 4188078.0, 1849153.0 ], [ 4191866.0, 1848045.0 ], [ 4195936.0, 1865477.0 ], [ 4192281.0, 1869087.0 ], [ 4185796.0, 1867244.0 ], [ 4183362.0, 1872033.0 ], [ 4184889.0, 1883243.0 ], [ 4191058.0, 1889897.0 ], [ 4190749.0, 1910818.0 ], [ 4183755.0, 1917857.0 ], [ 4184513.0, 1924933.0 ], [ 4175964.0, 1944470.0 ], [ 4163775.0, 1946666.0 ], [ 4167729.0, 1954849.0 ], [ 4163704.0, 1961458.0 ], [ 4169886.0, 1976816.0 ], [ 4168093.0, 1985398.0 ], [ 4170735.0, 1985946.0 ], [ 4178059.0, 1973994.0 ], [ 4191171.0, 1970665.0 ], [ 4219713.0, 1982155.0 ], [ 4236973.0, 2001683.0 ], [ 4246831.0, 2005977.0 ], [ 4251619.0, 2014645.0 ], [ 4256092.0, 2015978.0 ], [ 4273715.0, 2004018.0 ], [ 4282118.0, 2002979.0 ], [ 4286038.0, 1981491.0 ], [ 4292835.0, 1973770.0 ] ] ], [ [ [ 5169352.0, 1911572.0 ], [ 5175757.0, 1908949.0 ], [ 5167285.0, 1900551.0 ], [ 5169709.0, 1894462.0 ], [ 5175286.0, 1892189.0 ], [ 5178367.0, 1876464.0 ], [ 5186898.0, 1873519.0 ], [ 5189821.0, 1876268.0 ], [ 5194709.0, 1866385.0 ], [ 5172809.0, 1873816.0 ], [ 5169641.0, 1883520.0 ], [ 5157605.0, 1895877.0 ], [ 5153201.0, 1896315.0 ], [ 5148935.0, 1903521.0 ], [ 5151555.0, 1908587.0 ], [ 5162085.0, 1909583.0 ], [ 5166277.0, 1913358.0 ], [ 5169352.0, 1911572.0 ] ] ], [ [ [ 3152987.555334174074233, 1619315.291063825134188 ], [ 4589318.358707346953452, 3439877.983945002313703 ], [ 4598483.0, 3432718.0 ], [ 4609066.0, 3432476.0 ], [ 4631540.0, 3445353.0 ], [ 4632536.0, 3441184.0 ], [ 4638534.0, 3448242.0 ], [ 4719198.0, 3480972.0 ], [ 4742080.0, 3510617.0 ], [ 4766332.0, 3520192.0 ], [ 4788041.0, 3537670.0 ], [ 4832234.0, 3553206.0 ], [ 4855102.0, 3555937.0 ], [ 4860547.0, 3552581.0 ], [ 4874653.0, 3518207.0 ], [ 4888291.0, 3508695.0 ], [ 4927461.0, 3513327.0 ], [ 4944827.0, 3524736.0 ], [ 4921876.0, 3509308.0 ], [ 4922207.0, 3502101.0 ], [ 4931859.0, 3502301.0 ], [ 4947178.0, 3513836.0 ], [ 4954962.0, 3524884.0 ], [ 5069608.0, 3528478.0 ], [ 5147704.0, 3546424.0 ], [ 5139844.0, 3557611.0 ], [ 5137127.0, 3570020.0 ], [ 5137888.0, 3586151.0 ], [ 5143863.0, 3597298.0 ], [ 5139445.0, 3605955.0 ], [ 5125349.0, 3612753.0 ], [ 5120797.0, 3621729.0 ], [ 5089722.0, 3611667.0 ], [ 5085221.0, 3616326.0 ], [ 5049734.0, 3623778.0 ], [ 5041090.0, 3632695.0 ], [ 5034954.0, 3627178.0 ], [ 5022775.0, 3661919.0 ], [ 5017585.0, 3640408.0 ], [ 5017481.0, 3665720.0 ], [ 5007411.0, 3715790.0 ], [ 5000003.0, 3731861.0 ], [ 4994951.0, 3765279.0 ], [ 4993801.0, 3799656.0 ], [ 5006474.74994430039078, 3819547.387461134698242 ], [ 5084901.655595692805946, 3890111.813099726568907 ], [ 5096098.0, 3882249.0 ], [ 5106040.0, 3878987.0 ], [ 5124288.0, 3848262.0 ], [ 5144458.0, 3841259.0 ], [ 5162340.0, 3849279.0 ], [ 5182168.0, 3875262.0 ], [ 5184332.0, 3883373.0 ], [ 5167150.0, 3949299.0 ], [ 5167064.820128640159965, 3964037.928962153848261 ], [ 5328162.367885089479387, 4108985.072226342745125 ], [ 5314985.0, 4087161.0 ], [ 5336948.0, 4045987.0 ], [ 5337696.0, 4030579.0 ], [ 5349455.0, 4016403.0 ], [ 5351570.0, 4007861.0 ], [ 5356728.0, 4006361.0 ], [ 5356710.0, 4000105.0 ], [ 5365487.0, 3996773.0 ], [ 5366384.0, 3992744.0 ], [ 5353222.0, 3986077.0 ], [ 5354522.0, 3974243.0 ], [ 5348030.0, 3967512.0 ], [ 5347387.0, 3955421.0 ], [ 5350178.0, 3949791.0 ], [ 5360937.0, 3954355.0 ], [ 5363263.0, 3942390.0 ], [ 5384675.0, 3934417.0 ], [ 5387136.0, 3930392.0 ], [ 5385788.0, 3901324.0 ], [ 5389102.0, 3896722.0 ], [ 5387420.0, 3881647.0 ], [ 5397068.0, 3887125.0 ], [ 5405535.0, 3883928.0 ], [ 5404723.0, 3874642.0 ], [ 5416837.0, 3860606.0 ], [ 5422424.0, 3858921.0 ], [ 5423003.0, 3852135.0 ], [ 5429486.0, 3845957.0 ], [ 5436593.0, 3830289.0 ], [ 5435586.0, 3815983.0 ], [ 5426637.0, 3807415.0 ], [ 5412622.0, 3782432.0 ], [ 5413090.0, 3766332.0 ], [ 5392199.0, 3761451.0 ], [ 5382685.0, 3765338.0 ], [ 5374804.0, 3759879.0 ], [ 5366078.0, 3742768.0 ], [ 5358881.0, 3743330.0 ], [ 5356924.0, 3740091.0 ], [ 5357795.0, 3702846.0 ], [ 5376729.0, 3700882.0 ], [ 5371431.0, 3683595.0 ], [ 5349540.0, 3673687.0 ], [ 5347675.0, 3660079.0 ], [ 5330093.0, 3647490.0 ], [ 5325714.0, 3637423.0 ], [ 5330149.0, 3608155.0 ], [ 5324741.0, 3579473.0 ], [ 5336015.0, 3574895.0 ], [ 5342082.0, 3562742.0 ], [ 5334572.0, 3557803.0 ], [ 5328014.0, 3558852.0 ], [ 5326172.0, 3569300.0 ], [ 5319898.0, 3573353.0 ], [ 5305499.0, 3564624.0 ], [ 5297409.0, 3550320.0 ], [ 5289758.0, 3551713.0 ], [ 5282724.0, 3548285.0 ], [ 5280917.0, 3543301.0 ], [ 5284734.0, 3533402.0 ], [ 5278985.0, 3526564.0 ], [ 5276814.0, 3530713.0 ], [ 5272250.0, 3529745.0 ], [ 5261793.0, 3516060.0 ], [ 5256521.0, 3514901.0 ], [ 5245687.0, 3519572.0 ], [ 5234595.0, 3513366.0 ], [ 5228082.0, 3515971.0 ], [ 5222328.0, 3512790.0 ], [ 5221254.0, 3508232.0 ], [ 5202339.0, 3510354.0 ], [ 5212597.0, 3482700.0 ], [ 5235369.0, 3439215.0 ], [ 5244568.0, 3428162.0 ], [ 5255224.0, 3378137.0 ], [ 5246898.0, 3367214.0 ], [ 5228572.0, 3355312.0 ], [ 5214671.0, 3322723.0 ], [ 5218692.0, 3317007.0 ], [ 5236765.0, 3314317.0 ], [ 5250646.0, 3305106.0 ], [ 5254296.0, 3296730.0 ], [ 5251640.0, 3289626.0 ], [ 5255172.0, 3274642.0 ], [ 5250222.0, 3267284.0 ], [ 5253164.0, 3253160.0 ], [ 5267063.0, 3232953.0 ], [ 5266200.0, 3221635.0 ], [ 5283368.0, 3207477.0 ], [ 5297039.0, 3186088.0 ], [ 5308052.0, 3179502.0 ], [ 5298829.0, 3170439.0 ], [ 5307251.0, 3161609.0 ], [ 5312140.0, 3147538.0 ], [ 5309270.0, 3129251.0 ], [ 5290969.0, 3121312.0 ], [ 5265376.0, 3083490.0 ], [ 5233493.0, 3019106.0 ], [ 5231871.0, 3013217.0 ], [ 5241569.0, 2996750.0 ], [ 5243599.0, 2976438.0 ], [ 5256243.0, 2969005.0 ], [ 5257905.0, 2960214.0 ], [ 5234033.0, 2964367.0 ], [ 5224941.0, 2937247.0 ], [ 5224871.0, 2918224.0 ], [ 5214527.0, 2902778.0 ], [ 5216710.0, 2884027.0 ], [ 5223335.0, 2886111.0 ], [ 5234619.0, 2870318.0 ], [ 5244876.0, 2870305.0 ], [ 5255158.0, 2857056.0 ], [ 5270707.0, 2860158.0 ], [ 5279162.0, 2843993.0 ], [ 5281150.0, 2850776.0 ], [ 5291126.0, 2852562.0 ], [ 5296551.0, 2864693.0 ], [ 5322717.0, 2853436.0 ], [ 5324801.0, 2858778.0 ], [ 5342368.0, 2859882.0 ], [ 5349652.0, 2855968.0 ], [ 5360427.0, 2860224.0 ], [ 5378252.0, 2856514.0 ], [ 5391373.0, 2866307.0 ], [ 5402971.0, 2868128.0 ], [ 5412947.0, 2857719.0 ], [ 5422290.0, 2856115.0 ], [ 5429777.0, 2847612.0 ], [ 5434197.0, 2848155.0 ], [ 5445159.0, 2853015.0 ], [ 5452202.0, 2869883.0 ], [ 5457430.0, 2874028.0 ], [ 5512617.0, 2893427.0 ], [ 5518461.0, 2897651.0 ], [ 5525707.0, 2920212.0 ], [ 5539639.0, 2926665.0 ], [ 5544404.0, 2932763.0 ], [ 5557040.0, 2934515.0 ], [ 5575778.0, 2924346.0 ], [ 5588683.0, 2912019.0 ], [ 5604003.0, 2889217.0 ], [ 5605147.0, 2882332.0 ], [ 5624934.0, 2863761.0 ], [ 5630957.0, 2862330.0 ], [ 5641243.0, 2846905.0 ], [ 5649101.0, 2845626.0 ], [ 5658106.0, 2832171.0 ], [ 5682286.0, 2819296.0 ], [ 5688175.0, 2804407.0 ], [ 5702193.0, 2787541.0 ], [ 5708920.0, 2764202.0 ], [ 5703888.0, 2740055.0 ], [ 5708046.0, 2714647.0 ], [ 5722014.0, 2681355.0 ], [ 5719291.0, 2670297.0 ], [ 5731143.0, 2657535.0 ], [ 5746298.0, 2644259.0 ], [ 5775267.0, 2641275.0 ], [ 5779761.0, 2644085.0 ], [ 5777864.0, 2648471.0 ], [ 5780863.0, 2654035.0 ], [ 5790529.0, 2652415.0 ], [ 5809433.0, 2673193.0 ], [ 5823827.0, 2678281.0 ], [ 5841255.0, 2673519.0 ], [ 5850643.0, 2652131.0 ], [ 5852353.0, 2615107.0 ], [ 5817339.0, 2597672.0 ], [ 5793479.0, 2539358.0 ], [ 5803857.0, 2506014.0 ], [ 5803878.0, 2477397.0 ], [ 5810974.0, 2454517.0 ], [ 5804788.0, 2436583.0 ], [ 5791595.0, 2437143.0 ], [ 5779019.0, 2432399.0 ], [ 5773956.0, 2421445.0 ], [ 5767231.0, 2405068.0 ], [ 5772510.0, 2353394.0 ], [ 5761373.0, 2342796.0 ], [ 5749091.0, 2318535.0 ], [ 5767527.0, 2315945.0 ], [ 5776394.0, 2308178.0 ], [ 5779446.0, 2297626.0 ], [ 5804913.0, 2276443.0 ], [ 5790900.0, 2274637.0 ], [ 5786927.0, 2269428.0 ], [ 5778373.0, 2268324.0 ], [ 5767578.0, 2260341.0 ], [ 5741884.0, 2273646.0 ], [ 5723795.0, 2269103.0 ], [ 5716920.0, 2257473.0 ], [ 5700704.0, 2249316.0 ], [ 5691545.0, 2248516.0 ], [ 5687247.0, 2242311.0 ], [ 5687391.0, 2231477.0 ], [ 5673742.0, 2225809.0 ], [ 5675519.0, 2215229.0 ], [ 5696942.0, 2207428.0 ], [ 5705408.0, 2181774.0 ], [ 5683957.0, 2164550.0 ], [ 5691070.0, 2132062.0 ], [ 5683773.0, 2123390.0 ], [ 5677076.0, 2106610.0 ], [ 5670221.0, 2102712.0 ], [ 5668250.0, 2108418.0 ], [ 5661291.0, 2112777.0 ], [ 5627464.0, 2108694.0 ], [ 5607665.0, 2113327.0 ], [ 5594501.0, 2110992.0 ], [ 5590945.0, 2115570.0 ], [ 5584199.0, 2114777.0 ], [ 5566631.0, 2095682.0 ], [ 5551416.0, 2093615.0 ], [ 5543157.0, 2101050.0 ], [ 5537939.0, 2100805.0 ], [ 5530841.0, 2096758.0 ], [ 5524443.0, 2082734.0 ], [ 5513269.0, 2071975.0 ], [ 5505304.0, 2068356.0 ], [ 5489626.0, 2071908.0 ], [ 5481467.0, 2068050.0 ], [ 5477392.0, 2059300.0 ], [ 5494835.0, 2046188.0 ], [ 5492381.0, 2040285.0 ], [ 5495694.0, 2033331.0 ], [ 5501395.0, 2030550.0 ], [ 5510575.0, 2033474.0 ], [ 5529548.0, 2025944.0 ], [ 5543994.0, 2010834.0 ], [ 5538069.0, 2008187.0 ], [ 5522283.0, 2021572.0 ], [ 5504186.0, 2025965.0 ], [ 5501498.0, 2021887.0 ], [ 5496268.0, 2026583.0 ], [ 5486075.0, 2022463.0 ], [ 5484455.0, 2017957.0 ], [ 5493514.0, 2006958.0 ], [ 5511521.0, 2000883.0 ], [ 5516000.0, 1990362.0 ], [ 5511832.0, 1982245.0 ], [ 5498484.0, 1989111.0 ], [ 5492611.0, 1999139.0 ], [ 5482336.0, 2007260.0 ], [ 5461150.0, 2009942.0 ], [ 5453970.0, 2002438.0 ], [ 5415922.0, 2014039.0 ], [ 5407656.0, 2024354.0 ], [ 5418348.0, 2031270.0 ], [ 5414375.0, 2041808.0 ], [ 5407695.0, 2040339.0 ], [ 5407181.0, 2035662.0 ], [ 5389158.0, 2018399.0 ], [ 5395381.0, 2007540.0 ], [ 5390857.0, 1982750.0 ], [ 5395414.0, 1971026.0 ], [ 5421462.0, 1948432.0 ], [ 5430523.0, 1929121.0 ], [ 5447953.0, 1919278.0 ], [ 5472847.0, 1891765.0 ], [ 5470431.0, 1884638.0 ], [ 5454198.0, 1876499.0 ], [ 5452444.0, 1881750.0 ], [ 5457604.0, 1880176.0 ], [ 5461916.0, 1886262.0 ], [ 5455978.0, 1896807.0 ], [ 5440341.0, 1901636.0 ], [ 5429248.0, 1891985.0 ], [ 5431086.0, 1883323.0 ], [ 5443600.0, 1875018.0 ], [ 5449374.0, 1865080.0 ], [ 5446474.0, 1858557.0 ], [ 5430604.0, 1848156.0 ], [ 5416618.0, 1847276.0 ], [ 5413763.0, 1843748.0 ], [ 5432143.0, 1838081.0 ], [ 5455272.0, 1837295.0 ], [ 5462723.0, 1827783.0 ], [ 5470874.0, 1831467.0 ], [ 5481762.0, 1828893.0 ], [ 5486908.0, 1818148.0 ], [ 5484777.0, 1814967.0 ], [ 5506139.0, 1817030.0 ], [ 5508675.0, 1822152.0 ], [ 5504654.0, 1826937.0 ], [ 5468151.0, 1848299.0 ], [ 5452524.0, 1850408.0 ], [ 5443783.0, 1846194.0 ], [ 5440933.0, 1848747.0 ], [ 5459226.0, 1866168.0 ], [ 5473239.0, 1871726.0 ], [ 5500320.0, 1849809.0 ], [ 5527627.0, 1842770.0 ], [ 5548270.0, 1844289.0 ], [ 5559757.0, 1831483.0 ], [ 5561671.0, 1816802.0 ], [ 5570855.0, 1799487.0 ], [ 5579634.0, 1794762.0 ], [ 5597959.0, 1794962.0 ], [ 5600027.0, 1781344.0 ], [ 5596078.0, 1774192.0 ], [ 5590343.0, 1777772.0 ], [ 5583166.0, 1774229.0 ], [ 5575926.0, 1783493.0 ], [ 5568613.0, 1784282.0 ], [ 5563063.0, 1797659.0 ], [ 5546922.0, 1814487.0 ], [ 5515008.0, 1809629.0 ], [ 5515660.0, 1803759.0 ], [ 5542221.0, 1800866.0 ], [ 5553448.0, 1793555.0 ], [ 5549330.0, 1781448.0 ], [ 5562719.0, 1746636.0 ], [ 5560640.0, 1734867.0 ], [ 5553496.0, 1733386.0 ], [ 5545896.0, 1744282.0 ], [ 5532122.0, 1750830.0 ], [ 5524357.0, 1759295.0 ], [ 5515298.0, 1759155.0 ], [ 5505699.0, 1748898.0 ], [ 5502711.0, 1749785.0 ], [ 5501938.0, 1752690.0 ], [ 5506604.0, 1755615.0 ], [ 5504425.0, 1759323.0 ], [ 5516523.0, 1766109.0 ], [ 5509590.0, 1767857.0 ], [ 5498203.0, 1758628.0 ], [ 5467733.0, 1744831.0 ], [ 5469441.0, 1739975.0 ], [ 5482035.0, 1736332.0 ], [ 5479887.0, 1727657.0 ], [ 5483940.0, 1726418.0 ], [ 5485533.0, 1717172.0 ], [ 5489168.0, 1714339.0 ], [ 5501149.0, 1710208.0 ], [ 5500798.0, 1718779.0 ], [ 5503520.0, 1720206.0 ], [ 5507957.0, 1709659.0 ], [ 5516890.0, 1710593.0 ], [ 5515252.0, 1707006.0 ], [ 5518460.0, 1701658.0 ], [ 5499832.0, 1693401.0 ], [ 5489703.0, 1682899.0 ], [ 5483452.0, 1687244.0 ], [ 5479876.0, 1697219.0 ], [ 5450599.0, 1703158.0 ], [ 5455022.0, 1685287.0 ], [ 5479066.0, 1651168.0 ], [ 5491394.0, 1626740.0 ], [ 5491512.0, 1608255.0 ], [ 5505114.0, 1588941.0 ], [ 5486393.0, 1592367.0 ], [ 5465140.0, 1619227.0 ], [ 5458541.0, 1620380.0 ], [ 5447410.0, 1613171.0 ], [ 5442806.0, 1592529.0 ], [ 5444473.0, 1574775.0 ], [ 5434087.0, 1581839.0 ], [ 5429606.0, 1602553.0 ], [ 5417065.0, 1620221.0 ], [ 5407145.0, 1625063.0 ], [ 5403073.0, 1634852.0 ], [ 5389615.0, 1629223.0 ], [ 5391481.0, 1608343.0 ], [ 5388679.0, 1602858.0 ], [ 5374938.0, 1607107.0 ], [ 5370103.0, 1601097.0 ], [ 5366624.0, 1621028.0 ], [ 5353892.0, 1637505.0 ], [ 5353494.0, 1645749.0 ], [ 5360690.0, 1660332.0 ], [ 5359181.0, 1668490.0 ], [ 5344848.0, 1685820.0 ], [ 5324210.0, 1695157.0 ], [ 5317111.0, 1707348.0 ], [ 5302978.0, 1714299.0 ], [ 5303645.0, 1721308.0 ], [ 5313387.0, 1729215.0 ], [ 5319575.0, 1743336.0 ], [ 5320590.0, 1755004.0 ], [ 5342184.0, 1752005.0 ], [ 5348192.0, 1757686.0 ], [ 5352820.0, 1770328.0 ], [ 5360050.0, 1775131.0 ], [ 5372309.0, 1775320.0 ], [ 5392500.0, 1764384.0 ], [ 5431749.0, 1758030.0 ], [ 5454234.0, 1747383.0 ], [ 5461017.0, 1750949.0 ], [ 5455428.0, 1756368.0 ], [ 5456389.0, 1759993.0 ], [ 5474074.0, 1763692.0 ], [ 5480797.0, 1769607.0 ], [ 5478626.0, 1775518.0 ], [ 5462824.0, 1777954.0 ], [ 5454718.0, 1775132.0 ], [ 5442912.0, 1778531.0 ], [ 5429541.0, 1790318.0 ], [ 5424908.0, 1788694.0 ], [ 5421742.0, 1780420.0 ], [ 5406796.0, 1794680.0 ], [ 5404161.0, 1783591.0 ], [ 5388199.0, 1779539.0 ], [ 5377939.0, 1784100.0 ], [ 5367134.0, 1784007.0 ], [ 5355087.0, 1779835.0 ], [ 5351394.0, 1774307.0 ], [ 5339704.0, 1774315.0 ], [ 5329651.0, 1767338.0 ], [ 5325819.0, 1772795.0 ], [ 5314751.0, 1776115.0 ], [ 5308271.0, 1766108.0 ], [ 5302480.0, 1763002.0 ], [ 5297541.0, 1764899.0 ], [ 5290901.0, 1783767.0 ], [ 5284154.0, 1787548.0 ], [ 5280173.0, 1798427.0 ], [ 5272773.0, 1802592.0 ], [ 5267845.0, 1810669.0 ], [ 5259371.0, 1809560.0 ], [ 5256235.0, 1814806.0 ], [ 5258915.0, 1827327.0 ], [ 5272598.0, 1830078.0 ], [ 5282619.0, 1825250.0 ], [ 5290993.0, 1827205.0 ], [ 5289483.0, 1837511.0 ], [ 5284757.0, 1843548.0 ], [ 5278321.0, 1838546.0 ], [ 5267697.0, 1843549.0 ], [ 5257875.0, 1842476.0 ], [ 5255198.0, 1836565.0 ], [ 5257522.0, 1832404.0 ], [ 5253892.0, 1828900.0 ], [ 5248519.0, 1839828.0 ], [ 5227893.0, 1854682.0 ], [ 5227287.0, 1860860.0 ], [ 5211517.0, 1863252.0 ], [ 5203670.0, 1875204.0 ], [ 5204551.0, 1883460.0 ], [ 5196369.0, 1886170.0 ], [ 5196173.0, 1895718.0 ], [ 5181493.0, 1901093.0 ], [ 5200044.0, 1898808.0 ], [ 5207213.0, 1908578.0 ], [ 5204902.0, 1917791.0 ], [ 5212815.0, 1916170.0 ], [ 5213299.0, 1923162.0 ], [ 5204410.0, 1936939.0 ], [ 5209501.0, 1939444.0 ], [ 5213369.0, 1947297.0 ], [ 5232674.0, 1954597.0 ], [ 5238248.0, 1990965.0 ], [ 5242387.0, 1997016.0 ], [ 5250298.0, 1998362.0 ], [ 5257241.0, 2015038.0 ], [ 5247946.0, 2030290.0 ], [ 5247353.0, 2040321.0 ], [ 5270545.0, 2044242.0 ], [ 5283198.0, 2052000.0 ], [ 5296507.0, 2049996.0 ], [ 5305252.0, 2057391.0 ], [ 5313655.0, 2058838.0 ], [ 5322793.0, 2079259.0 ], [ 5332509.0, 2086613.0 ], [ 5338778.0, 2085288.0 ], [ 5345488.0, 2090788.0 ], [ 5355938.0, 2086870.0 ], [ 5377233.0, 2090846.0 ], [ 5382298.0, 2097825.0 ], [ 5387930.0, 2095697.0 ], [ 5389197.0, 2115074.0 ], [ 5403754.0, 2122513.0 ], [ 5398681.0, 2151426.0 ], [ 5402923.0, 2162591.0 ], [ 5386764.0, 2183980.0 ], [ 5384665.0, 2193093.0 ], [ 5367767.0, 2195697.0 ], [ 5353217.0, 2202689.0 ], [ 5338320.0, 2217739.0 ], [ 5345336.0, 2222936.0 ], [ 5350488.0, 2237582.0 ], [ 5341729.0, 2247759.0 ], [ 5341689.0, 2266526.0 ], [ 5336281.0, 2275236.0 ], [ 5341408.0, 2280945.0 ], [ 5359818.0, 2286469.0 ], [ 5361891.0, 2296918.0 ], [ 5374126.0, 2314237.0 ], [ 5375158.0, 2323275.0 ], [ 5366005.0, 2325597.0 ], [ 5351004.0, 2340907.0 ], [ 5331881.0, 2348819.0 ], [ 5325140.0, 2365454.0 ], [ 5313299.0, 2381793.0 ], [ 5314033.0, 2403681.0 ], [ 5328186.0, 2413671.0 ], [ 5330612.0, 2430822.0 ], [ 5329336.0, 2437316.0 ], [ 5317967.0, 2441260.0 ], [ 5309971.0, 2455401.0 ], [ 5318961.0, 2465998.0 ], [ 5330314.0, 2466808.0 ], [ 5330489.0, 2469713.0 ], [ 5303015.0, 2481354.0 ], [ 5294337.0, 2474416.0 ], [ 5284308.0, 2452613.0 ], [ 5267560.0, 2467723.0 ], [ 5241776.0, 2466263.0 ], [ 5235512.0, 2476123.0 ], [ 5221480.0, 2476681.0 ], [ 5217048.0, 2480558.0 ], [ 5219309.0, 2485650.0 ], [ 5230050.0, 2491797.0 ], [ 5217093.0, 2502015.0 ], [ 5223521.0, 2516011.0 ], [ 5220467.0, 2522847.0 ], [ 5201460.0, 2525412.0 ], [ 5194814.0, 2532660.0 ], [ 5182475.0, 2531852.0 ], [ 5167570.0, 2545481.0 ], [ 5161430.0, 2547228.0 ], [ 5163550.0, 2552223.0 ], [ 5159156.0, 2560016.0 ], [ 5159590.0, 2578943.0 ], [ 5152937.0, 2575694.0 ], [ 5139043.0, 2589908.0 ], [ 5122252.0, 2597830.0 ], [ 5112370.0, 2611778.0 ], [ 5090383.0, 2614333.0 ], [ 5076514.0, 2607968.0 ], [ 5068154.0, 2612699.0 ], [ 5056835.0, 2608748.0 ], [ 5048971.0, 2595135.0 ], [ 5039859.0, 2590344.0 ], [ 5040492.0, 2587133.0 ], [ 5029890.0, 2586433.0 ], [ 5025194.0, 2590092.0 ], [ 5022560.0, 2582143.0 ], [ 5009623.0, 2575456.0 ], [ 5008887.0, 2565115.0 ], [ 5017735.0, 2555837.0 ], [ 5014173.0, 2552727.0 ], [ 5017137.0, 2547827.0 ], [ 5016037.0, 2537833.0 ], [ 5026952.0, 2533082.0 ], [ 5023935.0, 2527238.0 ], [ 5024612.0, 2515186.0 ], [ 5038861.0, 2506875.0 ], [ 5059604.0, 2503893.0 ], [ 5060947.0, 2497458.0 ], [ 5050783.0, 2500154.0 ], [ 5035170.0, 2490638.0 ], [ 5037273.0, 2474197.0 ], [ 5041789.0, 2471492.0 ], [ 5031461.0, 2464847.0 ], [ 5033462.0, 2459084.0 ], [ 5018995.0, 2458138.0 ], [ 5012975.0, 2462851.0 ], [ 5013427.0, 2471012.0 ], [ 5003342.0, 2480608.0 ], [ 4991980.0, 2480138.0 ], [ 4989258.0, 2477126.0 ], [ 4969861.0, 2482759.0 ], [ 4961502.0, 2475933.0 ], [ 4950746.0, 2481599.0 ], [ 4939223.0, 2469981.0 ], [ 4924622.0, 2477077.0 ], [ 4912927.0, 2474411.0 ], [ 4893323.0, 2480029.0 ], [ 4889296.0, 2475979.0 ], [ 4882408.0, 2477038.0 ], [ 4864732.0, 2486893.0 ], [ 4856611.0, 2477644.0 ], [ 4834639.0, 2479600.0 ], [ 4818211.0, 2453009.0 ], [ 4802488.0, 2462279.0 ], [ 4792255.0, 2475137.0 ], [ 4779875.0, 2474907.0 ], [ 4775569.0, 2468733.0 ], [ 4776666.0, 2448397.0 ], [ 4774121.0, 2442304.0 ], [ 4778226.0, 2433181.0 ], [ 4775533.0, 2429356.0 ], [ 4782803.0, 2420225.0 ], [ 4789469.0, 2420339.0 ], [ 4799172.0, 2411816.0 ], [ 4816394.0, 2379771.0 ], [ 4817554.0, 2367535.0 ], [ 4814758.0, 2364694.0 ], [ 4820246.0, 2363757.0 ], [ 4846574.0, 2341238.0 ], [ 4887795.0, 2300867.0 ], [ 4909001.0, 2291630.0 ], [ 4915036.0, 2272668.0 ], [ 4927372.0, 2260005.0 ], [ 4943113.0, 2251856.0 ], [ 4949147.0, 2242171.0 ], [ 4949266.0, 2239251.0 ], [ 4940446.0, 2234753.0 ], [ 4878934.0, 2278975.0 ], [ 4838910.0, 2292493.0 ], [ 4833492.0, 2291495.0 ], [ 4830943.0, 2286465.0 ], [ 4811474.0, 2283593.0 ], [ 4801142.0, 2291801.0 ], [ 4799418.0, 2301785.0 ], [ 4792425.0, 2303764.0 ], [ 4787547.0, 2310968.0 ], [ 4774771.0, 2314224.0 ], [ 4774237.0, 2319546.0 ], [ 4752456.0, 2331417.0 ], [ 4737001.0, 2356033.0 ], [ 4737881.0, 2363961.0 ], [ 4751536.0, 2367671.0 ], [ 4727697.0, 2389997.0 ], [ 4721004.0, 2390861.0 ], [ 4721504.0, 2395480.0 ], [ 4708919.0, 2419574.0 ], [ 4708974.0, 2439026.0 ], [ 4700717.0, 2456998.0 ], [ 4685411.0, 2465513.0 ], [ 4698728.0, 2440838.0 ], [ 4692647.0, 2438173.0 ], [ 4683566.0, 2445309.0 ], [ 4674465.0, 2447177.0 ], [ 4671944.0, 2452034.0 ], [ 4677560.0, 2459553.0 ], [ 4678809.0, 2473108.0 ], [ 4662085.0, 2480504.0 ], [ 4659388.0, 2478541.0 ], [ 4648554.0, 2438644.0 ], [ 4641983.0, 2435883.0 ], [ 4634663.0, 2420470.0 ], [ 4627198.0, 2420244.0 ], [ 4607413.0, 2448234.0 ], [ 4595953.0, 2492542.0 ], [ 4606911.0, 2489415.0 ], [ 4601783.0, 2491756.0 ], [ 4602646.0, 2498355.0 ], [ 4611743.0, 2499606.0 ], [ 4611734.0, 2505301.0 ], [ 4615344.0, 2507799.0 ], [ 4613467.0, 2514389.0 ], [ 4599618.0, 2526058.0 ], [ 4593794.0, 2517615.0 ], [ 4564408.0, 2521585.0 ], [ 4560865.0, 2515982.0 ], [ 4562838.0, 2508582.0 ], [ 4524381.0, 2489524.0 ], [ 4525941.0, 2494746.0 ], [ 4521706.0, 2497646.0 ], [ 4509017.0, 2494310.0 ], [ 4492108.0, 2479036.0 ], [ 4488504.0, 2467753.0 ], [ 4496113.0, 2457703.0 ], [ 4501455.0, 2458875.0 ], [ 4504513.0, 2452710.0 ], [ 4500830.0, 2445076.0 ], [ 4504319.0, 2435738.0 ], [ 4512265.0, 2436211.0 ], [ 4517194.0, 2430239.0 ], [ 4515443.0, 2422310.0 ], [ 4511051.0, 2420412.0 ], [ 4511152.0, 2412080.0 ], [ 4502529.0, 2416337.0 ], [ 4499469.0, 2407388.0 ], [ 4503547.0, 2376260.0 ], [ 4511885.0, 2349087.0 ], [ 4542187.0, 2321830.0 ], [ 4595491.0, 2286658.0 ], [ 4606323.0, 2285447.0 ], [ 4613981.0, 2277869.0 ], [ 4650092.0, 2185752.0 ], [ 4671923.0, 2158742.0 ], [ 4695622.0, 2137921.0 ], [ 4710554.0, 2130998.0 ], [ 4717677.0, 2119916.0 ], [ 4736009.0, 2113636.0 ], [ 4744497.0, 2107025.0 ], [ 4771237.0, 2105004.0 ], [ 4827271.0, 2113170.0 ], [ 4834471.0, 2108125.0 ], [ 4836537.0, 2096661.0 ], [ 4815998.0, 2077981.0 ], [ 4814253.0, 2073224.0 ], [ 4817798.0, 2062550.0 ], [ 4826062.0, 2056175.0 ], [ 4871067.0, 2038145.0 ], [ 4917699.0, 2024316.0 ], [ 4955410.0, 2000717.0 ], [ 5000604.0, 1984917.0 ], [ 5009077.0, 1972177.0 ], [ 5038010.0, 1951620.0 ], [ 5048517.0, 1933670.0 ], [ 5041735.0, 1915886.0 ], [ 5040350.0, 1896532.0 ], [ 5024218.0, 1899299.0 ], [ 5011995.0, 1906792.0 ], [ 5007063.0, 1913245.0 ], [ 5004988.0, 1927486.0 ], [ 4991181.0, 1944110.0 ], [ 4962307.0, 1943129.0 ], [ 4950445.0, 1946538.0 ], [ 4937850.0, 1952135.0 ], [ 4936204.0, 1959646.0 ], [ 4925623.0, 1964023.0 ], [ 4916556.0, 1960676.0 ], [ 4905973.0, 1948907.0 ], [ 4886573.0, 1909398.0 ], [ 4888794.0, 1898019.0 ], [ 4879572.0, 1880711.0 ], [ 4883621.0, 1865984.0 ], [ 4892038.0, 1861808.0 ], [ 4904804.0, 1862110.0 ], [ 4939255.0, 1840506.0 ], [ 4937122.0, 1827402.0 ], [ 4940031.0, 1821219.0 ], [ 4939075.0, 1809700.0 ], [ 4945209.0, 1800454.0 ], [ 4944031.0, 1791055.0 ], [ 4939498.0, 1786197.0 ], [ 4921369.0, 1787170.0 ], [ 4899615.0, 1773827.0 ], [ 4893816.0, 1764152.0 ], [ 4898486.0, 1734482.0 ], [ 4891942.0, 1721860.0 ], [ 4878108.0, 1713327.0 ], [ 4866128.0, 1696223.0 ], [ 4857937.0, 1671813.0 ], [ 4830098.0, 1668406.0 ], [ 4819944.0, 1676709.0 ], [ 4817701.0, 1699995.0 ], [ 4831834.0, 1709596.0 ], [ 4840159.0, 1733790.0 ], [ 4839586.0, 1738988.0 ], [ 4832268.0, 1745509.0 ], [ 4833179.0, 1749602.0 ], [ 4845543.0, 1758104.0 ], [ 4857203.0, 1758852.0 ], [ 4863490.0, 1769259.0 ], [ 4862347.0, 1781261.0 ], [ 4851084.0, 1794642.0 ], [ 4839926.0, 1835938.0 ], [ 4828167.0, 1849646.0 ], [ 4815169.0, 1888735.0 ], [ 4804764.0, 1901170.0 ], [ 4799497.0, 1903522.0 ], [ 4781094.0, 1895455.0 ], [ 4760978.0, 1910431.0 ], [ 4743708.0, 1917532.0 ], [ 4745900.0, 1936707.0 ], [ 4735445.0, 1956450.0 ], [ 4726597.0, 1964678.0 ], [ 4689323.0, 1952932.0 ], [ 4700020.0, 1967094.0 ], [ 4698845.0, 1971307.0 ], [ 4683807.0, 1980833.0 ], [ 4675579.0, 1977103.0 ], [ 4668294.0, 1978989.0 ], [ 4664844.0, 1975367.0 ], [ 4662108.0, 1986871.0 ], [ 4637532.0, 2021521.0 ], [ 4625710.0, 2024519.0 ], [ 4619494.0, 2020030.0 ], [ 4597154.0, 2027542.0 ], [ 4578749.0, 2019534.0 ], [ 4566264.0, 2035569.0 ], [ 4540423.0, 2043351.0 ], [ 4525640.0, 2062058.0 ], [ 4507858.0, 2073777.0 ], [ 4502149.0, 2088465.0 ], [ 4480882.0, 2105070.0 ], [ 4473546.0, 2105721.0 ], [ 4456359.0, 2133217.0 ], [ 4440807.0, 2142554.0 ], [ 4428017.0, 2145640.0 ], [ 4418811.0, 2142102.0 ], [ 4413763.0, 2143606.0 ], [ 4412686.0, 2148360.0 ], [ 4417448.0, 2152317.0 ], [ 4416329.0, 2161238.0 ], [ 4400533.0, 2179271.0 ], [ 4385688.0, 2187350.0 ], [ 4383804.0, 2198189.0 ], [ 4378765.0, 2204150.0 ], [ 4361761.0, 2204798.0 ], [ 4364645.0, 2218962.0 ], [ 4362341.0, 2240883.0 ], [ 4347108.0, 2264911.0 ], [ 4341817.0, 2300678.0 ], [ 4332539.0, 2318420.0 ], [ 4309228.0, 2332511.0 ], [ 4306547.0, 2327472.0 ], [ 4263373.0, 2358093.0 ], [ 4255937.0, 2355915.0 ], [ 4245962.0, 2363611.0 ], [ 4221995.0, 2368875.0 ], [ 4198928.0, 2355884.0 ], [ 4192816.0, 2343212.0 ], [ 4181968.0, 2337315.0 ], [ 4170960.0, 2316231.0 ], [ 4156262.0, 2306894.0 ], [ 4132929.0, 2299836.0 ], [ 4121720.0, 2300473.0 ], [ 4091563.0, 2286662.0 ], [ 4082026.0, 2270137.0 ], [ 4076884.0, 2274589.0 ], [ 4046670.0, 2249875.0 ], [ 4049626.0, 2244020.0 ], [ 4045514.0, 2236732.0 ], [ 4022213.0, 2229080.0 ], [ 4012607.0, 2229732.0 ], [ 4005917.0, 2225165.0 ], [ 3993491.0, 2229737.0 ], [ 3981614.0, 2227470.0 ], [ 3968344.0, 2240335.0 ], [ 3943325.0, 2245772.0 ], [ 3940595.0, 2261059.0 ], [ 3919728.0, 2259841.0 ], [ 3910763.0, 2271488.0 ], [ 3904428.0, 2269484.0 ], [ 3904268.0, 2263465.0 ], [ 3900827.0, 2261859.0 ], [ 3882482.0, 2265799.0 ], [ 3877799.0, 2276115.0 ], [ 3853358.0, 2279282.0 ], [ 3840971.0, 2291011.0 ], [ 3826711.0, 2286935.0 ], [ 3796234.0, 2266293.0 ], [ 3782110.0, 2264520.0 ], [ 3771048.0, 2258658.0 ], [ 3756483.0, 2241366.0 ], [ 3751465.0, 2218748.0 ], [ 3749339.0, 2188518.0 ], [ 3758429.0, 2173270.0 ], [ 3758087.0, 2164877.0 ], [ 3767742.0, 2158813.0 ], [ 3764319.0, 2153367.0 ], [ 3755625.0, 2153179.0 ], [ 3751811.0, 2148496.0 ], [ 3751704.0, 2141216.0 ], [ 3757100.0, 2130934.0 ], [ 3755561.0, 2114755.0 ], [ 3718113.0, 2089576.0 ], [ 3674780.0, 2073224.0 ], [ 3657895.0, 2055492.0 ], [ 3560801.0, 2037733.0 ], [ 3535833.0, 2015305.0 ], [ 3548066.0, 2005065.0 ], [ 3547318.0, 2002099.0 ], [ 3537857.0, 1997283.0 ], [ 3524300.0, 1996120.0 ], [ 3502916.0, 1968059.0 ], [ 3469913.0, 1937443.0 ], [ 3431300.0, 1883169.0 ], [ 3429365.0, 1873228.0 ], [ 3435969.0, 1833499.0 ], [ 3447421.0, 1813123.0 ], [ 3464727.0, 1802883.0 ], [ 3467949.0, 1794050.0 ], [ 3444863.0, 1783159.0 ], [ 3438144.0, 1775002.0 ], [ 3414540.0, 1769475.0 ], [ 3408073.0, 1759984.0 ], [ 3399816.0, 1757493.0 ], [ 3396806.0, 1744641.0 ], [ 3386184.0, 1738791.0 ], [ 3382085.0, 1724184.0 ], [ 3360649.0, 1695136.0 ], [ 3370231.0, 1681458.0 ], [ 3352949.0, 1678645.0 ], [ 3316467.0, 1683544.0 ], [ 3299840.0, 1672051.0 ], [ 3283113.0, 1665977.0 ], [ 3269950.0, 1653343.0 ], [ 3256195.0, 1624662.0 ], [ 3232783.0, 1604685.0 ], [ 3227328.0, 1605113.0 ], [ 3215040.0, 1618983.0 ], [ 3197121.0, 1619543.0 ], [ 3188020.0, 1609614.0 ], [ 3180814.0, 1607436.0 ], [ 3163161.0, 1617132.0 ], [ 3152987.555334174074233, 1619315.291063825134188 ] ], [ [ 4139577.0, 2722540.0 ], [ 4123319.0, 2705528.0 ], [ 4109016.0, 2707260.0 ], [ 4104717.0, 2714129.0 ], [ 4096705.0, 2714568.0 ], [ 4090009.0, 2707008.0 ], [ 4087899.0, 2699786.0 ], [ 4095381.0, 2695673.0 ], [ 4082731.0, 2677464.0 ], [ 4065167.0, 2660625.0 ], [ 4051277.0, 2654567.0 ], [ 4048608.0, 2634722.0 ], [ 4024982.0, 2616693.0 ], [ 4018233.0, 2597242.0 ], [ 4025071.0, 2591847.0 ], [ 4020987.0, 2579058.0 ], [ 4010738.0, 2574341.0 ], [ 4008291.0, 2566177.0 ], [ 4022926.0, 2567094.0 ], [ 4033931.0, 2575057.0 ], [ 4029619.0, 2585046.0 ], [ 4037598.0, 2593770.0 ], [ 4053617.0, 2599657.0 ], [ 4076473.0, 2595666.0 ], [ 4073069.0, 2587116.0 ], [ 4078306.0, 2578620.0 ], [ 4073667.0, 2565597.0 ], [ 4080334.0, 2561199.0 ], [ 4079698.0, 2554114.0 ], [ 4084744.0, 2553028.0 ], [ 4096453.0, 2532925.0 ], [ 4102338.0, 2532394.0 ], [ 4110941.0, 2537383.0 ], [ 4118773.0, 2535922.0 ], [ 4131884.0, 2543706.0 ], [ 4155108.0, 2536148.0 ], [ 4158444.0, 2543713.0 ], [ 4165591.0, 2545791.0 ], [ 4169064.0, 2555384.0 ], [ 4177669.0, 2561212.0 ], [ 4174230.0, 2574863.0 ], [ 4196777.0, 2594561.0 ], [ 4202685.0, 2592543.0 ], [ 4202494.0, 2571226.0 ], [ 4214093.0, 2557787.0 ], [ 4231077.0, 2551746.0 ], [ 4227551.0, 2543504.0 ], [ 4234642.0, 2538507.0 ], [ 4238181.0, 2529392.0 ], [ 4236365.0, 2524806.0 ], [ 4246343.0, 2525808.0 ], [ 4249157.0, 2531911.0 ], [ 4244078.0, 2538240.0 ], [ 4244790.0, 2547580.0 ], [ 4262968.0, 2569255.0 ], [ 4266428.0, 2579905.0 ], [ 4264026.0, 2592858.0 ], [ 4267383.0, 2598421.0 ], [ 4279194.0, 2598186.0 ], [ 4280008.0, 2585362.0 ], [ 4285400.0, 2578095.0 ], [ 4291477.0, 2575516.0 ], [ 4317529.0, 2585039.0 ], [ 4325223.0, 2569229.0 ], [ 4331945.0, 2569081.0 ], [ 4333858.0, 2572690.0 ], [ 4329814.0, 2581499.0 ], [ 4333013.0, 2588396.0 ], [ 4324524.0, 2594085.0 ], [ 4329159.0, 2609814.0 ], [ 4338762.0, 2612793.0 ], [ 4344493.0, 2604292.0 ], [ 4355774.0, 2602037.0 ], [ 4357711.0, 2611128.0 ], [ 4350870.0, 2618454.0 ], [ 4357467.0, 2647017.0 ], [ 4349648.0, 2653542.0 ], [ 4339724.0, 2645372.0 ], [ 4337696.0, 2639367.0 ], [ 4327712.0, 2637299.0 ], [ 4311941.0, 2647572.0 ], [ 4311180.0, 2655589.0 ], [ 4291125.0, 2660883.0 ], [ 4292202.0, 2670972.0 ], [ 4285464.0, 2684223.0 ], [ 4294805.0, 2695862.0 ], [ 4294675.0, 2701819.0 ], [ 4287757.0, 2714352.0 ], [ 4274325.0, 2723563.0 ], [ 4248570.0, 2730509.0 ], [ 4236429.0, 2727427.0 ], [ 4231995.0, 2734757.0 ], [ 4230515.0, 2729845.0 ], [ 4220592.0, 2731160.0 ], [ 4223842.0, 2736802.0 ], [ 4217105.0, 2744026.0 ], [ 4209278.0, 2741412.0 ], [ 4202228.0, 2733119.0 ], [ 4208454.0, 2727288.0 ], [ 4216277.0, 2729363.0 ], [ 4215338.0, 2722328.0 ], [ 4209585.0, 2724674.0 ], [ 4202526.0, 2718363.0 ], [ 4187149.0, 2724188.0 ], [ 4173295.0, 2717495.0 ], [ 4164576.0, 2717898.0 ], [ 4162515.0, 2721450.0 ], [ 4148793.0, 2716636.0 ], [ 4139577.0, 2722540.0 ] ], [ [ 3618229.0, 2206418.0 ], [ 3618100.0, 2188160.0 ], [ 3624145.0, 2187126.0 ], [ 3640254.0, 2192873.0 ], [ 3645973.0, 2199965.0 ], [ 3626375.0, 2211004.0 ], [ 3618229.0, 2206418.0 ] ], [ [ 4514985.0, 2319048.0 ], [ 4515661.0, 2313079.0 ], [ 4521741.0, 2315111.0 ], [ 4522403.0, 2323058.0 ], [ 4514985.0, 2319048.0 ] ], [ [ 4521505.0, 2091050.0 ], [ 4528019.0, 2090938.0 ], [ 4526688.0, 2095117.0 ], [ 4524338.0, 2094235.0 ], [ 4521505.0, 2091050.0 ] ], [ [ 3662001.0, 2189162.0 ], [ 3657627.0, 2185408.0 ], [ 3661780.0, 2183044.0 ], [ 3662001.0, 2189162.0 ] ], [ [ 4598024.0, 3425759.0 ], [ 4587037.0, 3425133.0 ], [ 4580296.0, 3419630.0 ], [ 4588516.0, 3413007.0 ], [ 4599458.0, 3412196.0 ], [ 4602721.0, 3407226.0 ], [ 4605657.0, 3411553.0 ], [ 4624186.0, 3399267.0 ], [ 4625458.0, 3402748.0 ], [ 4620869.0, 3409475.0 ], [ 4624375.0, 3418978.0 ], [ 4620647.0, 3425491.0 ], [ 4610423.0, 3428554.0 ], [ 4605296.0, 3421046.0 ], [ 4598024.0, 3425759.0 ] ] ] ] } },
{ "type": "Feature", "properties": { "id": 3013, "name": "Great London", "country": "UK", "city_pop": 9423910.0, "cell_pop": 84315777.69, "diff_pop": 74891867.69, "n_cities_included": 951.0, "diff_pop_null": 71350443.856594771, "cell_perimeter": 22793685.299615502, "cell_area": 1264222622496.4453, "cell_nNeighbors": 3.0, "avg_nNeighbors_of_neighbors": 3.0, "avg_cell_pop_of_neighbors": 117801506.575, "avg_diff_pop_of_neighbors": 110394286.575, "avg_diff_pop_of_neighbors_null": 112164998.4917026 }, "geometry": { "type": "MultiPolygon", "coordinates": [ [ [ [ 3385428.240228284150362, 2909250.873814069200307 ], [ 3254193.50271109258756, 2850356.031163315288723 ], [ 3249982.0, 2864871.0 ], [ 3241395.0, 2876288.0 ], [ 3262599.0, 2885436.0 ], [ 3259584.0, 2891393.0 ], [ 3248170.0, 2896309.0 ], [ 3246472.0, 2901817.0 ], [ 3249692.0, 2904122.0 ], [ 3263712.0, 2900302.0 ], [ 3265791.0, 2902803.0 ], [ 3256342.0, 2910779.0 ], [ 3238420.0, 2912598.0 ], [ 3236069.0, 2920170.0 ], [ 3242771.0, 2933820.0 ], [ 3267857.0, 2941275.0 ], [ 3295381.0, 2941437.0 ], [ 3320985.0, 2931509.0 ], [ 3330285.0, 2938077.0 ], [ 3331396.0, 2945710.0 ], [ 3363572.0, 2946516.0 ], [ 3375352.0, 2930613.0 ], [ 3385428.240228284150362, 2909250.873814069200307 ] ] ], [ [ [ 3534437.908598612062633, 2976122.6574449990876 ], [ 3477233.89415798522532, 2950450.937493329867721 ], [ 3478282.0, 2963822.0 ], [ 3467683.0, 2989857.0 ], [ 3466224.0, 3022598.0 ], [ 3483626.0, 3016390.0 ], [ 3502346.0, 3017652.0 ], [ 3509384.0, 3014208.0 ], [ 3511501.0, 3008101.0 ], [ 3507762.0, 2996865.0 ], [ 3515982.0, 2973171.0 ], [ 3519556.0, 2979287.0 ], [ 3528600.0, 2979348.0 ], [ 3534437.908598612062633, 2976122.6574449990876 ] ] ], [ [ [ 3722893.031918442808092, 3060696.567102082073689 ], [ 3722386.756068417336792, 3060469.363260406535119 ], [ 3722493.0, 3060725.0 ], [ 3722893.031918442808092, 3060696.567102082073689 ] ] ], [ [ [ 3267014.0, 3563206.0 ], [ 3274346.0, 3550636.0 ], [ 3270230.0, 3548753.0 ], [ 3260883.0, 3553630.0 ], [ 3256710.0, 3542605.0 ], [ 3261638.0, 3534254.0 ], [ 3258609.0, 3511383.0 ], [ 3264294.0, 3497920.0 ], [ 3257866.0, 3484091.0 ], [ 3251719.0, 3479176.0 ], [ 3256731.0, 3471107.0 ], [ 3255017.0, 3434338.0 ], [ 3233840.0, 3403657.0 ], [ 3230625.0, 3391502.0 ], [ 3211759.0, 3373351.0 ], [ 3215913.0, 3361393.0 ], [ 3212354.0, 3356170.0 ], [ 3199279.0, 3358453.0 ], [ 3185388.0, 3367969.0 ], [ 3178557.0, 3362342.0 ], [ 3174502.0, 3369893.0 ], [ 3170670.0, 3363126.0 ], [ 3165000.0, 3361642.0 ], [ 3145340.0, 3366436.0 ], [ 3129046.0, 3365617.0 ], [ 3124891.0, 3354658.0 ], [ 3115984.0, 3352081.0 ], [ 3108541.0, 3354477.0 ], [ 3093704.0, 3345776.0 ], [ 3076670.0, 3345954.0 ], [ 3064093.0, 3337678.0 ], [ 3042059.0, 3331492.0 ], [ 2998897.0, 3330401.0 ], [ 2975986.0, 3339427.0 ], [ 2984169.0, 3355068.0 ], [ 2958435.0, 3357953.0 ], [ 2964154.0, 3372683.0 ], [ 2952214.0, 3377414.0 ], [ 2941390.0, 3388922.0 ], [ 2945459.0, 3395718.0 ], [ 2965321.0, 3402600.0 ], [ 2968747.0, 3406707.0 ], [ 2948032.0, 3417845.0 ], [ 2949119.0, 3425442.0 ], [ 2962755.0, 3429409.0 ], [ 2981480.0, 3424491.0 ], [ 2994609.0, 3443724.0 ], [ 3010424.0, 3449986.0 ], [ 3025972.0, 3447676.0 ], [ 3009629.0, 3462801.0 ], [ 3028152.0, 3477583.0 ], [ 3044519.0, 3501384.0 ], [ 3065232.0, 3503167.0 ], [ 3068927.0, 3508220.0 ], [ 3066224.0, 3515426.0 ], [ 3025409.0, 3526449.0 ], [ 3024870.0, 3535108.0 ], [ 3018055.0, 3537609.0 ], [ 3015696.0, 3545191.0 ], [ 3005913.0, 3552294.0 ], [ 3007158.0, 3564555.0 ], [ 3021318.0, 3570977.0 ], [ 3029243.0, 3582847.0 ], [ 3043125.0, 3589144.0 ], [ 3038931.0, 3596617.0 ], [ 3027387.0, 3599957.0 ], [ 3018408.0, 3613430.0 ], [ 3025453.0, 3615398.0 ], [ 3031928.0, 3608432.0 ], [ 3034956.0, 3610087.0 ], [ 3035409.0, 3631536.0 ], [ 3028907.0, 3631637.0 ], [ 3034838.0, 3641984.0 ], [ 3043018.0, 3639115.0 ], [ 3053672.0, 3644236.0 ], [ 3078448.0, 3635309.0 ], [ 3085182.0, 3628041.0 ], [ 3087910.0, 3615180.0 ], [ 3099721.0, 3626137.0 ], [ 3123394.0, 3616710.0 ], [ 3126667.0, 3619934.0 ], [ 3126860.0, 3628932.0 ], [ 3150140.0, 3637348.0 ], [ 3157938.0, 3649177.0 ], [ 3135890.0, 3655316.0 ], [ 3128830.0, 3666961.0 ], [ 3152304.0, 3678412.0 ], [ 3156260.0, 3693545.0 ], [ 3170118.0, 3706088.0 ], [ 3188351.0, 3708876.0 ], [ 3195453.0, 3705472.0 ], [ 3209662.0, 3709531.0 ], [ 3212697.0, 3686755.0 ], [ 3219052.0, 3705141.0 ], [ 3232927.0, 3714934.0 ], [ 3250454.0, 3698125.0 ], [ 3230330.0, 3682748.0 ], [ 3236307.0, 3678562.0 ], [ 3243538.0, 3678844.0 ], [ 3252405.0, 3690623.0 ], [ 3264352.0, 3686553.0 ], [ 3282861.0, 3690347.0 ], [ 3305647.0, 3680855.0 ], [ 3308059.0, 3655766.0 ], [ 3320060.0, 3631142.0 ], [ 3316090.0, 3624846.0 ], [ 3303103.0, 3617512.0 ], [ 3306364.0, 3615145.0 ], [ 3313908.0, 3617846.0 ], [ 3326013.0, 3613098.0 ], [ 3328742.0, 3592323.0 ], [ 3321441.0, 3578674.0 ], [ 3318634.0, 3586155.0 ], [ 3322299.0, 3598052.0 ], [ 3316405.0, 3606158.0 ], [ 3314395.0, 3602366.0 ], [ 3318227.0, 3579211.0 ], [ 3316204.0, 3573175.0 ], [ 3311602.0, 3570263.0 ], [ 3298443.0, 3573221.0 ], [ 3290025.0, 3558096.0 ], [ 3279241.0, 3552454.0 ], [ 3267014.0, 3563206.0 ] ] ], [ [ [ 3380482.0, 3453711.0 ], [ 3380944.0, 3446631.0 ], [ 3390764.0, 3446106.0 ], [ 3368421.0, 3430322.0 ], [ 3349181.0, 3451641.0 ], [ 3352156.0, 3455529.0 ], [ 3356491.0, 3450776.0 ], [ 3359002.0, 3463083.0 ], [ 3369290.0, 3464172.0 ], [ 3377448.0, 3460747.0 ], [ 3380482.0, 3453711.0 ] ] ], [ [ [ 4215973.0, 3534910.0 ], [ 4221858.0, 3531196.0 ], [ 4222360.0, 3529673.0 ], [ 4219244.0, 3527918.0 ], [ 4214391.0, 3531584.0 ], [ 4211610.0, 3528446.0 ], [ 4214481.0, 3542068.0 ], [ 4215973.0, 3534910.0 ] ] ], [ [ [ 3527726.0, 3113213.0 ], [ 3508455.0, 3126957.0 ], [ 3510992.0, 3130120.0 ], [ 3525966.0, 3134325.0 ], [ 3539951.0, 3127213.0 ], [ 3540232.0, 3121792.0 ], [ 3527726.0, 3113213.0 ] ] ], [ [ [ 3614989.0, 3200182.0 ], [ 3612438.0, 3203084.0 ], [ 3615407.0, 3199698.0 ], [ 3620056.0, 3201443.0 ], [ 3621754.0, 3203837.0 ], [ 3627186.0, 3200517.0 ], [ 3637911.0, 3201819.0 ], [ 3643744.0, 3197625.0 ], [ 3653282.0, 3192541.0 ], [ 3664678.0, 3195083.0 ], [ 3673965.0, 3191569.0 ], [ 3669426.0, 3186179.0 ], [ 3670416.0, 3182316.0 ], [ 3680829.0, 3188299.0 ], [ 3689183.0, 3184299.0 ], [ 3692324.0, 3176225.0 ], [ 3712871.0, 3177300.0 ], [ 3724663.0, 3173712.0 ], [ 3719236.0, 3151462.0 ], [ 3692648.0, 3140235.0 ], [ 3687447.0, 3129982.0 ], [ 3674204.0, 3131508.0 ], [ 3664381.0, 3126034.0 ], [ 3646088.0, 3123517.0 ], [ 3634575.0, 3115603.0 ], [ 3603879.0, 3129742.0 ], [ 3570406.0, 3129023.0 ], [ 3562128.0, 3124853.0 ], [ 3555524.0, 3130893.0 ], [ 3554237.0, 3138740.0 ], [ 3550539.0, 3133027.0 ], [ 3547731.0, 3138573.0 ], [ 3543134.0, 3133590.0 ], [ 3541453.0, 3140613.0 ], [ 3537721.0, 3134765.0 ], [ 3517821.0, 3153490.0 ], [ 3525896.0, 3138298.0 ], [ 3508209.0, 3132030.0 ], [ 3475542.0, 3137205.0 ], [ 3479523.0, 3129743.0 ], [ 3477509.0, 3123760.0 ], [ 3449611.0, 3131695.0 ], [ 3441341.0, 3129206.0 ], [ 3424253.0, 3144771.0 ], [ 3412062.0, 3148119.0 ], [ 3391509.0, 3146932.0 ], [ 3381341.0, 3142677.0 ], [ 3376439.0, 3147663.0 ], [ 3364242.0, 3123640.0 ], [ 3366408.0, 3118023.0 ], [ 3348985.0, 3101916.0 ], [ 3340091.0, 3106187.0 ], [ 3335255.0, 3115922.0 ], [ 3327956.0, 3116224.0 ], [ 3318894.0, 3127261.0 ], [ 3318891.0, 3138076.0 ], [ 3315913.0, 3123026.0 ], [ 3307799.0, 3126944.0 ], [ 3280983.0, 3129469.0 ], [ 3272464.0, 3119499.0 ], [ 3255009.0, 3117082.0 ], [ 3248734.0, 3102101.0 ], [ 3239945.0, 3097185.0 ], [ 3234708.0, 3107962.0 ], [ 3223013.0, 3117129.0 ], [ 3213726.0, 3111942.0 ], [ 3207118.0, 3114124.0 ], [ 3212027.0, 3124878.0 ], [ 3221581.0, 3128123.0 ], [ 3229187.0, 3126058.0 ], [ 3240047.0, 3130748.0 ], [ 3259960.0, 3146054.0 ], [ 3266062.0, 3156236.0 ], [ 3281480.0, 3160695.0 ], [ 3300140.0, 3176228.0 ], [ 3310328.0, 3201396.0 ], [ 3320776.0, 3196580.0 ], [ 3328246.0, 3199396.0 ], [ 3335000.0, 3216239.0 ], [ 3369157.0, 3214448.0 ], [ 3396071.0, 3203448.0 ], [ 3413114.0, 3203154.0 ], [ 3424053.0, 3220401.0 ], [ 3436260.0, 3229809.0 ], [ 3445251.0, 3228508.0 ], [ 3444212.0, 3232041.0 ], [ 3458893.0, 3248428.0 ], [ 3449232.0, 3245832.0 ], [ 3444656.0, 3240469.0 ], [ 3418182.0, 3235811.0 ], [ 3409249.0, 3226763.0 ], [ 3388864.0, 3228850.0 ], [ 3374742.0, 3241929.0 ], [ 3365916.0, 3258726.0 ], [ 3343311.0, 3254594.0 ], [ 3337500.0, 3260042.0 ], [ 3339967.0, 3264989.0 ], [ 3349844.0, 3264351.0 ], [ 3356471.0, 3270329.0 ], [ 3347429.0, 3267463.0 ], [ 3338983.0, 3270904.0 ], [ 3333876.0, 3280605.0 ], [ 3314885.0, 3280351.0 ], [ 3308616.0, 3274266.0 ], [ 3291836.0, 3272525.0 ], [ 3279910.0, 3287691.0 ], [ 3286486.0, 3294774.0 ], [ 3286645.0, 3300816.0 ], [ 3276529.0, 3308132.0 ], [ 3295792.0, 3318699.0 ], [ 3308263.0, 3316845.0 ], [ 3323655.0, 3325141.0 ], [ 3335948.0, 3324848.0 ], [ 3355680.0, 3332788.0 ], [ 3365947.0, 3342905.0 ], [ 3374202.0, 3358839.0 ], [ 3382754.0, 3361871.0 ], [ 3373856.0, 3362695.0 ], [ 3371368.0, 3369658.0 ], [ 3377531.0, 3380240.0 ], [ 3374164.0, 3392320.0 ], [ 3375361.0, 3403393.0 ], [ 3359183.0, 3404862.0 ], [ 3348438.0, 3395131.0 ], [ 3344680.0, 3399933.0 ], [ 3333932.0, 3399780.0 ], [ 3342835.0, 3409508.0 ], [ 3364601.0, 3419582.0 ], [ 3368352.0, 3428693.0 ], [ 3379634.0, 3437189.0 ], [ 3402951.0, 3442130.0 ], [ 3405614.0, 3445626.0 ], [ 3418975.0, 3438913.0 ], [ 3436880.0, 3442236.0 ], [ 3453179.0, 3428337.0 ], [ 3449052.0, 3443467.0 ], [ 3458597.0, 3447526.0 ], [ 3464414.0, 3432207.0 ], [ 3476071.0, 3430849.0 ], [ 3463998.0, 3439340.0 ], [ 3458442.0, 3460539.0 ], [ 3473688.0, 3477962.0 ], [ 3478837.0, 3476521.0 ], [ 3467711.0, 3480454.0 ], [ 3465447.0, 3485111.0 ], [ 3468067.0, 3495894.0 ], [ 3480776.0, 3505706.0 ], [ 3479913.0, 3511552.0 ], [ 3487516.0, 3518898.0 ], [ 3485613.0, 3526833.0 ], [ 3477712.0, 3525682.0 ], [ 3475726.0, 3533294.0 ], [ 3465993.0, 3520985.0 ], [ 3459045.0, 3524905.0 ], [ 3465253.0, 3537349.0 ], [ 3464242.0, 3540200.0 ], [ 3459366.0, 3534744.0 ], [ 3454068.0, 3541652.0 ], [ 3453070.0, 3552868.0 ], [ 3444804.0, 3572434.0 ], [ 3450867.0, 3587128.0 ], [ 3466828.0, 3609041.0 ], [ 3472556.0, 3610198.0 ], [ 3476636.0, 3615724.0 ], [ 3485013.0, 3612132.0 ], [ 3490105.0, 3617889.0 ], [ 3458555.0, 3622453.0 ], [ 3453775.0, 3612941.0 ], [ 3439843.0, 3612285.0 ], [ 3426466.0, 3605878.0 ], [ 3422331.0, 3609554.0 ], [ 3417688.0, 3608593.0 ], [ 3404196.0, 3622137.0 ], [ 3403489.0, 3608091.0 ], [ 3398435.0, 3601716.0 ], [ 3375996.0, 3625049.0 ], [ 3369024.0, 3622762.0 ], [ 3368465.0, 3606954.0 ], [ 3365014.0, 3605358.0 ], [ 3356271.0, 3634813.0 ], [ 3361071.0, 3646235.0 ], [ 3366572.0, 3634662.0 ], [ 3366509.0, 3648202.0 ], [ 3371976.0, 3657304.0 ], [ 3382613.0, 3666817.0 ], [ 3394022.0, 3685061.0 ], [ 3401783.0, 3689149.0 ], [ 3403235.0, 3701218.0 ], [ 3391786.0, 3718678.0 ], [ 3398789.0, 3744179.0 ], [ 3402038.0, 3745705.0 ], [ 3420755.0, 3737887.0 ], [ 3428694.0, 3730643.0 ], [ 3407408.0, 3750165.0 ], [ 3401372.0, 3750551.0 ], [ 3402088.0, 3758634.0 ], [ 3412437.0, 3771494.0 ], [ 3387096.0, 3740061.0 ], [ 3383741.0, 3730444.0 ], [ 3371971.0, 3744017.0 ], [ 3373574.0, 3760037.0 ], [ 3369193.0, 3758718.0 ], [ 3364778.0, 3733140.0 ], [ 3344564.0, 3693753.0 ], [ 3337210.0, 3687294.0 ], [ 3330068.0, 3690656.0 ], [ 3347602.0, 3732289.0 ], [ 3350958.0, 3756377.0 ], [ 3361598.0, 3779295.0 ], [ 3362396.0, 3791881.0 ], [ 3385565.0, 3824615.0 ], [ 3365473.0, 3819151.0 ], [ 3351551.0, 3828448.0 ], [ 3346178.0, 3846947.0 ], [ 3363213.0, 3854703.0 ], [ 3364988.0, 3865759.0 ], [ 3377333.0, 3886285.0 ], [ 3360572.0, 3881504.0 ], [ 3361289.0, 3891784.0 ], [ 3345554.0, 3897384.0 ], [ 3337455.0, 3918961.0 ], [ 3329489.0, 3924085.0 ], [ 3326583.0, 3933717.0 ], [ 3337918.0, 3943412.0 ], [ 3346026.0, 3940649.0 ], [ 3355370.0, 3951560.0 ], [ 3361403.0, 3939362.0 ], [ 3361205.0, 3920553.0 ], [ 3366470.0, 3921142.0 ], [ 3365794.0, 3906806.0 ], [ 3373591.0, 3901872.0 ], [ 3395470.0, 3908045.0 ], [ 3380650.0, 3911325.0 ], [ 3378150.0, 3916517.0 ], [ 3380308.0, 3930429.0 ], [ 3388540.0, 3932903.0 ], [ 3386714.0, 3941861.0 ], [ 3390480.0, 3961305.0 ], [ 3395153.0, 3963218.0 ], [ 3399164.0, 3958234.0 ], [ 3402926.0, 3966573.0 ], [ 3409327.0, 3963209.0 ], [ 3422950.0, 3965228.0 ], [ 3418615.0, 3982766.0 ], [ 3425025.0, 3986524.0 ], [ 3427149.0, 3999889.0 ], [ 3438000.0, 4003117.0 ], [ 3441496.0, 4016927.0 ], [ 3453750.0, 4035146.0 ], [ 3470175.0, 4028830.0 ], [ 3471826.0, 4021755.0 ], [ 3479944.0, 4026569.0 ], [ 3487932.0, 4019187.0 ], [ 3508507.0, 4022640.0 ], [ 3544607.0, 4018722.0 ], [ 3550752.0, 4022631.0 ], [ 3565178.0, 4015936.0 ], [ 3556566.0, 3989624.0 ], [ 3501065.0, 3955533.0 ], [ 3491862.0, 3942864.0 ], [ 3499765.0, 3936993.0 ], [ 3498887.0, 3932581.0 ], [ 3474869.0, 3909504.0 ], [ 3461377.0, 3908521.0 ], [ 3475876.0, 3905090.0 ], [ 3487505.0, 3914502.0 ], [ 3495361.0, 3912767.0 ], [ 3510814.0, 3917673.0 ], [ 3514075.0, 3913951.0 ], [ 3521497.0, 3920054.0 ], [ 3529722.0, 3920939.0 ], [ 3542487.0, 3913460.0 ], [ 3603664.0, 3904268.0 ], [ 3611862.0, 3900262.0 ], [ 3616627.0, 3889782.0 ], [ 3615472.0, 3875080.0 ], [ 3598128.0, 3855359.0 ], [ 3578530.0, 3816397.0 ], [ 3564651.0, 3804905.0 ], [ 3555406.0, 3787152.0 ], [ 3540172.0, 3777243.0 ], [ 3520820.0, 3779175.0 ], [ 3505046.0, 3769867.0 ], [ 3530306.0, 3776612.0 ], [ 3534955.0, 3773978.0 ], [ 3531645.0, 3766197.0 ], [ 3544243.0, 3754037.0 ], [ 3530097.0, 3746952.0 ], [ 3520878.0, 3750419.0 ], [ 3504633.0, 3737777.0 ], [ 3490496.0, 3735202.0 ], [ 3474214.0, 3741695.0 ], [ 3467843.0, 3749214.0 ], [ 3464394.0, 3750526.0 ], [ 3471521.0, 3740592.0 ], [ 3503729.0, 3728318.0 ], [ 3508635.0, 3723384.0 ], [ 3519330.0, 3725264.0 ], [ 3524978.0, 3731716.0 ], [ 3537285.0, 3730337.0 ], [ 3552262.0, 3715466.0 ], [ 3564620.0, 3710302.0 ], [ 3578712.0, 3678547.0 ], [ 3589863.0, 3664639.0 ], [ 3592155.0, 3610216.0 ], [ 3603502.0, 3560128.0 ], [ 3602325.0, 3555457.0 ], [ 3596712.0, 3554947.0 ], [ 3596348.0, 3554576.0 ], [ 3595840.0, 3552914.0 ], [ 3603304.0, 3555097.0 ], [ 3604934.0, 3558975.0 ], [ 3625690.0, 3547013.0 ], [ 3639511.0, 3533348.0 ], [ 3646937.0, 3510956.0 ], [ 3660973.0, 3491725.0 ], [ 3655732.0, 3483998.0 ], [ 3656090.0, 3470707.0 ], [ 3667040.0, 3439463.0 ], [ 3656150.0, 3439211.0 ], [ 3647071.0, 3450671.0 ], [ 3627778.0, 3450866.0 ], [ 3622512.0, 3453742.0 ], [ 3617035.0, 3449587.0 ], [ 3621985.0, 3451586.0 ], [ 3628441.0, 3447683.0 ], [ 3643756.0, 3448484.0 ], [ 3670359.0, 3418139.0 ], [ 3678255.0, 3387918.0 ], [ 3675718.0, 3375768.0 ], [ 3654331.0, 3357593.0 ], [ 3665821.0, 3344364.0 ], [ 3674879.0, 3343385.0 ], [ 3688259.0, 3359258.0 ], [ 3729487.0, 3351371.0 ], [ 3740570.0, 3346695.0 ], [ 3753519.0, 3333313.0 ], [ 3760200.0, 3324801.0 ], [ 3763000.0, 3313161.0 ], [ 3759388.0, 3287350.0 ], [ 3743489.0, 3253008.0 ], [ 3727260.0, 3240270.0 ], [ 3707889.0, 3242285.0 ], [ 3720434.0, 3239100.0 ], [ 3719377.0, 3229524.0 ], [ 3710205.0, 3223542.0 ], [ 3702117.0, 3226554.0 ], [ 3691082.0, 3225287.0 ], [ 3688899.0, 3219481.0 ], [ 3696314.0, 3220636.0 ], [ 3697257.0, 3217840.0 ], [ 3694723.0, 3207893.0 ], [ 3671574.0, 3210859.0 ], [ 3689774.0, 3205796.0 ], [ 3686128.0, 3198891.0 ], [ 3669213.0, 3197768.0 ], [ 3664856.0, 3200561.0 ], [ 3655094.0, 3193279.0 ], [ 3639865.0, 3201933.0 ], [ 3636000.0, 3202680.0 ], [ 3621608.0, 3204117.0 ], [ 3614989.0, 3200182.0 ] ] ], [ [ [ 5084901.655595692805946, 3890111.813099726568907 ], [ 5006474.74994430039078, 3819547.387461134698242 ], [ 5010277.0, 3825515.0 ], [ 5007258.0, 3851724.0 ], [ 5017961.0, 3885338.0 ], [ 5066018.0, 3915862.0 ], [ 5073813.0, 3897899.0 ], [ 5084901.655595692805946, 3890111.813099726568907 ] ] ], [ [ [ 5046975.0, 4011696.0 ], [ 5055003.0, 4007977.0 ], [ 5069424.0, 4014119.0 ], [ 5092809.0, 4001395.0 ], [ 5084657.0, 3999330.0 ], [ 5073576.0, 3979178.0 ], [ 5064876.0, 3974168.0 ], [ 5065143.0, 3969256.0 ], [ 5052529.0, 3968805.0 ], [ 5040884.0, 3960748.0 ], [ 5038830.0, 3937614.0 ], [ 5032165.0, 3929050.0 ], [ 5028488.0, 3935212.0 ], [ 5036222.0, 3954875.0 ], [ 5015031.0, 3966574.0 ], [ 5019597.0, 3976533.0 ], [ 5013776.0, 3992555.0 ], [ 5018921.0, 3991746.0 ], [ 5025272.0, 3984688.0 ], [ 5028954.0, 3996866.0 ], [ 5034200.0, 3995597.0 ], [ 5034853.0, 4002361.0 ], [ 5046975.0, 4011696.0 ] ] ], [ [ [ 5328162.367885089479387, 4108985.072226342745125 ], [ 5167064.820128640159965, 3964037.928962153848261 ], [ 5166847.0, 4001728.0 ], [ 5157034.0, 4003630.0 ], [ 5150766.0, 3992155.0 ], [ 5143466.0, 3987721.0 ], [ 5121559.0, 3996834.0 ], [ 5104176.0, 4019920.0 ], [ 5102857.0, 4028321.0 ], [ 5106353.0, 4036453.0 ], [ 5096660.0, 4043347.0 ], [ 5089990.0, 4066687.0 ], [ 5091173.0, 4084690.0 ], [ 5108647.0, 4098621.0 ], [ 5110090.0, 4105715.0 ], [ 5112532.0, 4099742.0 ], [ 5118119.0, 4100799.0 ], [ 5117438.0, 4108468.0 ], [ 5125149.0, 4109423.0 ], [ 5131805.0, 4122710.0 ], [ 5154035.0, 4126753.0 ], [ 5154563.0, 4136782.0 ], [ 5165028.0, 4133127.0 ], [ 5176222.0, 4138297.0 ], [ 5188134.0, 4138945.0 ], [ 5192813.0, 4144430.0 ], [ 5191864.0, 4152254.0 ], [ 5199774.0, 4151240.0 ], [ 5200317.0, 4158527.0 ], [ 5209290.0, 4151086.0 ], [ 5210939.0, 4156826.0 ], [ 5215202.0, 4154899.0 ], [ 5219287.0, 4160051.0 ], [ 5247650.0, 4154992.0 ], [ 5254990.0, 4159412.0 ], [ 5274489.0, 4152058.0 ], [ 5297590.0, 4158710.0 ], [ 5323532.0, 4159582.0 ], [ 5329525.0, 4162970.0 ], [ 5333199.0, 4170603.0 ], [ 5343041.0, 4165071.0 ], [ 5342570.0, 4152718.0 ], [ 5333198.0, 4145241.0 ], [ 5329827.0, 4111742.0 ], [ 5328162.367885089479387, 4108985.072226342745125 ] ] ], [ [ [ 4859871.0, 4181870.0 ], [ 4877888.0, 4183545.0 ], [ 4878000.0, 4178773.0 ], [ 4881537.0, 4178684.0 ], [ 4887280.0, 4170751.0 ], [ 4884359.0, 4160196.0 ], [ 4875305.0, 4163013.0 ], [ 4879249.0, 4149670.0 ], [ 4885808.0, 4150690.0 ], [ 4890761.0, 4170668.0 ], [ 4896588.0, 4169847.0 ], [ 4891291.0, 4161365.0 ], [ 4889734.0, 4141209.0 ], [ 4885612.0, 4140806.0 ], [ 4874620.0, 4150953.0 ], [ 4873717.0, 4148304.0 ], [ 4863339.0, 4148954.0 ], [ 4858510.0, 4157282.0 ], [ 4850248.0, 4154284.0 ], [ 4849567.0, 4163419.0 ], [ 4852099.0, 4168138.0 ], [ 4854794.0, 4166181.0 ], [ 4859451.0, 4169602.0 ], [ 4859871.0, 4181870.0 ] ] ], [ [ [ 4627719.0, 3582386.0 ], [ 4649627.0, 3570291.0 ], [ 4646200.0, 3553946.0 ], [ 4619848.0, 3564435.0 ], [ 4624075.0, 3587145.0 ], [ 4627719.0, 3582386.0 ] ] ], [ [ [ 4416319.0, 3526654.0 ], [ 4426994.0, 3529567.0 ], [ 4427495.0, 3532900.0 ], [ 4432647.0, 3532229.0 ], [ 4433645.0, 3539621.0 ], [ 4438698.0, 3540631.0 ], [ 4451276.0, 3534041.0 ], [ 4453033.0, 3537870.0 ], [ 4458911.0, 3527198.0 ], [ 4448529.0, 3511038.0 ], [ 4447636.0, 3497392.0 ], [ 4441740.0, 3514521.0 ], [ 4437095.0, 3505894.0 ], [ 4427266.0, 3507215.0 ], [ 4415353.0, 3501789.0 ], [ 4385427.0, 3518585.0 ], [ 4384886.0, 3522547.0 ], [ 4389603.0, 3523505.0 ], [ 4386788.0, 3532938.0 ], [ 4390310.0, 3537482.0 ], [ 4399510.0, 3539912.0 ], [ 4416319.0, 3526654.0 ] ] ], [ [ [ 4576369.711100248619914, 3443715.390299833845347 ], [ 3726251.04699539532885, 3062203.559635594952852 ], [ 3722364.0, 3066950.0 ], [ 3729929.0, 3117837.0 ], [ 3744145.0, 3125880.0 ], [ 3799789.0, 3135289.0 ], [ 3847776.0, 3160302.0 ], [ 3870512.0, 3163750.0 ], [ 3893664.0, 3154443.0 ], [ 3903549.0, 3160211.0 ], [ 3910889.0, 3154930.0 ], [ 3920366.0, 3153923.0 ], [ 3902736.0, 3166405.0 ], [ 3891924.0, 3160576.0 ], [ 3883951.0, 3167644.0 ], [ 3874202.0, 3168216.0 ], [ 3867842.0, 3178029.0 ], [ 3875365.0, 3183510.0 ], [ 3892767.0, 3183642.0 ], [ 3912411.0, 3164631.0 ], [ 3918814.0, 3164315.0 ], [ 3917592.0, 3171206.0 ], [ 3906052.0, 3179800.0 ], [ 3908734.0, 3184579.0 ], [ 3886055.0, 3194428.0 ], [ 3900430.0, 3207330.0 ], [ 3910815.0, 3209305.0 ], [ 3908929.0, 3222599.0 ], [ 3918217.0, 3226298.0 ], [ 3946031.0, 3260714.0 ], [ 3967833.0, 3329489.0 ], [ 3977074.0, 3321597.0 ], [ 4009850.0, 3340929.0 ], [ 4016702.0, 3354251.0 ], [ 4027929.0, 3363944.0 ], [ 4048000.0, 3371970.0 ], [ 4075905.0, 3372159.0 ], [ 4106028.0, 3377792.0 ], [ 4112440.0, 3375501.0 ], [ 4115814.0, 3364057.0 ], [ 4126252.0, 3358441.0 ], [ 4127018.0, 3353761.0 ], [ 4134708.0, 3351905.0 ], [ 4138750.0, 3360935.0 ], [ 4121277.0, 3365454.0 ], [ 4124927.0, 3383599.0 ], [ 4130252.0, 3384442.0 ], [ 4128977.0, 3389181.0 ], [ 4142136.0, 3400091.0 ], [ 4189300.0, 3401924.0 ], [ 4198018.0, 3389040.0 ], [ 4199137.0, 3382218.0 ], [ 4192373.0, 3379298.0 ], [ 4194021.0, 3373767.0 ], [ 4201005.0, 3368300.0 ], [ 4205172.0, 3367794.0 ], [ 4208475.0, 3373087.0 ], [ 4208196.0, 3380022.0 ], [ 4204097.0, 3382536.0 ], [ 4208258.0, 3390309.0 ], [ 4225157.0, 3380667.0 ], [ 4220979.0, 3398911.0 ], [ 4225705.0, 3413543.0 ], [ 4244479.0, 3435837.0 ], [ 4253394.0, 3438871.0 ], [ 4250964.0, 3446400.0 ], [ 4245836.0, 3447844.0 ], [ 4243263.0, 3453869.0 ], [ 4245717.0, 3462796.0 ], [ 4232681.0, 3469148.0 ], [ 4236331.0, 3476117.0 ], [ 4247761.0, 3479503.0 ], [ 4251686.0, 3484622.0 ], [ 4246170.0, 3487954.0 ], [ 4246774.0, 3501091.0 ], [ 4234470.0, 3523339.0 ], [ 4234562.0, 3587311.0 ], [ 4212800.0, 3608900.0 ], [ 4210320.0, 3601402.0 ], [ 4201325.0, 3607539.0 ], [ 4206098.0, 3644560.0 ], [ 4214332.0, 3641411.0 ], [ 4218598.0, 3648910.0 ], [ 4213740.0, 3663544.0 ], [ 4203958.0, 3666589.0 ], [ 4205730.0, 3690983.0 ], [ 4212447.0, 3693264.0 ], [ 4205334.0, 3710038.0 ], [ 4206015.0, 3719794.0 ], [ 4209486.0, 3730491.0 ], [ 4216245.0, 3721020.0 ], [ 4231480.0, 3718496.0 ], [ 4235395.0, 3711040.0 ], [ 4240641.0, 3709502.0 ], [ 4243658.0, 3716624.0 ], [ 4241489.0, 3725510.0 ], [ 4260299.0, 3748574.0 ], [ 4269211.0, 3735465.0 ], [ 4263535.0, 3719865.0 ], [ 4268629.0, 3725201.0 ], [ 4277210.0, 3724679.0 ], [ 4279241.0, 3730087.0 ], [ 4272389.0, 3733085.0 ], [ 4273257.0, 3763247.0 ], [ 4267555.0, 3769422.0 ], [ 4239903.0, 3758869.0 ], [ 4241465.0, 3755504.0 ], [ 4251655.0, 3760337.0 ], [ 4253860.0, 3758138.0 ], [ 4250400.0, 3742026.0 ], [ 4243433.0, 3732565.0 ], [ 4238400.0, 3731752.0 ], [ 4233392.0, 3736300.0 ], [ 4236306.0, 3748692.0 ], [ 4229560.0, 3743922.0 ], [ 4228778.0, 3734542.0 ], [ 4220625.0, 3732974.0 ], [ 4213708.0, 3743712.0 ], [ 4220558.0, 3760692.0 ], [ 4235913.0, 3779203.0 ], [ 4283266.0, 3785971.0 ], [ 4295889.0, 3796126.0 ], [ 4318443.0, 3830304.0 ], [ 4350782.0, 3843705.0 ], [ 4348259.0, 3830462.0 ], [ 4352818.0, 3815112.0 ], [ 4353003.0, 3794730.0 ], [ 4338852.0, 3759221.0 ], [ 4339243.0, 3736836.0 ], [ 4332923.0, 3731303.0 ], [ 4341016.0, 3730412.0 ], [ 4347805.0, 3714787.0 ], [ 4371987.0, 3712873.0 ], [ 4377941.0, 3705765.0 ], [ 4376952.0, 3695300.0 ], [ 4365129.0, 3673677.0 ], [ 4359458.0, 3679528.0 ], [ 4353633.0, 3669310.0 ], [ 4347756.0, 3675483.0 ], [ 4349573.0, 3684990.0 ], [ 4345399.0, 3684973.0 ], [ 4336295.0, 3673070.0 ], [ 4337412.0, 3653184.0 ], [ 4333475.0, 3640334.0 ], [ 4326575.0, 3636391.0 ], [ 4318750.0, 3621846.0 ], [ 4307968.0, 3619526.0 ], [ 4300375.0, 3623120.0 ], [ 4309215.0, 3612331.0 ], [ 4300197.0, 3601016.0 ], [ 4296615.0, 3589564.0 ], [ 4298937.0, 3577020.0 ], [ 4305028.0, 3572508.0 ], [ 4299724.0, 3565144.0 ], [ 4290743.0, 3561425.0 ], [ 4288282.0, 3548464.0 ], [ 4300450.0, 3544653.0 ], [ 4300357.0, 3549730.0 ], [ 4306241.0, 3552071.0 ], [ 4318695.0, 3543785.0 ], [ 4324316.0, 3531263.0 ], [ 4319119.0, 3527860.0 ], [ 4306726.0, 3532674.0 ], [ 4303174.0, 3527693.0 ], [ 4295176.0, 3532660.0 ], [ 4283725.0, 3525289.0 ], [ 4285147.0, 3522244.0 ], [ 4294217.0, 3527700.0 ], [ 4312150.0, 3516426.0 ], [ 4317749.0, 3519219.0 ], [ 4323013.0, 3503397.0 ], [ 4316969.0, 3486071.0 ], [ 4327445.0, 3484918.0 ], [ 4331939.0, 3480738.0 ], [ 4332329.0, 3471046.0 ], [ 4336154.0, 3478216.0 ], [ 4343548.0, 3480660.0 ], [ 4367472.0, 3466736.0 ], [ 4381125.0, 3474950.0 ], [ 4391365.0, 3475991.0 ], [ 4391425.0, 3481108.0 ], [ 4386757.0, 3484003.0 ], [ 4389826.0, 3491715.0 ], [ 4400288.0, 3488921.0 ], [ 4405472.0, 3479079.0 ], [ 4396161.0, 3478087.0 ], [ 4391820.0, 3472427.0 ], [ 4391885.0, 3455965.0 ], [ 4372061.0, 3441367.0 ], [ 4371134.0, 3435904.0 ], [ 4380329.0, 3428122.0 ], [ 4396903.0, 3434700.0 ], [ 4404249.0, 3426414.0 ], [ 4408791.0, 3427767.0 ], [ 4415932.0, 3423966.0 ], [ 4417910.0, 3428796.0 ], [ 4412052.0, 3432942.0 ], [ 4423357.0, 3436787.0 ], [ 4431225.0, 3450001.0 ], [ 4460004.0, 3455266.0 ], [ 4474389.0, 3470422.0 ], [ 4478371.0, 3467987.0 ], [ 4481696.0, 3470549.0 ], [ 4483020.0, 3481762.0 ], [ 4486836.0, 3486047.0 ], [ 4502766.0, 3477574.0 ], [ 4507170.0, 3483495.0 ], [ 4514748.0, 3483340.0 ], [ 4524913.0, 3471236.0 ], [ 4527884.0, 3480994.0 ], [ 4526167.0, 3492913.0 ], [ 4533664.0, 3509944.0 ], [ 4539315.0, 3509655.0 ], [ 4539050.0, 3499434.0 ], [ 4547473.0, 3488774.0 ], [ 4547512.0, 3499595.0 ], [ 4556280.0, 3499699.0 ], [ 4554983.0, 3488177.0 ], [ 4561664.0, 3475898.0 ], [ 4548074.0, 3474045.0 ], [ 4537972.0, 3463426.0 ], [ 4537622.0, 3459062.0 ], [ 4548064.0, 3449653.0 ], [ 4570011.0, 3457661.0 ], [ 4576959.0, 3447020.0 ], [ 4576369.711100248619914, 3443715.390299833845347 ] ], [ [ 4299941.0, 3490468.0 ], [ 4299863.0, 3487847.0 ], [ 4317438.0, 3503376.0 ], [ 4312118.0, 3499799.0 ], [ 4299941.0, 3490468.0 ] ] ], [ [ [ 4352261.0, 3604463.0 ], [ 4349883.0, 3592902.0 ], [ 4358745.0, 3597816.0 ], [ 4360663.0, 3610177.0 ], [ 4367675.0, 3598248.0 ], [ 4363737.0, 3593960.0 ], [ 4371993.0, 3580686.0 ], [ 4372628.0, 3566229.0 ], [ 4363792.0, 3538752.0 ], [ 4361964.0, 3542904.0 ], [ 4359244.0, 3538891.0 ], [ 4355670.0, 3540187.0 ], [ 4354642.0, 3547160.0 ], [ 4337081.0, 3553605.0 ], [ 4331428.0, 3553374.0 ], [ 4330582.0, 3545925.0 ], [ 4327996.0, 3550409.0 ], [ 4329742.0, 3560768.0 ], [ 4314800.0, 3570839.0 ], [ 4310022.0, 3587645.0 ], [ 4301166.0, 3599796.0 ], [ 4308889.0, 3604901.0 ], [ 4317139.0, 3601045.0 ], [ 4332645.0, 3611426.0 ], [ 4341239.0, 3612275.0 ], [ 4352261.0, 3604463.0 ] ] ], [ [ [ 4483004.0, 3636653.0 ], [ 4489492.0, 3612717.0 ], [ 4483207.0, 3609357.0 ], [ 4478794.0, 3617505.0 ], [ 4462601.0, 3606569.0 ], [ 4461580.0, 3593304.0 ], [ 4472049.0, 3587798.0 ], [ 4474694.0, 3579880.0 ], [ 4458412.0, 3566788.0 ], [ 4456355.0, 3545995.0 ], [ 4451805.0, 3543464.0 ], [ 4444261.0, 3545882.0 ], [ 4435635.0, 3553050.0 ], [ 4430484.0, 3563753.0 ], [ 4400385.0, 3570944.0 ], [ 4393888.0, 3582628.0 ], [ 4396011.0, 3591990.0 ], [ 4392729.0, 3608188.0 ], [ 4384948.0, 3622683.0 ], [ 4402709.0, 3628672.0 ], [ 4417249.0, 3649277.0 ], [ 4427098.0, 3651187.0 ], [ 4428870.0, 3648900.0 ], [ 4427398.0, 3634892.0 ], [ 4433048.0, 3618558.0 ], [ 4443270.0, 3640077.0 ], [ 4437023.0, 3653124.0 ], [ 4462352.0, 3671375.0 ], [ 4483538.0, 3663188.0 ], [ 4479046.0, 3649252.0 ], [ 4483004.0, 3636653.0 ] ], [ [ 4450623.0, 3620229.0 ], [ 4453539.0, 3626759.0 ], [ 4452172.0, 3632632.0 ], [ 4445503.0, 3626797.0 ], [ 4445541.0, 3622030.0 ], [ 4450623.0, 3620229.0 ] ] ], [ [ [ 4967896.0, 4811191.0 ], [ 4953153.0, 4804401.0 ], [ 4946759.0, 4807403.0 ], [ 4935475.0, 4799292.0 ], [ 4926737.0, 4802631.0 ], [ 4929228.0, 4793954.0 ], [ 4922885.0, 4791713.0 ], [ 4901442.0, 4804686.0 ], [ 4901939.0, 4793388.0 ], [ 4887682.0, 4799098.0 ], [ 4892148.0, 4761763.0 ], [ 4887873.0, 4766576.0 ], [ 4886497.0, 4763562.0 ], [ 4883708.0, 4765267.0 ], [ 4880904.0, 4759358.0 ], [ 4874144.0, 4759265.0 ], [ 4877437.0, 4751616.0 ], [ 4869776.0, 4742058.0 ], [ 4859966.0, 4742376.0 ], [ 4865200.0, 4732502.0 ], [ 4862802.0, 4723524.0 ], [ 4865014.0, 4706862.0 ], [ 4855091.0, 4692698.0 ], [ 4850167.0, 4676850.0 ], [ 4856904.0, 4671046.0 ], [ 4858976.0, 4658401.0 ], [ 4871684.0, 4650797.0 ], [ 4877899.0, 4637555.0 ], [ 4856863.0, 4602921.0 ], [ 4847039.0, 4562825.0 ], [ 4842779.0, 4556752.0 ], [ 4838937.0, 4559740.0 ], [ 4836812.0, 4547454.0 ], [ 4831815.0, 4551428.0 ], [ 4830914.0, 4544394.0 ], [ 4819324.0, 4542449.0 ], [ 4812140.0, 4534326.0 ], [ 4807102.0, 4526041.0 ], [ 4806646.0, 4516520.0 ], [ 4802703.0, 4515996.0 ], [ 4793035.0, 4526843.0 ], [ 4794649.0, 4513083.0 ], [ 4784816.0, 4515904.0 ], [ 4783745.0, 4502440.0 ], [ 4776932.0, 4486869.0 ], [ 4763247.0, 4481207.0 ], [ 4759351.0, 4475355.0 ], [ 4754920.0, 4476350.0 ], [ 4750188.0, 4462372.0 ], [ 4751306.0, 4447597.0 ], [ 4741408.0, 4441921.0 ], [ 4736230.0, 4423230.0 ], [ 4733382.0, 4425186.0 ], [ 4732785.0, 4435508.0 ], [ 4727161.0, 4436436.0 ], [ 4731809.0, 4430844.0 ], [ 4731203.0, 4409109.0 ], [ 4717310.0, 4392140.0 ], [ 4707226.0, 4394683.0 ], [ 4706101.0, 4379179.0 ], [ 4715868.0, 4368150.0 ], [ 4708103.0, 4327334.0 ], [ 4718132.0, 4305581.0 ], [ 4704630.0, 4308891.0 ], [ 4700808.0, 4291059.0 ], [ 4707729.0, 4264935.0 ], [ 4707353.0, 4251273.0 ], [ 4712163.0, 4232271.0 ], [ 4710326.0, 4224892.0 ], [ 4720199.0, 4210617.0 ], [ 4718882.0, 4197921.0 ], [ 4724468.0, 4193685.0 ], [ 4738776.0, 4193147.0 ], [ 4738259.0, 4186615.0 ], [ 4743420.0, 4181303.0 ], [ 4758463.0, 4189984.0 ], [ 4762325.0, 4181654.0 ], [ 4778201.0, 4165716.0 ], [ 4785413.0, 4166908.0 ], [ 4783947.0, 4183731.0 ], [ 4789769.0, 4169468.0 ], [ 4793381.0, 4169484.0 ], [ 4799654.0, 4160276.0 ], [ 4798420.0, 4154156.0 ], [ 4801317.0, 4150984.0 ], [ 4795918.0, 4149622.0 ], [ 4793848.0, 4144831.0 ], [ 4803438.0, 4144270.0 ], [ 4808007.0, 4147424.0 ], [ 4827043.0, 4116734.0 ], [ 4829008.0, 4102717.0 ], [ 4815843.0, 4091848.0 ], [ 4809727.0, 4068907.0 ], [ 4800857.0, 4069298.0 ], [ 4794086.0, 4061455.0 ], [ 4798174.0, 4057094.0 ], [ 4803923.0, 4060527.0 ], [ 4814273.0, 4058324.0 ], [ 4819681.0, 4051164.0 ], [ 4820128.0, 4044137.0 ], [ 4815568.0, 4047699.0 ], [ 4806527.0, 4044610.0 ], [ 4797241.0, 4047866.0 ], [ 4803665.0, 4025407.0 ], [ 4797921.0, 4027347.0 ], [ 4788888.0, 4022025.0 ], [ 4788330.0, 4015415.0 ], [ 4776928.0, 3996156.0 ], [ 4765121.0, 4014464.0 ], [ 4761740.0, 4007100.0 ], [ 4756741.0, 4006532.0 ], [ 4759694.0, 4000372.0 ], [ 4744660.0, 3980110.0 ], [ 4733422.0, 3979444.0 ], [ 4734052.0, 3972999.0 ], [ 4726698.0, 3967019.0 ], [ 4713203.0, 3965906.0 ], [ 4713417.0, 3962291.0 ], [ 4724414.0, 3952957.0 ], [ 4718982.0, 3943090.0 ], [ 4723635.0, 3926645.0 ], [ 4718652.0, 3925107.0 ], [ 4725349.0, 3910880.0 ], [ 4715178.0, 3895576.0 ], [ 4722755.0, 3892292.0 ], [ 4718524.0, 3852583.0 ], [ 4722067.0, 3851947.0 ], [ 4723114.0, 3835963.0 ], [ 4712414.0, 3813335.0 ], [ 4717870.0, 3792186.0 ], [ 4713081.0, 3780109.0 ], [ 4710818.0, 3749328.0 ], [ 4704430.0, 3739396.0 ], [ 4695821.0, 3700195.0 ], [ 4681734.0, 3675757.0 ], [ 4672373.0, 3681062.0 ], [ 4676096.0, 3686869.0 ], [ 4668152.0, 3687042.0 ], [ 4666947.0, 3690040.0 ], [ 4658575.0, 3682749.0 ], [ 4651470.0, 3681603.0 ], [ 4650146.0, 3685975.0 ], [ 4612704.0, 3681803.0 ], [ 4618198.0, 3668997.0 ], [ 4615718.0, 3665105.0 ], [ 4609528.0, 3664276.0 ], [ 4604193.0, 3670894.0 ], [ 4592711.0, 3658742.0 ], [ 4586066.0, 3644542.0 ], [ 4585732.0, 3630758.0 ], [ 4595504.0, 3613086.0 ], [ 4585501.0, 3594717.0 ], [ 4557527.0, 3597421.0 ], [ 4532838.0, 3586826.0 ], [ 4501926.0, 3591245.0 ], [ 4507599.0, 3596848.0 ], [ 4505079.0, 3611897.0 ], [ 4512768.0, 3622822.0 ], [ 4497064.0, 3644595.0 ], [ 4477619.0, 3686722.0 ], [ 4494225.0, 3684762.0 ], [ 4494980.0, 3689828.0 ], [ 4484096.0, 3705184.0 ], [ 4488638.0, 3709837.0 ], [ 4499887.0, 3708682.0 ], [ 4499356.0, 3726927.0 ], [ 4488157.0, 3732288.0 ], [ 4478761.0, 3749642.0 ], [ 4465494.0, 3761541.0 ], [ 4450279.0, 3794633.0 ], [ 4446799.0, 3814693.0 ], [ 4444097.0, 3815579.0 ], [ 4444427.0, 3808204.0 ], [ 4437524.0, 3813645.0 ], [ 4436223.0, 3830455.0 ], [ 4430467.0, 3843823.0 ], [ 4424389.0, 3846312.0 ], [ 4427713.0, 3854454.0 ], [ 4421690.0, 3863236.0 ], [ 4426059.0, 3869758.0 ], [ 4427494.0, 3890928.0 ], [ 4422578.0, 3888658.0 ], [ 4423902.0, 3879541.0 ], [ 4413966.0, 3872371.0 ], [ 4403100.0, 3894298.0 ], [ 4407198.0, 3908694.0 ], [ 4393358.0, 3920038.0 ], [ 4396740.0, 3930601.0 ], [ 4393202.0, 3939915.0 ], [ 4394778.0, 3950544.0 ], [ 4390184.0, 3958433.0 ], [ 4392041.0, 3969285.0 ], [ 4385939.0, 3980026.0 ], [ 4389633.0, 3997449.0 ], [ 4396539.0, 4000507.0 ], [ 4405150.0, 3988392.0 ], [ 4405517.0, 3978169.0 ], [ 4415429.0, 3979174.0 ], [ 4425446.0, 4016571.0 ], [ 4417216.0, 4054541.0 ], [ 4429925.0, 4068272.0 ], [ 4429455.0, 4078126.0 ], [ 4424394.0, 4083583.0 ], [ 4431565.0, 4089831.0 ], [ 4443080.0, 4090194.0 ], [ 4460100.0, 4112715.0 ], [ 4459765.0, 4137048.0 ], [ 4464658.0, 4147724.0 ], [ 4464381.0, 4159286.0 ], [ 4442287.0, 4214022.0 ], [ 4465658.0, 4219983.0 ], [ 4474266.0, 4254580.0 ], [ 4458553.0, 4275700.0 ], [ 4449811.0, 4276441.0 ], [ 4434818.0, 4293862.0 ], [ 4440905.0, 4353715.0 ], [ 4427937.0, 4390422.0 ], [ 4427850.0, 4423602.0 ], [ 4432802.0, 4435571.0 ], [ 4421168.0, 4464507.0 ], [ 4431225.0, 4486817.0 ], [ 4428819.0, 4500571.0 ], [ 4453067.0, 4543178.0 ], [ 4459989.0, 4549354.0 ], [ 4478617.0, 4557934.0 ], [ 4516468.0, 4551785.0 ], [ 4523715.0, 4571855.0 ], [ 4520008.0, 4600058.0 ], [ 4497638.0, 4613816.0 ], [ 4525408.0, 4674222.0 ], [ 4532177.0, 4697071.0 ], [ 4530545.0, 4723203.0 ], [ 4533620.0, 4751829.0 ], [ 4527156.0, 4786496.0 ], [ 4550323.0, 4791214.0 ], [ 4567915.0, 4805745.0 ], [ 4562704.0, 4828004.0 ], [ 4572356.0, 4842152.0 ], [ 4587772.0, 4878504.0 ], [ 4600772.0, 4894399.0 ], [ 4599440.0, 4912245.0 ], [ 4584348.0, 4936892.0 ], [ 4586371.0, 4944893.0 ], [ 4596062.0, 4947885.0 ], [ 4607431.0, 4992285.0 ], [ 4626084.0, 5014979.0 ], [ 4654493.0, 5003397.0 ], [ 4661214.0, 5028322.0 ], [ 4655620.0, 5065449.0 ], [ 4666684.0, 5070686.0 ], [ 4676531.0, 5065390.0 ], [ 4693026.0, 5066914.0 ], [ 4732568.0, 5057863.0 ], [ 4738703.0, 5068212.0 ], [ 4732696.0, 5079326.0 ], [ 4739854.0, 5106385.0 ], [ 4731411.0, 5129958.0 ], [ 4751162.0, 5142449.0 ], [ 4764645.0, 5138997.0 ], [ 4760811.0, 5155397.0 ], [ 4769829.0, 5167709.0 ], [ 4783161.0, 5165874.0 ], [ 4819505.0, 5124254.0 ], [ 4825642.0, 5112252.0 ], [ 4831276.0, 5114574.0 ], [ 4860419.0, 5109116.0 ], [ 4875293.0, 5119162.0 ], [ 4879029.0, 5131816.0 ], [ 4883419.0, 5134975.0 ], [ 4920778.0, 5122265.0 ], [ 4929261.0, 5116281.0 ], [ 4935197.0, 5125106.0 ], [ 4936234.0, 5146753.0 ], [ 4942738.0, 5155135.0 ], [ 4948862.0, 5157262.0 ], [ 4951196.0, 5168151.0 ], [ 4943575.0, 5196557.0 ], [ 4940521.0, 5245374.0 ], [ 4953947.0, 5276996.0 ], [ 4964830.0, 5281647.0 ], [ 4976035.0, 5280618.0 ], [ 4992211.0, 5302014.0 ], [ 5001696.0, 5306184.0 ], [ 5028778.0, 5283264.0 ], [ 5062056.0, 5273664.0 ], [ 5073485.0, 5256243.0 ], [ 5065297.0, 5223804.0 ], [ 5067654.0, 5213234.0 ], [ 5073773.0, 5207018.0 ], [ 5059770.0, 5187302.0 ], [ 5062041.0, 5184696.0 ], [ 5074623.0, 5185424.0 ], [ 5071706.0, 5147135.0 ], [ 5089879.0, 5114895.0 ], [ 5122033.0, 5107691.0 ], [ 5144706.0, 5083447.0 ], [ 5163778.0, 5072815.0 ], [ 5165294.0, 5056154.0 ], [ 5147880.0, 4986533.0 ], [ 5152888.0, 4974254.0 ], [ 5214637.0, 4906582.0 ], [ 5236384.0, 4867893.0 ], [ 5236982.0, 4863740.0 ], [ 5231330.0, 4863011.0 ], [ 5223328.0, 4855026.0 ], [ 5229223.0, 4847163.0 ], [ 5230570.0, 4812360.0 ], [ 5243177.0, 4808100.0 ], [ 5244205.0, 4798507.0 ], [ 5237179.0, 4789487.0 ], [ 5242264.0, 4774218.0 ], [ 5251144.0, 4764905.0 ], [ 5265939.0, 4766653.0 ], [ 5272694.0, 4753862.0 ], [ 5270327.0, 4742810.0 ], [ 5278063.0, 4728078.0 ], [ 5302147.0, 4717808.0 ], [ 5310011.0, 4704577.0 ], [ 5311464.0, 4692208.0 ], [ 5306814.0, 4669259.0 ], [ 5296286.0, 4657446.0 ], [ 5330761.0, 4634017.0 ], [ 5346854.0, 4631549.0 ], [ 5374152.0, 4618937.0 ], [ 5380979.0, 4607575.0 ], [ 5402452.0, 4591047.0 ], [ 5398478.0, 4535951.0 ], [ 5392742.0, 4518430.0 ], [ 5382396.0, 4501680.0 ], [ 5356483.0, 4419439.0 ], [ 5348430.0, 4408493.0 ], [ 5341538.0, 4381211.0 ], [ 5325528.0, 4360283.0 ], [ 5321184.0, 4339357.0 ], [ 5313930.0, 4336240.0 ], [ 5288693.0, 4283534.0 ], [ 5284908.0, 4284474.0 ], [ 5286284.0, 4276513.0 ], [ 5280553.0, 4273029.0 ], [ 5273924.0, 4274327.0 ], [ 5270925.0, 4270068.0 ], [ 5256052.0, 4274181.0 ], [ 5244992.0, 4265364.0 ], [ 5244822.0, 4258370.0 ], [ 5240304.0, 4261908.0 ], [ 5235715.0, 4260889.0 ], [ 5229364.0, 4253451.0 ], [ 5218624.0, 4259109.0 ], [ 5216015.0, 4248668.0 ], [ 5210080.0, 4249717.0 ], [ 5206339.0, 4245123.0 ], [ 5199609.0, 4245192.0 ], [ 5203210.0, 4235342.0 ], [ 5199562.0, 4231813.0 ], [ 5193833.0, 4236999.0 ], [ 5193203.0, 4229182.0 ], [ 5188851.0, 4225846.0 ], [ 5179255.0, 4230432.0 ], [ 5180605.0, 4223039.0 ], [ 5174849.0, 4228444.0 ], [ 5170938.0, 4220285.0 ], [ 5160732.0, 4217964.0 ], [ 5152045.0, 4206016.0 ], [ 5138535.0, 4205206.0 ], [ 5124352.0, 4181881.0 ], [ 5113987.0, 4188388.0 ], [ 5099450.0, 4178476.0 ], [ 5095244.0, 4170400.0 ], [ 5075128.0, 4164589.0 ], [ 5068419.0, 4155394.0 ], [ 5064429.0, 4160634.0 ], [ 5056410.0, 4150719.0 ], [ 5050297.0, 4149461.0 ], [ 5053784.0, 4158908.0 ], [ 5049239.0, 4165469.0 ], [ 5046680.0, 4159320.0 ], [ 5039346.0, 4158833.0 ], [ 5042961.0, 4177752.0 ], [ 5037277.0, 4170617.0 ], [ 5032839.0, 4180152.0 ], [ 5023537.0, 4160479.0 ], [ 5018796.0, 4163906.0 ], [ 5012223.0, 4163199.0 ], [ 5009302.0, 4167478.0 ], [ 5013350.0, 4188531.0 ], [ 5010104.0, 4199609.0 ], [ 5000243.0, 4175678.0 ], [ 4990322.0, 4188014.0 ], [ 4987942.0, 4204578.0 ], [ 4980468.0, 4202618.0 ], [ 4981180.0, 4189564.0 ], [ 4975911.0, 4190671.0 ], [ 4965850.0, 4209678.0 ], [ 4965345.0, 4220011.0 ], [ 4955130.0, 4207723.0 ], [ 4940876.0, 4206956.0 ], [ 4946020.0, 4218550.0 ], [ 4938214.0, 4238384.0 ], [ 4929546.0, 4246315.0 ], [ 4931706.0, 4257569.0 ], [ 4934880.0, 4259360.0 ], [ 4933802.0, 4265731.0 ], [ 4938388.0, 4271776.0 ], [ 4934316.0, 4285689.0 ], [ 4937600.0, 4298434.0 ], [ 4933489.0, 4307414.0 ], [ 4936631.0, 4319419.0 ], [ 4933390.0, 4324862.0 ], [ 4937416.0, 4327355.0 ], [ 4920687.0, 4361636.0 ], [ 4915319.0, 4365115.0 ], [ 4911638.0, 4377392.0 ], [ 4912523.0, 4393384.0 ], [ 4907596.0, 4407947.0 ], [ 4901033.0, 4409230.0 ], [ 4890266.0, 4427865.0 ], [ 4895165.0, 4433216.0 ], [ 4889443.0, 4440525.0 ], [ 4889756.0, 4463210.0 ], [ 4899444.0, 4468689.0 ], [ 4897424.0, 4474143.0 ], [ 4901554.0, 4475324.0 ], [ 4902277.0, 4486590.0 ], [ 4907756.0, 4489219.0 ], [ 4901816.0, 4500632.0 ], [ 4902092.0, 4509379.0 ], [ 4907992.0, 4507509.0 ], [ 4919323.0, 4513314.0 ], [ 4922207.0, 4526302.0 ], [ 4935633.0, 4519882.0 ], [ 4939035.0, 4521543.0 ], [ 4930972.0, 4537215.0 ], [ 4934351.0, 4552317.0 ], [ 4939657.0, 4545073.0 ], [ 4941484.0, 4561661.0 ], [ 4946972.0, 4569728.0 ], [ 4945586.0, 4577470.0 ], [ 4942485.0, 4573904.0 ], [ 4941041.0, 4578720.0 ], [ 4946712.0, 4583714.0 ], [ 4947240.0, 4588772.0 ], [ 4953538.0, 4584327.0 ], [ 4951480.0, 4589058.0 ], [ 4954770.0, 4590309.0 ], [ 4961650.0, 4580557.0 ], [ 4961882.0, 4588900.0 ], [ 4975576.0, 4600257.0 ], [ 4975115.0, 4614967.0 ], [ 4985007.0, 4614223.0 ], [ 4986051.0, 4632709.0 ], [ 5006984.0, 4675177.0 ], [ 5013374.0, 4707068.0 ], [ 5029545.0, 4721058.0 ], [ 5043817.0, 4718156.0 ], [ 5045805.0, 4720361.0 ], [ 5039670.0, 4730771.0 ], [ 5045896.0, 4735813.0 ], [ 5034783.0, 4749474.0 ], [ 5029712.0, 4783993.0 ], [ 5022526.0, 4792222.0 ], [ 5004581.0, 4800426.0 ], [ 4996339.0, 4798252.0 ], [ 4991659.0, 4800715.0 ], [ 4989349.0, 4797456.0 ], [ 4987337.0, 4805997.0 ], [ 4974703.0, 4809441.0 ], [ 4970327.0, 4807157.0 ], [ 4967896.0, 4811191.0 ] ] ] ] } }
]
}
