id,name,country,city_pop,cell_pop,diff_pop,n_cities_included,diff_pop_null,cell_perimeter,cell_area,cell_nNeighbors,avg_nNeighbors_of_neighbors,avg_cell_pop_of_neighbors,avg_diff_pop_of_neighbors,avg_diff_pop_of_neighbors_null
7,Velbert,DE,110692,150594,39902,2,61915.85886814815,97682.2485063374,460326286.3482,5,5.8,1922152.6,314633.6,260046.6072462222
18,Waiblingen // Weinstadt,DE,89650,305265,215615,8,247663.4354725926,136650.001655656,925126698.253724,4,6.5,497855.5,169505,162529.1295288889
74,Wolfsburg,DE,121451,258118,136667,5,154789.6471703704,331830.863594983,6710840671.40163,5,6.6,960201.6,297818.6,303387.7084539259
80,Wuppertal // Hagen // Solingen,DE,1123370,1444544,321174,12,371495.1532088889,164304.218056691,1743132643.50324,5,6.4,1616699,341092,291004.5366802963
82,Wurzburg,DE,170664,354584,183920,7,216705.5060385185,364779.920848188,7171449607.07025,7,6.857142857142857,477228.4285714286,251885.57142857142,283043.92625439155
90,Zwickau,DE,112864,762938.7,650074.7,21,650116.5181155555,314781.715365735,5657465557.80386,5,6.2,319739.22,175854.62,229088.67781214815
95,Lorrach // Weil am Rhein // Saint-Louis,DE // FR,135378,293153,157775,7,216705.5060385185,220066.596842851,1489330849.52872,5,5.5,380808.025,214712.275,201226.5413214815
99,Saarbrucken,DE // FR,363376,592257.07,228881.06999999995,10,309579.2943407408,236954.203432227,3471798357.4474,6,6.833333333333333,401177.76666666666,149443.1,159949.30207604938
101,Aachen,DE // NL,268534,306227,37693,1,30957.929434074074,163843.765516918,1037066005.93242,5,6,350261.6,49810.4,55724.272981333335
104,Gorlitz // Zgorzelec,DE // PL,90668.5,187845.7,97177.20000000001,4,123831.7177362963,273269.526910489,5030900774.4623,6,5.833333333333333,460639.43333333335,257442.76666666666,263142.40018962964
107,Aalborg,DK,130227,201499.8,71272.79999999999,3,92873.78830222222,803333.095862566,9547113099.89644,2,4,544572.3,302069.30000000005,278621.3649066667
109,Arhus,DK,242503,544572.3,302069.30000000005,9,278621.3649066667,547412.304532651,12995378288.6711,4,4.333333333333333,315661.13333333336,182872.80000000002,196066.88641580247
135,Kobenhavn,DK,1283700,1673858.8,390158.80000000005,15,464368.9415111111,457147.645811693,5527702354.64675,4,6.333333333333333,377362.4666666667,209779.46666666667,216705.50603851854
143,Odense,DK,167957,442698.9,274741.9,9,278621.3649066667,784947.751302581,6364770212.44856,6,5.6,687648.04,266001.84,284812.9507934815
171,Tartu,EE,97903.6,326633,228729.4,9,278621.3649066667,974719.487970217,40915425638.8169,4,5.333333333333333,834883.53,223801.46333333338,278621.3649066667
177,Burgas,BG,193564,246140,52576,3,92873.78830222222,459649.064822274,8186712861.12632,3,5.5,348162.5,141077.5,123831.7177362963
178,Albacete,ES,169950,207331.4,37381.399999999994,1,30957.929434074074,646097.640793663,27979001713.0598,9,5.666666666666667,575551.5555555555,256625.21111111113,189187.3465415638
180,Alcala de Henares,ES,198382,456217.6,257835.59999999998,5,154789.6471703704,572409.796901059,22424626727.0681,9,6.444444444444445,938097.2111111111,162164.32222222222,120391.94779917695
186,Algeciras,ES,116251,292938,176687,3,92873.78830222222,184025.882639524,1911079730.56499,4,5,240220.96666666667,73752,61915.85886814815
190,Alicante/Alacant,ES,400555,864421.1,463866.1,11,340537.2237748148,313729.741889717,5092942084.95381,4,5.666666666666667,378013.4,196467.73333333334,185747.57660444445
192,Almeria,ES,203021,364559.6,161538.59999999998,2,61915.85886814815,346198.13107001,6617388489.88468,3,6,308704,76670.95,77394.8235851852
202,Arona // Adeje,ES,112009,250439.40000000002,138430.40000000002,5,154789.6471703704,261289.678837164,2122686383.24671,2,2,488783.2,124970.20000000001,154789.6471703704
208,Aviles,ES,99131.1,99131.1,0,0,0,219900.447713898,1581354440.75276,4,5.666666666666667,233749.86666666667,35031.26666666666,20638.61962271605
213,Badajoz,ES,151700,298975.7,147275.7,5,154789.6471703704,601610.817603253,21859741048.6003,7,5.857142857142857,390965.7,145243.81428571427,163634.76986582013
217,Barcelona,ES,3437870,3634888.7,197018.7000000002,4,123831.7177362963,225426.93079191,2378185300.21426,5,5.75,304240.15,123208.4,123831.7177362963
230,Bilbao,ES,834872,1022362.6,187490.59999999998,9,278621.3649066667,263285.534000714,3577695788.86582,5,5.75,323879.1,96209.1,116092.23537777778
232,Dobrich,BG,92031,316811.4,224780.40000000002,5,154789.6471703704,425330.445823377,10726566228.2449,7,5.833333333333333,667697.3833333333,151816.21666666665,149629.99226469136
233,Burgos,ES,177773,210724.2,32951.20000000001,1,30957.929434074074,501638.102075355,15891449959.9998,8,5.875,437719.1625,157080.41249999998,143180.4236325926
235,Caceres,ES,96494.3,216671,120176.7,4,123831.7177362963,659683.876983399,26981064025.0702,6,7.333333333333333,347223.1166666667,164502.46666666667,149629.99226469136
253,Cartagena,ES,212982,285500,72518,2,61915.85886814815,174304.24013376,1190539352.02715,3,5.5,399562.75,138452.7,92873.78830222224
257,Castellon de la Plana/Castello de la Plana,ES,198429,421479.2,223050.2,7,216705.5060385185,487285.022221051,14089549955.8389,6,6.6,598893.62,148570.62000000002,111448.54596266667
259,Catarroja // Paiporta // Alfafar // Silla // Vale*,ES,150185,513026.3,362841.3,12,371495.1532088889,303861.60344211,4325278018.66809,4,6,820447.3666666667,250072.3666666667,185747.57660444445
271,Cordoba,ES,326590,392122.4,65532.40000000002,3,92873.78830222222,583295.824639311,21723504179.9534,7,6.428571428571429,444304.3714285714,160099.47142857144,119409.15638857144
274,"Coruna, A",ES,330021,382226.6,52205.59999999998,2,61915.85886814815,214278.814836722,1903160126.83525,4,5.333333333333333,134815.06666666668,22617.766666666674,30957.929434074074
281,Donostia-San Sebastian,ES,255733,421268.6,165535.59999999998,7,216705.5060385185,179435.079472008,1882223632.31505,5,5.25,433483.95,72526.9,108352.75301925927
282,Dos Hermanas,ES,125992,264483.9,138491.90000000002,3,92873.78830222222,292085.105566629,4390058285.30214,7,5.714285714285714,433495.02857142856,94158.45714285714,92873.78830222222
288,Elche/Elx,ES,224502,413682.5,189180.5,5,154789.6471703704,229177.700924716,2463722115.78093,4,5.666666666666667,582177.6666666666,248121.66666666666,175428.26679308643
293,Ferrol,ES,144475,160479.7,16004.700000000012,1,30957.929434074074,215511.714569184,2580037878.01906,3,6,239695.69999999998,26102.79999999999,30957.929434074074
297,Fuenlabrada,ES,213719,213719,0,0,0,109616.271384978,282555026.539391,3,6.333333333333333,1699267.7666666666,168143.09999999995,82554.4784908642
302,Gijon,ES,276075,276075,0,0,0,238915.639299707,3017204613.60336,5,5.25,259581.575,78809.54999999999,69655.34122666667
303,Girona,ES,127486,409876.1,282390.1,10,309579.2943407408,343281.43667541,5451490367.73428,4,4.666666666666667,336372.6666666666,162304.3333333333,185747.57660444445
304,Granada,ES,373509,493063,119554,4,123831.7177362963,390573.333851677,8870294537.50502,5,5.75,379571.875,137578.1,77394.8235851852
305,Granollers // Mollet del Valles,ES,260219,422083.1,161864.09999999998,7,216705.5060385185,300207.502377034,4742692827.28102,6,5.2,956667.88,164200.28000000003,160981.2330571852
310,Huelva,ES,147340,393619.6,246279.59999999998,9,278621.3649066667,575392.022386481,16454148390.7243,6,5.6,372774.24,105938.64,92873.78830222222
319,Jaen,ES,116141,356664.4,240523.40000000002,5,154789.6471703704,553656.047898479,18893540566.0688,6,7.166666666666667,379469.55,106703.86666666667,82554.4784908642
321,Jerez de la Frontera,ES,209250,209250,0,0,0,235542.645354834,3494332224.06046,5,5.2,254154.5,124339.92000000001,86682.2024154074
326,Leon,ES,162534,261169.69999999998,98635.69999999998,3,92873.78830222222,534437.855808966,19008407314.9315,8,6.125,266344.4,64574.925,58046.11768888889
327,Graz,AT,307974,723009.5,415035.5,14,433411.012077037,539709.863580422,19108714194.151,7,6.142857142857143,771909.3,250474.01428571428,247663.4354725926
332,Lleida,ES,134996,151539.7,16543.70000000001,1,30957.929434074074,559961.988614797,19246156394.7126,9,5.875,901203.4500000001,189950.2,185747.57660444445
335,Logrono,ES,150958,215044.1,64086.100000000006,2,61915.85886814815,436123.433613361,12432682443.008,5,7,412443.46,99409.06,86682.20241540742
336,Lorca,ES,90557.1,124345,33787.899999999994,1,30957.929434074074,407099.005826423,11155708746.46,7,5,396983.15,145772.15,98033.44320790123
337,Lugo,ES,97164.8,97164.8,0,0,0,402970.676580764,10662811544.069,8,5,221624.17142857143,54329.71428571428,57493.29752042328
338,Madrid,ES,4246450,4394795.3,148345.2999999998,2,61915.85886814815,122870.531458543,741233351.079716,5,6.4,362719.24,189093.63999999998,117640.13184948149
340,Malaga,ES,558256,672718.5,114462.5,2,61915.85886814815,297273.812587108,5103401461.10559,7,5.666666666666667,342846.3666666667,133008.2,103193.09811358026
344,Marbella,ES,194128,251436.9,57308.899999999994,2,61915.85886814815,254222.718083973,3673035339.79749,6,5.2,347739.6,121256,68107.44475496297
349,Mataro,ES,126305,322014.3,195709.3,7,216705.5060385185,130009.140977974,809089138.780956,3,5,415979.6,222127.09999999998,263142.40018962964
365,Mostoles,ES,229192,315771,86579,1,30957.929434074074,369651.308699885,7603988400.79094,6,6,984250.6499999999,158234.09999999998,108352.75301925927
367,Murcia,ES,431663,674780.5,243117.5,5,154789.6471703704,264656.095800059,4106114623.37216,4,5.75,257714.725,83216.95,69655.34122666667
381,Ourense,ES,117032,173551.6,56519.600000000006,3,92873.78830222222,440922.733009161,12717364982.6136,7,6.142857142857143,263460.27142857143,105147.14285714286,119409.15638857143
382,Oviedo,ES,222916,328009.8,105093.79999999999,2,61915.85886814815,316931.541698655,5372335761.2121,4,6.25,183385.15,24658.924999999996,23218.447075555556
385,Palma de Mallorca,ES,395867,539510.8,143643.80000000005,4,123831.7177362963,373047.533979282,4154273040.5,1,NaN,NaN,NaN,NaN
386,"Palmas de Gran Canaria, Las",ES,379000,549858.2,170858.19999999995,6,185747.57660444445,388865.753361604,2200937479.44012,3,3,137270.15,40521.25,30957.929434074074
388,Pamplona /  Iruna,ES,277969,305745.1,27776.099999999977,2,61915.85886814815,375156.919878739,9269617418.34458,7,5.142857142857143,329453.4,88751.8,97296.3496499471
389,Parla,ES,117732,387237,269505,5,154789.6471703704,495836.725885066,16420457404.4262,8,6.375,819161.5125,119546.72499999998,81264.56476444445
403,"Puerto de Santa Maria, El",ES,116673,201937.7,85264.70000000001,2,61915.85886814815,162352.073030744,1224019908.75008,5,5.5,281832.375,137179.65,123831.7177362963
410,Reus,ES,105236,221098.7,115862.70000000001,3,92873.78830222222,366652.865568849,5023822246.14981,4,6.666666666666667,277714.0333333333,121047.36666666668,123831.7177362963
417,"Rozas de Madrid, Las",ES,109103,440651.6,331548.6,8,247663.4354725926,372206.626724434,7687230614.05634,6,6.666666666666667,1012120.3666666666,122706.19999999997,72235.16867950617
420,Salamanca,ES,172601,252430,79829,2,61915.85886814815,641720.475242976,28490309813.9495,8,6.25,327982.2,171547.425,174138.35306666666
423,San Fernando,ES,96028.9,259976,163947.1,4,123831.7177362963,130108.92196386,1038080976.69093,4,4.666666666666667,234708.56666666668,87317.23333333334,51596.54905679012
430,Sant Boi de Llobregat // Viladecans,ES,192337,383214.6,190877.59999999998,4,123831.7177362963,142603.778934078,974389738.522018,3,5,1947505.9500000002,160283.4500000001,123831.7177362963
438,Santa Cruz de Tenerife // San Cristobal de la Lag*,ES,363813,488783.2,124970.20000000001,5,154789.6471703704,127886.561831574,640423507.7533,2,2,250439.40000000002,138430.40000000002,154789.6471703704
440,Santa Lucia de Tirajana,ES,93581.9,174624.4,81042.5,2,61915.85886814815,118269.778715412,859102611.275636,3,3,324887.05,85429.09999999998,92873.78830222222
444,Santander,ES,238507,350015.7,111508.70000000001,4,123831.7177362963,334803.642688066,6578568703.36352,5,6.5,442582.875,79769.375,100613.27066074075
446,Santiago de Compostela,ES,94952.1,146800.7,51848.600000000006,2,61915.85886814815,337051.830906448,5497961436.33562,5,5.75,298984.6,81961.4,92873.78830222222
450,Sevilla,ES,823119,913380.1,90261.09999999998,3,92873.78830222222,395803.531188759,9523371198.67289,4,6.75,337300.4,149394.90000000002,154789.6471703704
457,Tarragona,ES,136575,260123.2,123548.20000000001,4,123831.7177362963,181527.81451184,1563973123.02756,5,5.25,1097685.425,130075.67500000005,92873.78830222222
460,Telde,ES,99915.9,99915.9,0,0,0,231119.099558492,970675989.28425,3,3,362241.3,125950.34999999998,123831.7177362963
469,Torremolinos // Benalmadena,ES,122669,299307.6,176638.59999999998,3,92873.78830222222,127958.195902187,808467743.511735,3,6.5,462077.7,85885.7,61915.85886814815
481,Valencia,ES,1140620,1389589.6,248969.6000000001,6,185747.57660444445,373789.529768742,6919468613.09222,5,7,399513.625,220277.125,193487.05896296297
483,Valladolid,ES,312087,442784.1,130697.09999999998,3,92873.78830222222,508520.133964017,15710682577.5243,4,7.5,291243.875,135741.125,108352.75301925925
488,Vigo,ES,323875,542995.4,219120.40000000002,7,216705.5060385185,283504.161569601,3188805853.03205,4,5.666666666666667,175852.53333333333,61678.5,82554.4784908642
500,Vitoria-Gasteiz,ES,238667,313507.9,74840.90000000002,3,92873.78830222222,274428.481330299,4429666472.33393,5,6,435028.92,95567.91999999998,130023.30362311112
505,Zaragoza,ES,672381,776022.5,103641.5,3,92873.78830222222,648208.576886822,27772321487.9403,6,7,304025.73333333334,120237.9,108352.75301925925
509,Irun,ES // FR,92320.2,92320.2,0,0,0,120552.39491309,776738183.545205,4,5.666666666666667,313631.8333333333,91444.83333333331,123831.7177362963
516,Helsinki = Helsingfors,FI,1079550,1308852.6,229302.6000000001,7,216705.5060385185,947276.440324824,15535421425.6044,5,4.75,355815.75,172402.85,154789.6471703704
523,Jyvaskyla,FI,130816,179567,48751,1,30957.929434074074,769208.285483405,31282859952.549,6,4.666666666666667,350425.3333333333,205956.66666666666,165108.9569817284
530,Kuopio,FI,96793,262524,165731,5,154789.6471703704,1071904.5371216,65391604119.8114,4,5,375842.6666666667,240497.66666666666,185747.57660444445
531,Plewen,BG,113015,337026.6,224011.59999999998,11,340537.2237748148,481718.460372541,15484337569.0788,7,5.714285714285714,644946.7571428572,292885.32857142854,252085.99682031746
532,Lahti = Lahtis,FI,101588,468487,366899,8,247663.4354725926,672003.169338274,24318794267.1935,5,5,518095.15,120633.15000000002,116092.23537777778
538,Oulu = Uleaborg,FI,173631,479474,305843,9,278621.3649066667,2647720.23442021,202981757812.321,4,5,272852.3333333333,158491.66666666666,123831.7177362963
541,Pori = Bjorneborg,FI,96638,194164,97526,2,61915.85886814815,623700.895384775,16605164311.9729,5,5.25,296044,100931.75,77394.8235851852
543,Plowdiw,BG,350776,985833.5,635057.5,16,495326.8709451852,707703.659043118,26292915707.5789,5,5.75,875999.2,325656.69999999995,317318.7766992593
552,Tampere = Tammerfors,FI,282689,321437,38748,2,61915.85886814815,576057.531161883,16705163703.794,5,5.2,491555.32,159542.72000000003,117640.13184948148
553,Turku = Abo,FI,251471,306706,55235,1,30957.929434074074,762571.576443254,11472278058.0692,5,5,508357.65,94191.65000000002,92873.78830222222
562,Aix-en-Provence,FR,142124,240553.3,98429.29999999999,4,123831.7177362963,288881.531492594,5066299187.96106,7,5.285714285714286,551541.6571428571,120947.67142857143,128254.27908402117
572,Amiens,FR,153631,193249.3,39618.29999999999,2,61915.85886814815,381910.215258233,8483007189.12037,8,6.142857142857143,434796.2857142857,223444.9714285714,229973.19008169312
574,Angers,FR,207794,315544.5,107750.5,4,123831.7177362963,371511.749848821,8943382116.5503,6,5.833333333333333,403419.68333333335,156446.68333333332,159949.30207604938
575,Angouleme,FR,100836,178122.4,77286.4,2,61915.85886814815,485782.223896606,12822751218.0231,5,6.4,575919.8200000001,209544.42,216705.5060385185
578,Annecy,FR,133034,471086.6,338052.6,11,340537.2237748148,535006.291013771,10415100256.1146,7,6.166666666666667,761062.465,215847.83166666667,257982.74528395064
595,Avignon,FR,177346,312494.9,135148.90000000002,6,185747.57660444445,365653.839652844,7174093740.91011,5,6,323144.87,136617.07,136214.88950992594
605,Bayonne // Anglet // Biarritz,FR,132859,213881.8,81022.79999999999,3,92873.78830222222,326756.377332554,5610315832.422,5,5.75,387838.975,85730.675,100613.27066074073
616,Besancon,FR,120045,184872.9,64827.899999999994,3,92873.78830222222,428476.786923632,9797703320.95719,5,7,376771.15,191098.4,201226.54132148146
626,Bordeaux,FR,696151,879161.9,183010.90000000002,7,216705.5060385185,604046.189636503,17763229742.008,6,6.2,448330.54,204882.34,198130.7483780741
632,Brest,FR,161759,319710.2,157951.2,7,216705.5060385185,446076.659129013,6223858945.27498,2,4,296443.3,191089.3,247663.4354725926
638,Caen,FR,189066,353215.6,164149.59999999998,6,185747.57660444445,521222.775238786,12800431999.7881,6,6,475765.3,189303.69999999998,229088.67781214818
641,Calais,FR,95646.2,312990.1,217343.89999999997,6,185747.57660444445,292730.727809834,2950416633.73131,7,6,406727.0333333333,157909.19999999998,128991.37264197531
651,Innsbruck,AT,139294,246921,107627,6,185747.57660444445,448609.717954864,11439007699.4532,7,6.142857142857143,655282.1857142857,276823.7571428571,353804.9078179894
658,Chambery,FR,112077,149691.7,37614.70000000001,1,30957.929434074074,316067.111948788,4821964323.05881,4,7.25,1125770.625,312949.375,363755.67085037037
674,Sliwen,BG,92478,349740,257262,6,185747.57660444445,464436.813045399,11323470998.0417,7,5,342732.68333333335,162191.01666666666,175428.26679308643
676,Clermont-Ferrand,FR,259013,485943.5,226930.5,8,247663.4354725926,704210.07886871,30231895002.9148,7,6.714285714285714,770572.3285714285,283939.6142857143,269776.24221121694
684,Creil // Nogent-sur-Oise,FR,125973,457705.5,331732.5,13,402453.082642963,345424.681817463,6728257188.17139,4,8,3013992.625,224872.375,270881.88254814816
691,Dijon,FR,229143,419720.4,190577.40000000002,6,185747.57660444445,578532.960660388,20708220572.0558,7,6.714285714285714,612704.04,245084.32571428572,260931.1195157672
695,Sofiya,BG,1175730,1622897,447167,13,402453.082642963,666299.996757134,21154510396.8358,6,5.8,616866,288541.39999999997,266238.193133037
697,Douai,FR,137461,202078,64617,2,61915.85886814815,214511.054529813,2071210205.11902,4,6.5,728829.575,209939.575,185747.57660444445
701,Dunkerque,FR,147168,233030.2,85862.20000000001,3,92873.78830222222,159328.258226776,1588137389.67893,5,6,712917.4,227814.59999999998,185747.57660444445
715,Stara Zagora,BG,139749,427904,288155,8,247663.4354725926,642140.231871813,16171320546.47,4,6.333333333333333,557533.3666666667,372110.36666666664,340537.2237748148
718,Frejus // Saint-Raphael,FR,92825.9,163827.4,71001.5,3,92873.78830222222,286534.120686677,3940038000.70726,4,6.333333333333333,588155.2333333334,122642.23333333334,123831.7177362963
729,Grenoble,FR,402811,481989.9,79178.90000000002,3,92873.78830222222,403984.725962633,10503166259.1526,7,6.285714285714286,791155.6214285714,200010.7642857143,238818.31277714288
754,La Rochelle,FR,104230,375716.3,271486.3,7,216705.5060385185,535128.162646341,8635297010.39019,6,5.4,431036.44,93030.23999999999,111448.54596266667
763,Le Havre,FR,215406,283160.3,67754.29999999999,4,123831.7177362963,330217.006636306,2918401230.52285,3,6.5,502889.55,218941.55,247663.4354725926
764,Le Mans,FR,170471,257374,86903,5,154789.6471703704,422995.250293259,12390983559.3077,7,6.285714285714286,1960663.9714285715,249829.25714285715,256508.55816804233
766,Lens // Lievin // Henin-Beaumont // Avion // Carv*,FR,331038,619740.7,288702.69999999995,7,216705.5060385185,218781.490130115,3029932019.61076,5,6.4,534129.08,149687.84,136214.88950992594
767,Warna,BG,321692,346585,24893,2,61915.85886814815,347226.216647401,3611406464.51617,4,5.666666666666667,304230.4666666667,178206.13333333333,144470.33735901234
772,Limoges,FR,182835,267983.2,85148.20000000001,3,92873.78830222222,623879.87853518,22205323538.4968,6,6.333333333333333,508166.51666666666,218618.01666666666,211545.8511328395
775,Lorient,FR,105354,296443.3,191089.3,8,247663.4354725926,436043.751420151,8905142469.93145,4,4.333333333333333,354633,175648,196066.88641580247
783,Lyon,FR,1403560,1812327.3,408767.30000000005,13,402453.082642963,418063.314152253,11209180039.8492,7,6,391022.8357142857,175848.97857142857,181325.01525671958
789,Marseille,FR,976447,1041100.7,64653.69999999995,3,92873.78830222222,133942.091490088,965297474.882747,4,5.333333333333333,350718.89999999997,141346.56666666665,134151.02754765432
800,Metz,FR,422419,473703.6,51284.59999999998,3,92873.78830222222,314708.890003496,5508971415.3804,4,8,452670.21749999997,204851.96749999997,232184.47075555555
809,Montbeliard // Audincourt // Valentigney,FR,102812,186344.1,83532.1,2,61915.85886814815,341521.497651851,5019613026.18869,5,6,329811.375,142360.375,185747.57660444445
816,Montpellier,FR,333555,587454.5,253899.5,7,216705.5060385185,485655.20217777,13478181099.9182,6,6.4,552814.78,241822.18,241471.8495857778
819,Mulhouse,FR,216679,411286.1,194607.09999999998,7,216705.5060385185,252238.269818298,3844044808.76123,5,6.8,415173.68,176716.28,198130.74837807406
821,Nancy,FR,277702,429933.5,152231.5,7,216705.5060385185,425155.378395591,12908198163.3708,9,6.333333333333333,408998.3833333333,162781.49444444443,192627.11647868314
822,Nantes,FR,573912,625419.2,51507.19999999995,3,92873.78830222222,357636.71814216,7805445351.56084,5,5.75,358862.39999999997,187057.4,178008.09424592592
828,Nice,FR,878735,1049775.3,171040.30000000005,5,154789.6471703704,387350.315831006,8513579760.48167,8,5.857142857142857,518766.2,187006.35714285713,212282.94469079367
829,Nimes,FR,165099,320146.7,155047.7,4,123831.7177362963,380949.649247774,6434732051.05795,6,5.2,393228.69,194958.09,191939.16249125925
837,Orleans,FR,262166,613557.8,351391.80000000005,9,278621.3649066667,588788.154987427,22137600297.0576,7,6.142857142857143,1845936.7828571429,182794.64,216705.5060385185
841,Paris,FR,10416100,10784692,368592,15,464368.9415111111,419050.049757771,10233425397.7758,6,6.833333333333333,449645.53,239115.86333333334,273461.7100009877
845,Ruse // Giurgiu,BG // RO,223199,381929.1,158730.09999999998,5,154789.6471703704,456799.85686626,12997117064.4157,5,6.8,678695.46,177373.25999999995,179555.99071762964
846,Pau,FR,141993,274128.7,132135.7,4,123831.7177362963,554095.854829621,20239616510.8376,6,7,587692.4166666666,145745.91666666666,165108.9569817284
848,Perpignan,FR,135681,265020.6,129339.59999999998,4,123831.7177362963,508815.419469713,11313804747.0181,5,6.25,654804.3,290158.55,309579.2943407408
851,Poitiers,FR,111338,156934.2,45596.20000000001,2,61915.85886814815,446658.22604909,11929764114.2365,5,5.6,310400.82,137938.82,123831.7177362963
865,Reims,FR,207920,425465.7,217545.7,8,247663.4354725926,460241.276023941,14826331360.9432,11,5.818181818181818,1301164.6036363635,152520.96727272728,182933.21938316498
867,Rennes,FR,255272,590436.7,335164.69999999995,10,309579.2943407408,561184.936690996,14258775202.7512,7,5.333333333333333,333624.7833333333,105871.28333333333,144470.33735901234
878,Rouen,FR,378830,652563.5,273733.5,10,309579.2943407408,408717.787692759,10482664604.1218,7,5.666666666666667,2054899.45,176458.28333333333,232184.47075555555
886,Lemesos,CY,180866,226083.6,45217.600000000006,1,30957.929434074074,276111.25610311,3916651674.95063,2,2,333067.9,96992.90000000002,61915.85886814815
892,Saint-Etienne,FR,257847,493159.6,235312.59999999998,7,216705.5060385185,437209.569455455,9437774575.78119,5,6.2,688288.03,233584.23,229088.67781214815
903,Saint-Nazaire,FR,119924,153752.1,33828.100000000006,2,61915.85886814815,354931.239372226,3675878719.92288,4,5.333333333333333,504099.7333333333,192587.06666666662,216705.50603851854
919,Strobolos // Leikosia // Lakatameia,CY,236075,333067.9,96992.90000000002,2,61915.85886814815,398595.783653508,5284667234.54923,2,2,226083.6,45217.600000000006,30957.929434074074
932,Toulon,FR,375680,474137.1,98457.09999999998,3,92873.78830222222,199179.273955493,2315306970.39617,4,5,481827.1333333333,78028.16666666664,103193.09811358024
933,Toulouse,FR,737323,1199803.5,462480.5,16,495326.8709451852,713920.830335988,34184176833.1258,9,6.25,386169.3125,138036.8125,139310.68245333334
935,Tours,FR,266615,414637.7,148022.7,4,123831.7177362963,442764.900718879,11098162876.2566,5,6.2,322278.74,135357.94,142406.47539674075
937,Troyes,FR,117818,291206.68,173388.68,8,247663.4354725926,554487.436846889,19181618377.3649,5,8,2534673.88,256067.68000000002,278621.3649066667
941,Valence,FR,112292,235568.15,123276.15,5,154789.6471703704,426565.461030868,9463288826.69527,5,6,684023.68,202691.08000000002,204322.3342648889
942,Valenciennes // Denain,FR,202591,373030.5,170439.5,6,185747.57660444445,262290.317824923,3557669442.75522,5,7.4,575524.692,153500.692,154789.6471703704
959,Vitrolles // Marignane,FR,110313,337466.3,227153.3,6,185747.57660444445,186464.612532956,1788891062.19509,5,5.5,478573.9,113319.9,131571.20009481482
971,Lille // Roubaix // Tourcoing,FR // BE,1388300,1729297.8,340997.80000000005,9,278621.3649066667,196598.5861364,2661705200.56927,8,5.125,293838.1325,122151.5075,119961.97655703704
973,Klagenfurt,AT,107657,223255,115598,4,123831.7177362963,436278.01582834,11934922551.8967,5,6.6,480273.92,254022.52000000002,284812.9507934815
977,Strasbourg,FR,435740,696128.9,260388.90000000002,9,278621.3649066667,323115.105096793,6692642506.7872,9,6.111111111111111,401358.61888888886,192660.17444444445,206386.1962271605
987,Dimos Athinaion,GR,3352870,3724245.3,371375.2999999998,12,371495.1532088889,1609515.48686227,16026705889.6872,4,5,263492.5333333333,124788.53333333333,92873.78830222222
989,Dimos Boloi,GR,120398,184432.4,64034.399999999994,1,30957.929434074074,687138.801946067,6606759633.60129,5,5.25,1399117.025,282695.2749999999,239923.95311407407
994,Dimos Ioanniton,GR,90093.7,198572.1,108478.40000000001,4,123831.7177362963,920574.010796548,18979045953.2161,4,5.666666666666667,624074.2666666666,253135.26666666663,196066.88641580247
995,Dimos Irakleioi,GR,166482,269691,103209,3,92873.78830222222,689480.076085228,7028801042.32904,2,4,150482.1,49575.100000000006,30957.929434074074
1010,Dimos Larisas,GR,145134,300490.5,155356.5,3,92873.78830222222,465233.98502552,12460795503.6124,5,5.25,488684.19999999995,194140.525,162529.12952888888
1016,Dimos Patreon,GR,194807,455563.1,260756.09999999998,7,216705.5060385185,1097794.63660701,25607135976.8441,6,4.4,911644.48,149763.93999999997,130023.30362311112
1018,Brno,CZ,384363,592282,207919,9,278621.3649066667,430693.835408506,11419632963.6183,5,6.4,856274.3400000001,331172.5,371495.1532088889
1027,Dimos THessalonikis,GR,772876,1116169.2,343293.19999999995,9,278621.3649066667,1023278.63172548,23942025360.8602,6,5,658445.1,282018.76,229088.67781214815
1032,Dimos Xanion,GR,100907,150482.1,49575.100000000006,1,30957.929434074074,424984.980717217,3381515908.03695,4,4,1483166.4666666666,245113.4666666666,227024.81584987656
1041,Grad Zagreb,HR,789750,1268866.9,479116.8999999999,13,402453.082642963,747628.917529809,23211223239.8059,7,5.333333333333333,410474.8,204603.46666666667,216705.5060385185
1049,Osijek,HR,108204,306509.4,198305.40000000002,6,185747.57660444445,601094.106876101,9349374254.7191,4,6.666666666666667,675455.2,304019.53333333327,288940.67471802473
1053,Rijeka,HR,169055,240484.1,71429.1,2,61915.85886814815,640172.587847501,10541510161.3316,5,5,572027.125,199033.875,201226.5413214815
1059,Split,HR,240694,403199.5,162505.5,6,185747.57660444445,992437.335765695,12672006446.9441,3,6,754675.5,275272.99999999994,232184.47075555555
1061,Ceske Budejovice,CZ,98674.3,249602.3,150928,6,185747.57660444445,464465.502385374,13876420153.7391,7,6.285714285714286,859270.9,251466.24285714285,291889.0489498413
1082,Budapest,HU,2057700,2674125.9,616425.8999999999,26,804906.165285926,467894.977248292,13441204539.4975,6,6.833333333333333,591768.7666666667,404130.10000000003,428251.3571713581
1089,Debrecen,HU,211300,339283.3,127983.29999999999,6,185747.57660444445,340556.903823589,6423162663.51004,5,6.2,313330.12,170077.72,222897.09192533334
1101,Gyor,HU,139519,335534.3,196015.3,6,185747.57660444445,525556.842028587,13264934387.3192,6,6.166666666666667,1252102.4833333334,425725.15,490167.2160395062
1114,Kecskemet,HU,111150,423892.4,312742.4,12,371495.1532088889,425587.736241702,11390632471.33,8,5.875,661294.7125,257081.9625,305709.5531614815
1127,Miskolc,HU,168853,516841.7,347988.7,13,402453.082642963,489039.767796566,14649809552.5524,7,6.428571428571429,739605.1714285715,302642.02857142856,353804.9078179894
1138,Nyiregyhaza,HU,119679,179728.2,60049.20000000001,4,123831.7177362963,314439.483566135,6038268852.08457,5,5.75,339567.225,159202.72499999998,201226.5413214815
1146,Pecs,HU,156493,448176.1,291683.1,10,309579.2943407408,542392.278353647,17267735431.8746,7,6,547832.4428571429,301314.4428571428,305156.7329930159
1156,Szeged,HU,168064,309322.6,141258.59999999998,5,154789.6471703704,412879.343610923,6828300870.7939,6,6.2,385949.54000000004,213769.94,210513.9201517037
1157,Szekesfehervar,HU,100965,467692,366727,13,402453.082642963,409525.520926284,9329139693.3493,4,6.75,970432.1749999999,354216.675,417932.04736
1188,CORK,IE,175928,434325.7,258397.7,6,185747.57660444445,977887.306012213,28599994776.4792,3,4.5,834908.85,229482.34999999998,340537.2237748148
1189,Dublin,IE,1121310,1441484.7,320174.69999999995,14,433411.012077037,730598.652195251,25269814793.9806,5,4.5,584929.125,286912.375,286360.8472651852
1208,Hradec Kralove,CZ,93876.3,182018.4,88142.09999999999,5,154789.6471703704,304326.150638406,4701528531.83649,5,6,629476.28,298545.1,321962.4661143704
1230,Alessandria,IT,89097.8,341251.5,252153.7,8,247663.4354725926,263906.349003819,4447665199.13728,5,6.2,730296.66,285520.72,340537.22377481486
1233,Ancona,IT,100498,472708.6,372210.6,12,371495.1532088889,259554.878200527,4357431152.9909,5,5.5,370725.45,224359.225,170268.6118874074
1234,Andria,IT,99705.3,368592,268886.7,6,185747.57660444445,312481.894252026,5885695705.04742,7,4.666666666666667,471861.5333333333,276604.1,273461.71000098763
1236,Anzio // Nettuno,IT,93259.9,351036.7,257776.80000000002,5,154789.6471703704,111489.331056315,661727330.460701,3,5,1768106.5499999998,366262.04999999993,294100.3296237037
1242,Arezzo,IT,97621.7,325177,227555.3,6,185747.57660444445,404833.667222904,8397664241.97957,9,5.25,343923.3,127788.5625,96743.52948148148
1257,Bari,IT,427538,921917.7,494379.69999999995,16,495326.8709451852,277562.854653953,3640089299.59391,3,6,486666.6,332851.94999999995,309579.2943407407
1258,Barletta,IT,94071.6,232580.5,138508.9,4,123831.7177362963,197712.354314892,935703837.951126,3,7,360904.05,237225.9,170268.61188740743
1262,Bassano del Grappa,IT,97594.5,242085.9,144491.4,6,185747.57660444445,205971.032021374,2441341826.98022,6,6,285952.56666666665,117340.23333333332,123831.7177362963
1267,Bergamo,IT,517801,829851,312050,15,464368.9415111111,297149.801197189,3166816741.32152,6,6.6,1233679.5,218885.65999999995,284812.9507934815
1271,Biella // Cossato,IT,94582.8,262083.79,167500.99,7,216705.5060385185,418607.952351635,7739835483.63616,6,6.2,1509826.2799999998,301153.3799999999,390069.91086933337
1273,Bologna,IT,482270,509018.9,26748.900000000023,1,30957.929434074074,217810.013845696,2920517810.86915,5,6.4,436801.74,162700.74,117640.13184948148
1274,Bolzano,IT,101968,187799.4,85831.4,3,92873.78830222222,478416.604155612,10123381191.924,7,7,320651.7166666667,193419.46666666667,201226.5413214815
1281,Brescia,IT,355445,598882.8,243437.80000000005,12,371495.1532088889,288728.602746417,4693561041.48847,5,7.4,445537.26,207310.12,247663.4354725926
1288,Cagliari // Quartu Sant'Elena,IT,290727,429266.5,138539.5,5,154789.6471703704,502556.995150267,11700394614.652,2,4,320183.8,196639.8,123831.7177362963
1313,Caserta // Marcianise // Santa Maria Capua Vetere,IT,275610,667701.1,392091.1,12,371495.1532088889,342470.734476692,7550883240.04153,6,5.4,1018214.0800000001,310311.88,253855.0213594074
1324,Castellammare di Stabia // Torre Annunziata // Ca*,IT,617590,873921.1,256331.09999999998,7,216705.5060385185,197484.925720179,1408249034.55747,5,5.25,1032160.95,273208.95,232184.47075555555
1330,Catania,IT,602936,1062213.1,459277.1000000001,16,495326.8709451852,398164.624734514,9178800059.31237,4,3,737581.0666666667,358117.73333333334,309579.2943407408
1331,Catanzaro,IT,89805.2,279715.1,189909.89999999997,5,154789.6471703704,379979.319064509,5296820134.95628,4,4,326628.06666666665,145046.4,185747.57660444445
1343,Cesena,IT,95591,177594.1,82003.1,2,61915.85886814815,167653.814817501,1527424582.67767,5,6,251415.625,105905.7,85134.3059437037
1375,Cosenza // Rende,IT,117763,283446.7,165683.7,7,216705.5060385185,415463.896997476,8245150153.04481,5,5.25,422078.82499999995,278570.94999999995,247663.4354725926
1400,Ferrara,IT,143663,250974,107311,3,92873.78830222222,259913.580379912,4167848798.35473,7,6,419020.1142857143,135507.4,145944.52447492065
1404,Firenze // Prato,IT,780016,1047916,267900,6,185747.57660444445,295813.369111004,5188136731.96651,7,5.714285714285714,331236.45714285714,142540.5,114986.59504084656
1407,Foggia,IT,147651,353216.1,205565.09999999998,5,154789.6471703704,401784.291511895,9274969358.54829,7,5.5,559824.8333333334,312357.35,257982.74528395061
1414,Forli,IT,115788,240819.6,125031.6,2,61915.85886814815,184622.738743399,2094152153.16402,5,6.4,448781.06,127246.72,99065.37418903704
1422,Liberec,CZ,103656,332715,229059,8,247663.4354725926,266183.466877631,4737978018.75146,6,5.833333333333333,530456.9166666666,238864.61666666664,247663.4354725926
1433,Genova,IT,618048,755148.6,137100.59999999998,5,154789.6471703704,223687.742074094,2849549163.20739,5,5.75,304709.25,210341.725,216705.50603851854
1463,La Spezia,IT,96291.6,121175.6,24884,1,30957.929434074074,189539.739959623,2252821475.41792,5,6.25,433841.1,124430.42499999999,139310.68245333334
1471,Latina,IT,117089,410586.3,293497.3,9,278621.3649066667,287023.287054547,5354218212.47603,5,5.25,1231312.9749999999,412137.74999999994,317318.7766992593
1474,Lecce,IT,104061,540593.2,436532.19999999995,20,619158.5886814815,270296.673680855,3549512702.8655,2,5,604741.2,396817.19999999995,433411.012077037
1476,Lecco,IT,98239.5,294158.4,195918.90000000002,9,278621.3649066667,331697.883045212,3836193295.31375,5,6.75,1492608.9725,209426.5224999999,286360.8472651852
1481,Livorno,IT,156992,327575.6,170583.59999999998,5,154789.6471703704,586112.676358273,7333591108.70058,6,6.4,587050.28,181191.54,142406.47539674075
1488,Lucca // Capannori,IT,139958,263765,123807,3,92873.78830222222,189444.56103721,2000083786.344,4,6,511242.275,147989.275,116092.23537777778
1511,Massa // Carrara // Viareggio,IT,344754,344754,0,0,0,177954.378986069,1816864638.53772,6,5.2,265639.46,115551.14,111448.54596266667
1525,Messina,IT,246201,426957.5,180756.5,6,185747.57660444445,229086.33278581,1668740639.9936,4,3.6666666666666665,537136.0666666667,245962.00000000003,268302.05509530863
1526,Milano,IT,4398340,4643961.6,245621.59999999963,12,371495.1532088889,328060.888482831,3488100140.27104,6,6,437038.898,254552.298,321962.4661143704
1534,Modena,IT,178865,460099.8,281234.8,7,216705.5060385185,226744.07652532,2498463378.17759,7,5.857142857142857,455544.6,123034.02857142857,114986.59504084656
1553,Olomouc,CZ,99596.3,520452,420855.7,13,402453.082642963,438459.044211049,10202327862.9003,7,6,541628.5428571429,323860.4142857143,349382.34647026454
1554,Napoli,IT,2435950,2672459.6,236509.6000000001,6,185747.57660444445,158388.21229818,800886979.61293,3,5.5,770811.1,324211.1,294100.3296237037
1562,Novara,IT,101871,402246.1,300375.1,11,340537.2237748148,243036.678821464,2852686996.34866,5,6.6,1476366.1579999998,277598.2979999999,352920.3955484445
1577,Padova,IT,367475,488545.6,121070.59999999998,5,154789.6471703704,205478.841417186,2179455415.57304,6,5.6,326408.42,146597.52,160981.2330571852
1580,Palermo,IT,773405,1226147,452742,13,402453.082642963,387951.706923695,7888489625.04331,3,3,703659.9500000001,353550.10000000003,325058.2590577778
1585,Ostrava,CZ,317982,902707.8,584725.8,17,526284.8003792593,413602.467603916,7671292191.91464,6,6.666666666666667,580679.45,386531.85000000003,350856.53358617285
1586,Parma,IT,174902,238606.6,63704.600000000006,3,92873.78830222222,249078.024345823,3544224405.26806,6,6,372341.98333333334,150118.26666666666,185747.57660444445
1593,Perugia,IT,161379,269352.5,107973.5,3,92873.78830222222,406136.153758449,6846361245.62085,4,6.25,307636.89999999997,207393.25,178008.09424592592
1594,Pesaro,IT,93989.9,156458.9,62469,1,30957.929434074074,177745.10457909,2007370557.80942,5,5.5,330676.175,186687.25,178008.09424592592
1595,Pescara,IT,221231,780887.3,559656.3,14,433411.012077037,434004.148786447,10191620635.5029,7,5.666666666666667,884340.3333333333,311621.49999999994,268302.05509530863
1599,Piacenza,IT,99938.7,396855.2,296916.5,10,309579.2943407408,275980.337751767,5225652478.16376,8,5.375,991390.475,197415.92499999996,259272.65901037038
1605,Pisa // Cascina,IT,149377,192199.3,42822.29999999999,2,61915.85886814815,145692.911916264,916205613.557579,4,5.666666666666667,546418.8666666667,187430.19999999998,144470.33735901234
1619,Pardubice,CZ,92106.6,311706,219599.4,9,278621.3649066667,340940.403739858,6950979229.48842,5,6,604105.72,222301.74,272429.7790198519
1633,Ravenna,IT,152173,184199.3,32026.29999999999,1,30957.929434074074,227967.323353039,1682211291.30917,6,5.4,336783.18,100777.78,86682.2024154074
1635,Reggio di Calabria,IT,180781,269480,88699,5,154789.6471703704,240614.934051095,2916667473.97242,3,4,353336.3,185333.19999999998,170268.61188740743
1636,Reggio nell'Emilia,IT,160425,244550.3,84125.29999999999,4,123831.7177362963,222332.098242179,2129185922.97908,4,6.75,392823.6,149071.35,147050.16481185186
1639,Rimini,IT,216457,255466.6,39009.600000000006,2,61915.85886814815,182067.756980546,1258322064.47586,4,6.333333333333333,219743.33333333334,124009.13333333333,92873.78830222222
1645,Roma,IT,2686600,3125626.8,439026.7999999998,10,309579.2943407408,458213.715964333,5942964011.10433,5,5.25,454678.35,319567.125,247663.4354725926
1651,Plzen,CZ,167613,292459.8,124846.79999999999,7,216705.5060385185,437009.269788027,12672385296.5325,8,6.5,666963.4,317343.6125,340537.2237748148
1660,Salerno,IT,176597,435267,258670,7,216705.5060385185,370293.62024597,7554318612.46001,5,6,469793.975,224116.65,193487.05896296297
1672,Praha,CZ,1232510,1476173.9,243663.8999999999,11,340537.2237748148,345451.868192089,7931220937.17796,6,6.166666666666667,318705.25,208974.38333333333,242503.7805669136
1695,Sassari,IT,123544,320183.8,196639.8,4,123831.7177362963,849666.400101396,17265502647.0097,4,5.333333333333333,602205.8,160054.46666666667,154789.6471703704
1700,Savona,IT,92142,359554.7,267412.7,9,278621.3649066667,290952.549464839,5267727626.9996,5,6.5,970963.525,246523.325,294100.3296237037
1702,Schio // Thiene,IT,105143,171358,66215,2,61915.85886814815,158019.381596339,1409466251.13958,4,7,315598.325,145425.45,170268.6118874074
1714,Siracusa,IT,118784,559638.7,440854.69999999995,11,340537.2237748148,278014.458392239,3988201342.43494,2,4,1062213.1,459277.1000000001,495326.8709451852
1728,Taranto,IT,207924,604741.2,396817.19999999995,14,433411.012077037,416948.560776495,6002383648.81949,5,4.25,528637.4,341370.57499999995,379234.6355674074
1737,Terni,IT,108865,276203.1,167338.09999999998,4,123831.7177362963,485911.739142026,10578132604.6639,6,6,994750.44,341284.49999999994,278621.3649066667
1740,Torino,IT,1311880,1737678.7,425798.69999999995,20,619158.5886814815,422230.809580386,12201056187.8919,8,5.875,439709.94875,201666.12375,212835.76485925924
1743,Trapani // Erice,IT,97283.7,345106.8,247823.09999999998,5,154789.6471703704,237058.443800906,3000144937.63203,2,3,1226147,452742,402453.082642963
1747,Trento,IT,122006,234539.5,112533.5,3,92873.78830222222,324581.09482615,5438985274.8069,9,6,414929.0625,202729.6875,255402.91783111112
1750,Treviso,IT,130479,375539,245060,7,216705.5060385185,267057.80936355,3876740964.91011,5,6.4,356260.42,148489.12,167172.818944
1752,Trieste,IT,208721,274571.9,65850.90000000002,3,92873.78830222222,332316.344424674,3308464196.47161,4,6.333333333333333,313105.4,129449.73333333335,134151.02754765432
1755,Udine,IT,129104,357361.9,228257.90000000002,7,216705.5060385185,413205.082945781,10840422359.2609,8,5.714285714285714,303788.5,142781.64285714287,181325.01525671958
1764,Mestre,IT,342715,505509.3,162794.3,6,185747.57660444445,258249.048998397,679925307.873549,5,6,324814.475,126366.97499999999,123831.7177362963
1769,Verona,IT,276488,527834,251346,9,278621.3649066667,240931.126452301,3922630883.37241,8,5.875,307118.1125,128986.6125,147050.16481185186
1772,Vicenza,IT,184603,257933.9,73330.9,4,123831.7177362963,155432.38074008,1475513372.44075,5,6.2,336159.5,138086.8,154789.6471703704
1788,Kauno (m.s.),LT,328704,431253.7,102549.70000000001,2,61915.85886814815,609562.365008283,17447214650.7112,7,4.833333333333333,371259.11666666664,141701.28333333333,144470.33735901234
1789,Klaipedos (m.s.),LT,163053,280074.4,117021.40000000002,3,92873.78830222222,601219.238422908,13903245293.5181,4,5.666666666666667,539655.0033333333,173431.00333333336,206386.1962271605
1793,Panevezio (m.s.),LT,100142,100142,0,0,0,424257.342826834,11768696194.8214,5,5.2,469239.518,123569.278,154789.6471703704
1794,Siauliu (m.s.),LT,109876,183070.9,73194.9,3,92873.78830222222,522369.951325467,15306147316.327,4,5.5,454027.6275,141029.8775,154789.64717037036
1797,Vilniaus (m.s.),LT,536075,536075,0,0,0,548691.614878083,11450991681.1572,4,5.666666666666667,240851.09333333332,66701.02666666667,72235.16867950618
1801,Luxembourg,LU,142275,363024.6,220749.59999999998,5,154789.6471703704,318483.850529401,6037624293.29772,6,7,439795.245,88872.245,123831.7177362963
1805,Daugavpils,LV,93604.2,191157.58,97553.37999999999,5,154789.6471703704,713939.706809398,25494833451.7134,5,4.75,491872.60250000004,143319.4525,185747.57660444445
1818,Riga,LV,660092,1004640.41,344548.41000000003,15,464368.9415111111,1329293.79435613,31993408777.7612,6,4.4,216215.576,103299.816,123831.7177362963
1828,Valletta,MT,222147,222147,0,0,0,65041.8767427853,236353189,1,NaN,NaN,NaN,NaN
1829,'s-Gravenhage,NL,729961,729961,0,0,0,51492.7466190337,165764455.093216,5,5,461273.5,63760.25,54176.37650962963
1830,'s-Gravenzande,NL,99717,139473,39756,1,30957.929434074074,115624.285444131,481135938.716267,4,5.666666666666667,696344,52393,41277.2392454321
1832,'s-Hertogenbosch,NL,165007,341335,176328,6,185747.57660444445,127478.928329101,1078055707.11202,6,6.333333333333333,531195.8333333334,247085.33333333334,206386.1962271605
1836,Alkmaar // Heerhugowaard,NL,171994,411248,239254,6,185747.57660444445,186091.588524372,2046977501.36285,5,5.5,560838.75,133684,100613.27066074075
1837,Almelo,NL,96049,282844,186795,5,154789.6471703704,148239.187545921,1223239884.6508,4,6.25,421271.25,300247.25,263142.40018962964
1838,Almere,NL,188160,262788,74628,1,30957.929434074074,159272.251825516,1527910910.75119,7,5.714285714285714,479346.14285714284,210644.2857142857,168057.33121354497
1839,Amersfoort,NL,173674,414728,241054,6,185747.57660444445,118470.521757704,738571293.739305,7,5.714285714285714,387883.4285714286,187918.14285714287,150367.08582264552
1840,Amsterdam,NL,1071050,1178594,107544,2,61915.85886814815,97931.652562898,587194255.637436,6,5.5,383879.1666666667,144166.66666666666,118672.06283061729
1841,Apeldoorn,NL,155726,306748,151022,4,123831.7177362963,120539.96160163,851247834.660862,6,6.166666666666667,344207,205180.16666666666,170268.6118874074
1845,Arnhem,NL,147018,512935,365917,11,340537.2237748148,148115.217773351,1245568032.33068,7,6.142857142857143,1002897.2857142857,311558.85714285716,247663.4354725926
1855,Breda,NL,173299,567420,394121,11,340537.2237748148,192808.263497935,1761570847.55493,8,6.428571428571429,1066059.4285714286,101706.57142857143,88451.22695449735
1868,Deventer,NL,98523,215584,117061,3,92873.78830222222,145080.094475306,1118905714.75658,5,6.2,450632.6,315657.6,284812.9507934815
1874,Dordrecht,NL,282196,343230,61034,2,61915.85886814815,128598.574033362,966823604.01217,7,6,531890.8571428572,178287.2857142857,159212.20851809523
1881,Ede,NL,107756,259658,151902,3,92873.78830222222,97668.1252502337,516927504.904982,4,6.5,453712.25,283830,247663.4354725926
1882,Eindhoven,NL,356198,647837,291639,7,216705.5060385185,168003.775475304,1844135499.82296,6,6.333333333333333,466527.6666666667,260308.83333333334,227024.81584987656
1883,Emmen,NL,109491,318865,209374,5,154789.6471703704,261513.72142562,4546313079.05898,6,6.333333333333333,465369.6666666667,314663.5,304419.6394350617
1884,Enschede,NL,157052,751087,594035,17,526284.8003792593,224243.795582975,3107949324.70917,7,6.285714285714286,975683.8571428572,273983.4285714286,229973.19008169314
1899,Gouda // Alphen aan den Rijn,NL,216653,228638,11985,1,30957.929434074074,90693.0064035087,518838114.67823,5,6,369464.2,111324,105256.96007585185
1902,Groningen,NL,205814,553560,347746,11,340537.2237748148,369293.335647232,4392496168.47337,6,6.2,363292.2,243665.6,222897.09192533334
1904,Haarlem // Velsen,NL,355336,406620,51284,2,61915.85886814815,77006.8574329536,340238995.668823,4,5.666666666666667,616081.3333333334,154137.33333333334,134151.02754765432
1905,Haarlemmermeer,NL,142788,258402,115614,5,154789.6471703704,83150.6107518719,441245083.615767,6,5.4,569917.2,92472.4,80490.6165285926
1929,Huizen // Baarn,NL,95366,249203,153837,3,92873.78830222222,94110.7769649527,388211491.206215,4,6.75,642781,163402.25,116092.23537777778
1935,Leeuwarden,NL,94073,395353,301280,8,247663.4354725926,224128.384192373,3201388209.51905,5,6.25,406786.25,235536.75,208966.02368
1936,Leiden,NL,259554,320720,61166,2,61915.85886814815,65251.8283673309,280653845.052254,5,5.25,356739,54005.5,61915.85886814815
1941,Usti nad Labem,CZ,102459,543730,441271,12,371495.1532088889,280537.176239035,5075465868.58118,6,6.166666666666667,596987.95,174728.19999999998,242503.78056691357
1951,Nijmegen,NL,203111,580438,377327,11,340537.2237748148,165507.766133444,1513796895.09486,6,6.166666666666667,444782.6666666667,269790.3333333333,221865.16094419753
1977,Rotterdam,NL,1109250,1174946,65696,2,61915.85886814815,129942.405088204,983844975.928522,6,5.833333333333333,362360.6666666667,112469.5,92873.78830222222
1996,Tilburg,NL,204853,485928,281075,8,247663.4354725926,144639.660247395,1021213066.04468,5,7,496864.8,207765.2,179555.9907176296
2001,Utrecht,NL,484631,715014,230383,6,185747.57660444445,115688.393859975,874876658.785347,7,5.857142857142857,430590,123913.71428571429,110564.0336931217
2007,Venlo,NL,100301,492203,391902,10,309579.2943407408,192924.331171988,2397624417.58705,7,6.428571428571429,1033201.2857142857,294979.71428571426,234395.751429418
2009,Vlissingen // Middelburg,NL,92642,184125,91483,2,61915.85886814815,313229.094776071,1320558874.9953,6,6,483565.4,140399,130023.30362311112
2025,Zoetermeer,NL,121532,209955,88423,2,61915.85886814815,59848.299208622,216132097.765827,5,5.6,559499,39976.2,43341.1012077037
2027,Zwolle,NL,119030,399549,280519,9,278621.3649066667,202272.73611164,2896418377.32387,7,5.571428571428571,333677.4285714286,198272.2857142857,163634.7698658201
2029,Maastricht,NL // BE,144025,202602,58577,2,61915.85886814815,107568.079745894,694484944.998282,5,6,498362.8,110131,99065.37418903704
2030,Heerlen // Kerkrade // Landgraaf,NL // DE,262529,429741,167212,5,154789.6471703704,98062.2751228895,557114109.147219,5,5.6,308095.4,132340.6,105256.96007585185
2031,Sittard-Geleen,NL,95243,314760,219517,6,185747.57660444445,125593.549161051,1095733057.17182,6,6.333333333333333,493465.6666666667,228491.66666666666,180587.92169876545
2041,Bialystok,PL,293736,674346.1,380610.1,11,340537.2237748148,737554.216809132,23786708834.1278,5,6.5,1131712.2,384040.2,371495.1532088889
2045,Bielsko-Biala,PL,218783,890538.4,671755.4,19,588200.6592474075,388251.531830729,9552672027.028,9,5.888888888888889,807776.8333333334,350478.85555555555,357736.0734604115
2055,Linz,AT,255250,502565,247315,7,216705.5060385185,491644.24830151,14746805653.7293,6,6.5,752089.9,281553.85000000003,314738.94924641977
2064,Bydgoszcz,PL,364037,494996.8,130959.79999999999,5,154789.6471703704,406064.234243949,9843707878.99078,6,6.333333333333333,425727.45,213635.28333333333,221865.16094419756
2076,Czastochowa,PL,247029,406011.4,158982.40000000002,5,154789.6471703704,336828.827575707,7689754377.33231,7,6.285714285714286,848493.8857142857,274927.6714285714,234395.751429418
2085,Elblag,PL,124554,181581.4,57027.399999999994,2,61915.85886814815,374384.043358113,5153473953.94407,4,6.333333333333333,593948.3333333334,238074.13333333333,247663.4354725926
2089,Gdansk // Gdynia,PL,794554,1059976.5,265422.5,7,216705.5060385185,333385.775830009,6002150998.77176,4,5.666666666666667,211882.46666666667,105536.46666666666,123831.7177362963
2099,Gorzow Wielkopolski,PL,124443,247962,123519,3,92873.78830222222,431639.24080835,11708393931.6848,6,6.333333333333333,1207285.25,359004.4166666666,340537.22377481486
2105,Grudziadz,PL,98603.6,268022.2,169418.6,6,185747.57660444445,364566.022393692,7763487895.78784,8,5.125,401168.825,151218.775,166398.87070814814
2119,Jastrzabie-Zdroj,PL,92526.3,329926.9,237400.60000000003,4,123831.7177362963,125250.844230117,859987185.628952,4,6.25,622289.875,394543.625,325058.2590577778
2121,Jaworzno,PL,94784.5,376198.2,281413.7,7,216705.5060385185,201952.717789753,2257560328.16211,5,6.4,886995.2,235781.6,204322.3342648889
2125,Kalisz,PL,105465,508689.1,403224.1,10,309579.2943407408,403930.822912194,11165655873.1813,6,7,729628.7666666666,297520.43333333335,278621.3649066667
2128,Katowice // Sosnowiec // Gliwice // Bytom // Zabr*,PL,1903450,1922184.4,18734.399999999907,1,30957.929434074074,180069.504182715,2033717814.03284,5,6,371672.04,203925.34,160981.2330571852
2132,Kielce,PL,202289,451344.9,249055.90000000002,7,216705.5060385185,380600.260457619,9205522045.42558,7,5.714285714285714,722164.5,335950.5,305156.7329930159
2147,Koszalin,PL,109146,252056.8,142910.8,5,154789.6471703704,452497.931048949,9957857985.48801,7,6,567903.65,275889.25,252823.09037827162
2152,Krakow,PL,757304,967136.8,209832.80000000005,6,185747.57660444445,309534.859049215,5473290453.15814,6,6.5,457149.18333333335,292572.93333333335,263142.40018962964
2171,Legnica,PL,103253,286639,183386,5,154789.6471703704,302050.998201474,5622700182.39276,6,6,587947.8333333334,301746.0833333333,288940.6747180247
2179,Lodz,PL,828971,1333666.5,504695.5,14,433411.012077037,375459.551560693,9939525108.71228,7,6,717409.8571428572,266579.4285714286,243240.87412486773
2187,Lublin,PL,349029,901513.7,552484.7,17,526284.8003792593,637597.005363984,23893105974.9793,6,5.6,1006356.48,398041.28,365303.5673220741
2211,Nowy Sacz,PL,110468,337835.4,227367.40000000002,9,278621.3649066667,393242.560327887,8137599578.64034,7,5.857142857142857,586070.5,333315.7428571429,322846.9783839154
2220,Olsztyn,PL,174465,453846.3,279381.3,11,340537.2237748148,538993.601601183,19710163181.8326,7,5.833333333333333,770153.4,252056.80000000002,232184.47075555555
2222,Opole,PL,122700,380237.3,257537.3,8,247663.4354725926,357336.610246761,8545046619.89639,8,5.875,744804.15,285431.4875,251533.17665185186
2240,Plock,PL,124492,325481.9,200989.90000000002,6,185747.57660444445,376579.582249985,8530943396.82361,5,7,993512.76,322068.64,321962.4661143704
2245,Poznan,PL,647305,1340818,693513,20,619158.5886814815,463236.192205343,13612654007.856,8,6,390263.89999999997,181285.275,170268.61188740743
2259,Radom,PL,221357,418312.89999999997,196955.89999999997,6,185747.57660444445,396412.597823609,9019176926.83681,4,6.5,1356690.05,476995.30000000005,433411.012077037
2267,Rybnik // Wodzislaw Slaski,PL,244718,446808.3,202090.3,4,123831.7177362963,187017.270115866,2144637722.45662,5,5.6,756832.28,243600.22,198130.7483780741
2269,Rzeszow,PL,185704,747543.4,561839.4,17,526284.8003792593,562786.617840474,15844915548.6754,6,5.6,467858.92,293706.26,291004.5366802963
2285,Slupsk,PL,95880.4,186043.8,90163.4,4,123831.7177362963,343296.308952464,6833031007.16886,5,6.25,518763.075,177177.925,178008.09424592592
2312,Szczecin,PL,409933,755712.1,345779.1,10,309579.2943407408,699896.56161464,15270239660.7073,5,6.75,1263195.05,227801.55,216705.50603851854
2319,Tarnow,PL,114104,280966.8,166862.8,4,123831.7177362963,307316.936689414,5523218051.35473,4,6.5,625965.125,312023.875,301839.81198222225
2323,Torun,PL,204927,335630.2,130703.20000000001,5,154789.6471703704,294978.046285323,3464398085.23154,3,7,311604.23333333334,118493.7,144470.33735901234
2328,Tychy,PL,129502,249105,119603,2,61915.85886814815,113105.121641544,778597979.575436,5,5.6,793131.24,282278.88,216705.50603851854
2336,Walbrzych,PL,126787,506334.5,379547.5,11,340537.2237748148,302504.677648725,5607939941.42123,6,6.166666666666667,407884.56666666665,215711.96666666665,221865.16094419753
2337,Aschaffenburg,DE,115657,547907,432250,17,526284.8003792593,324362.91571289,5908811246.3243,7,6.428571428571429,728429.1428571428,310855.28571428574,367072.591861164
2339,Warszawa - Centrum,PL,2138490,2740235.1,601745.1000000001,18,557242.7298133334,495199.243908051,16400559486.2025,6,5.666666666666667,684527.9,352519.56666666665,335377.5688691358
2343,Wloclawek,PL,116691,171793.7,55102.70000000001,3,92873.78830222222,347115.444165599,5947312887.61806,7,6.142857142857143,658186.3857142858,319072.0142857143,291889.0489498413
2345,Wroclaw,PL,629954,745245.7,115291.69999999995,4,123831.7177362963,343476.313020339,7049265881.70987,5,6.8,604543.58,383441.58,334345.637888
2360,Zielona Gora,PL,118840,414728.1,295888.1,9,278621.3649066667,355080.832471318,8343700756.05017,5,6.6,482663.44,269111.34,260046.60724622224
2381,Barreiro // Moita,PT,111307,199070.4,87763.4,3,92873.78830222222,277370.742584178,3566683587.07111,5,5.6,639112.28,128606.7,148598.06128355555
2383,Braga,PT,130538,207205.3,76667.29999999999,3,92873.78830222222,279470.035433177,3939620668.00866,5,5,604843.05,169894.55,208966.02368
2388,Coimbra,PT,98508.9,436802.6,338293.69999999995,13,402453.082642963,556129.606286791,20444400788.4446,8,5.571428571428571,658600.9428571429,132578.1857142857,154789.6471703704
2391,Augsburg,DE,378169,605197,227028,11,340537.2237748148,329231.297782792,5849965135.35361,6,6.333333333333333,664748.1666666666,269411.5,314738.94924641977
2403,Guimaraes // (Santo Tirso 2001),PT,126527,336456,209929,10,309579.2943407408,407241.011131439,9224336515.27312,5,6.4,487271.74,149063.75999999998,173364.4048308148
2407,Lisboa // Sintra,PT,1851170,1940234.3,89064.30000000005,4,123831.7177362963,297338.032727298,4991437545.09405,4,5.666666666666667,323442.6666666666,142019.03333333333,165108.9569817284
2421,Porto,PT,1172360,1366369.2,194009.19999999995,7,216705.5060385185,320756.41806587,3993826196.98259,4,6,326821.3,208296.66666666666,268302.05509530863
2428,Seixal // Almada,PT,334455,334455,0,0,0,79721.9295790938,305185272.890633,4,4.666666666666667,774799.5,81742.50000000001,92873.78830222222
2429,Setubal,PT,116694,185093.8,68399.79999999999,2,61915.85886814815,623513.307028044,13796947347.2225,5,5.5,306530.175,120329.67499999999,131571.20009481482
2447,Arad,RO,165390,259039.1,93649.1,2,61915.85886814815,447907.316100966,10590597156.8253,7,6,405887.03,211171.5442857143,199015.26064761906
2448,Bacau,RO,185214,405874.9,220660.90000000002,4,123831.7177362963,336194.126776384,6630526527.05116,5,5.6,273577.98,75204.18,92873.78830222222
2449,Baia Mare,RO,154333,267830.3,113497.29999999999,4,123831.7177362963,409858.419090885,9555905111.7696,5,6,361185.19999999995,185076.44999999998,185747.57660444445
2464,Botosani,RO,115594,227665.8,112071.79999999999,3,92873.78830222222,301713.996369999,5509022537.99252,4,5.333333333333333,326239.73333333334,129186.39999999998,154789.6471703704
2466,Braila,RO,210116,210116,0,0,0,315605.600166891,6230000600.62192,5,5.8,277855,91162.82,99065.37418903704
2468,Brasov,RO,310137,491833.3,181696.3,6,185747.57660444445,351499.97566203,8315108679.66357,7,6.285714285714286,268098.7585714286,141532.01571428572,154789.64717037036
2469,Bucuresti,RO,2025660,2133264.3,107604.29999999981,4,123831.7177362963,384982.489775709,8164508420.54567,6,5.833333333333333,281399.9666666667,121021.88333333335,123831.7177362963
2472,Buzau,RO,131043,297503.9,166460.90000000002,6,185747.57660444445,365890.249296963,8188568207.06839,8,5.75,541538.0499999999,118226.02499999998,123831.7177362963
2475,Campina // Breaza,RO,90269.2,214690.8,124421.59999999999,6,185747.57660444445,238944.297579853,2515457519.97068,6,6,275457.6166666667,96895.03333333334,113512.40792493828
2484,Cluj-Napoca,RO,308026,559981.6,251955.59999999998,7,216705.5060385185,462201.498818995,13204064586.2012,6,6,297806.535,137406.535,144470.33735901234
2486,Comanesti // Moinesti // Targu Ocna // Darmanesti,RO,102906,182947.1,80041.1,3,92873.78830222222,303045.486233478,5907970608.93713,5,6.2,353634.92,162291.52,154789.6471703704
2487,Constanta,RO,301215,497162,195947,6,185747.57660444445,384290.941981203,7257468988.8213,5,6,228709.05000000002,97810.32500000001,85134.30594370372
2491,Craiova,RO,299071,489688.7,190617.7,6,185747.57660444445,457674.719117618,13295750958.1807,6,6.166666666666667,487685.73333333334,189502.1666666667,180587.92169876542
2499,Drobeta-Turnu Severin,RO,105885,155612,49727,1,30957.929434074074,653362.303158881,11313584939.8258,5,5.75,746851.775,274025.17500000005,216705.50603851854
2505,Focsani,RO,121452,196514.9,75062.9,3,92873.78830222222,351173.848428562,7514419041.8059,6,6,315994.0833333333,111200.41666666667,103193.09811358024
2507,Galati,RO,289346,307689.3,18343.29999999999,1,30957.929434074074,325850.030715984,3496548414.58939,6,5,265233.02,81791.23999999999,61915.85886814815
2515,Iasi,RO,310022,423254.39999999997,113232.39999999997,3,92873.78830222222,372215.446022605,7007097489.95427,5,5.25,299678.55,110104.3,100613.27066074075
2542,Oradea,RO,204937,275877,70940,4,123831.7177362963,440577.63845505,11219979927.4145,5,6.4,350501.54,168999.74,185747.57660444445
2550,Piatra Neamt,RO,168143,257484.2,89341.20000000001,5,154789.6471703704,369704.151189356,8252815445.66633,6,5.166666666666667,325698.35,159281.34999999998,139310.68245333334
2551,Pitesti,RO,183427,256635,73208,3,92873.78830222222,342760.346375435,6527155491.69363,7,5.714285714285714,555923.0428571429,132727.79999999996,163634.7698658201
2552,Ploiesti,RO,235616,271911.7,36295.70000000001,2,61915.85886814815,222839.102046838,2891088915.31442,4,6,702266.9249999999,116285.74999999996,147050.16481185186
2559,Ramnicu Valcea,RO,114200,171253.1,57053.100000000006,2,61915.85886814815,311328.396168084,5811609585.65076,6,6.333333333333333,372142.11833333335,183129.685,175428.26679308643
2566,Satu Mare,RO,111643,170311.3,58668.29999999999,3,92873.78830222222,357553.601591216,6442240223.89481,6,5.2,324540.08,124885.07999999999,154789.64717037036
2570,Sibiu,RO,154326,397314.21,242988.21000000002,8,247663.4354725926,438563.785084075,11284518354.5941,6,6.5,380210.85,185816.11666666667,149629.99226469136
2580,Suceava,RO,112995,297980.6,184985.59999999998,7,216705.5060385185,388681.531559144,8578423152.6708,5,5.5,292361.9,139901.65,147050.16481185186
2581,Targoviste,RO,96952.5,163608.7,66656.20000000001,3,92873.78830222222,257567.535634535,3196822779.90027,4,5.75,719125.45,85382.39999999995,116092.23537777778
2583,Targu Jiu,RO,96844.4,382690.7,285846.30000000005,5,154789.6471703704,414785.933230583,10629616628.3237,6,5.833333333333333,327506.3016666667,134417.46833333335,118672.06283061729
2584,Targu Mures,RO,171771,416467.3,244696.3,7,216705.5060385185,438238.865557548,12618185575.5448,7,5.714285714285714,350767.33,163500.75857142857,176902.4539089947
2588,Timisoara,RO,319661,492130.7,172469.7,4,123831.7177362963,460632.576965472,9945213543.49773,5,6,276666.1,142620.25,100613.27066074075
2592,Tulcea,RO,90404.9,90404.9,0,0,0,350230.866235352,7010338326.21033,4,5.333333333333333,338322.43333333335,71430.09999999999,72235.16867950617
2615,Boras,SE,103294,212983,109689,3,92873.78830222222,539545.477799943,12558544425.3702,4,6.25,460951,219838.5,154789.6471703704
2619,Eskilstuna,SE,96311,128739,32428,1,30957.929434074074,270408.679865195,4520209381.72078,5,5.6,531360,128962.8,117640.13184948148
2626,Gavle,SE,95055,285097,190042,5,154789.6471703704,785269.921571317,29202278690.37,5,5.5,240107.5,98561,100613.27066074075
2627,Goteborg,SE,609808,908627,298819,6,185747.57660444445,715211.521962254,11641945924.5473,4,6.333333333333333,247755,137570.33333333334,113512.40792493828
2629,Halmstad,SE,91800,190892,99092,2,61915.85886814815,548745.200621873,13250193582.77,6,5,435073.06,219043.26,160981.2330571852
2632,Helsingborg,SE,129177,266971.1,137794.09999999998,4,123831.7177362963,365547.984835393,3660261408.95621,5,4.75,659456.5,209043.5,201226.54132148146
2633,Jonkoping,SE,127382,404895,277513,6,185747.57660444445,689831.044281552,22979092302.2901,6,5.8,275178.84,157687.24,130023.3036231111
2652,Linkoping,SE,146416,250740,104324,3,92873.78830222222,564993.143851687,13900704360.0041,4,6.666666666666667,312390.6666666667,181426.66666666666,144470.33735901234
2654,Lund,SE,110488,381889.2,271401.2,7,216705.5060385185,667494.574789026,9857925550.76496,6,5.4,301200.18,146566.38,117640.13184948149
2656,Malmo,SE,315664,391186,75522,2,61915.85886814815,160011.199148772,898052828.357971,3,5.5,324430.15,204597.65,170268.6118874074
2661,Norrkoping,SE,130050,192887,62837,2,61915.85886814815,412264.624984037,6119137922.57178,5,5.5,598976.25,128092,108352.75301925925
2664,Orebro,SE,135460,339390,203930,6,185747.57660444445,814342.436688487,38015195641.0201,9,4.75,324785.25,144094.875,112222.49419851851
2678,Sollentuna // Upplands-Vasby,SE,103919,233173,129254,4,123831.7177362963,283545.987299534,3778549385.7496,5,4.75,557266.5,73102.75,69655.34122666667
2680,Stockholm,SE,1505350,1677036,171686,4,123831.7177362963,323202.903740473,3355359114.8474,4,5,184933,74839.66666666667,72235.16867950617
2681,Sundsvall,SE,95732,197749,102017,3,92873.78830222222,1328528.4737614,87640311176.4545,3,5,330781.5,225517.5,170268.61188740743
2687,Umea,SE,115473,376466,260993,6,185747.57660444445,2128203.97757104,128423663501.291,5,4.5,262738.5,138534.25,116092.23537777778
2689,Uppsala,SE,197787,208977,11190,1,30957.929434074074,520733.82628606,7468416475.76762,5,5,259822.5,112909.5,100613.27066074075
2694,Vasteras,SE,137207,214314,77107,3,92873.78830222222,388826.797279805,7916383216.02011,5,5.8,239075.2,113368.8,105256.96007585185
2703,Ljubljana,SI,252808,341470.2,88662.20000000001,4,123831.7177362963,346361.142403578,7466403288.35933,6,6,514591.55,229214.71666666667,221865.16094419753
2727,Kosice,SK,229662,331832.6,102170.59999999998,4,123831.7177362963,434073.835956435,7221118684.29016,5,5.75,350509.775,227041.45,278621.3649066667
2743,Bratislava,SK,386562,916113.8,529551.8,20,619158.5886814815,475967.813464582,11860366073.9818,7,6.428571428571429,1171305.4285714286,433232.10000000003,451101.25746793655
2748,Presov,SK,94873.3,367633.8,272760.5,10,309579.2943407408,511348.629840301,8990212243.45271,4,6,472403.8,297125.8,309579.2943407408
2762,Bamberg,DE,93446,347415,253969,9,278621.3649066667,377589.332918665,8092310030.87068,7,6.142857142857143,491136.21428571426,261214.35714285713,291889.0489498413
2784,Aberdeen,UK,209694,321909.2,112215.20000000001,5,154789.6471703704,907597.359328758,19788602087.1427,2,4,312370.69,139502.69,154789.6471703704
2790,Aldershot,UK,294681,415476,120795,4,123831.7177362963,127004.041373605,1085887759.19254,6,5.833333333333333,432978,103940.66666666667,113512.40792493828
2809,Ayr // Irvine,UK,107319,240089.69999999998,132770.69999999998,5,154789.6471703704,684510.433016973,8690206254.43012,4,4.666666666666667,879138.6,223432.3,237344.12566123458
2819,Basildon/North Benfleet,UK,101819,373671,271852,6,185747.57660444445,161098.295680019,603011597.358101,5,6.75,2705316.25,142490,123831.7177362963
2820,Basingstoke/Basing,UK,99550,248077,148527,4,123831.7177362963,155475.404995619,1540185568.91173,6,6.166666666666667,436893.3333333333,124788.5,149629.99226469136
2821,Bath,UK,96006,342792,246786,11,340537.2237748148,225082.857978704,2919232639.38363,6,6.333333333333333,452926.1666666667,148595.83333333334,196066.88641580247
2824,Bedford/Kempston,UK,104857,190494,85637,3,92873.78830222222,125057.26174741,1100539656.50332,6,6.333333333333333,349661.3333333333,162670.5,154789.6471703704
2826,BELFAST,UK,568074,866423.8,298349.80000000005,11,340537.2237748148,685234.793767874,8914964871.02528,4,4.333333333333333,636635.7999999999,197245.1333333333,278621.3649066667
2838,Birkenhead,UK,358522,810634,452112,12,371495.1532088889,579416.385267519,6973983097.15322,7,6.5,583183.45,219009.11666666667,268302.05509530863
2843,Blackburn/Darwen,UK,148359,148359,0,0,0,102116.116211526,539457863.215569,4,7,1143904.5,60368.25,85134.3059437037
2844,Blackpool,UK,262540,262540,0,0,0,78665.8062747901,331633599.935777,4,6.333333333333333,237248.66666666666,70315.33333333333,82554.4784908642
2857,Bournemouth,UK,412329,595292,182963,8,247663.4354725926,290263.503773706,3059629209.9574,6,6.4,445417.52,205791.52,253855.0213594074
2867,Brighton/Worthing/Littlehampton,UK,502257,597078,94821,2,61915.85886814815,145878.09039113,1144291722.56772,5,5.75,416222.5,147948.75,193487.05896296297
2868,Chipping Sodbury,UK,631956,775704,143748,8,247663.4354725926,236752.317077347,1350474446.4781,6,6.8,345825.8,151135.6,185747.57660444445
2877,Burnley/Nelson,UK,155321,208776,53455,3,92873.78830222222,170285.44386542,1617096042.3357,6,6,1054631.5,56496.5,82554.4784908642
2879,Burton Upon Trent // Swadlincote/Donisthorpe // S*,UK,109716,227281,117565,5,154789.6471703704,128495.003047375,1039140054.96349,6,6.5,808773,166782.83333333334,154789.6471703704
2885,Cambridge,UK,158643,317469,158826,7,216705.5060385185,210005.367190445,3052087510.00399,7,5.571428571428571,292695,156114.2857142857,150367.08582264552
2888,Cardiff,UK,372985,578865,205880,5,154789.6471703704,274284.379366076,1237748516.54541,7,6,386400.3333333333,134571,180587.92169876542
2895,Castleford/Normanton South // Pontefract,UK,93485,187960,94475,5,154789.6471703704,104895.829036435,703424146.99395,5,6,522547.8,59073.4,92873.78830222222
2900,Chelmsford,UK,99686,202227,102541,4,123831.7177362963,138281.592346385,1235359781.8093,7,5.857142857142857,1627339.7142857143,146397.85714285713,123831.7177362963
2901,Cheltenham/Charlton Kings,UK,115732,151404,35672,2,61915.85886814815,140222.885040953,1283121037.77553,5,6.6,264338.6,124718.8,142406.47539674075
2905,Chesterfield/Staveley,UK,131001,213777,82776,3,92873.78830222222,135458.169388567,870151437.578762,5,6.4,425374.6,103615.4,136214.88950992594
2913,Berlin,DE,3702370,4130344,427974,12,371495.1532088889,410933.485651768,9363484217.21098,6,6.666666666666667,396077.6666666667,212246.66666666666,216705.50603851854
2919,Colchester,UK,116893,206117,89224,3,92873.78830222222,183328.679189918,1337707530.61631,5,6,305953.25,117361.5,147050.16481185186
2930,Coventry/Bedworth,UK,357685,436030,78345,1,30957.929434074074,104490.245127792,473523927.737392,4,6.25,868652.25,143782.5,100613.27066074075
2935,Crawley,UK,196935,389229,192294,7,216705.5060385185,160856.134680764,1711798464.30812,7,5.714285714285714,1699891.142857143,108189.85714285714,97296.3496499471
2941,Darlington,UK,91417,190888,99471,5,154789.6471703704,246557.633596663,3548695168.17347,6,5.666666666666667,440652.6666666667,118394.33333333333,139310.68245333334
2945,Dearne Valley,UK,140797,199349,58552,3,92873.78830222222,108063.131516441,612083658.691152,5,6.2,1369284,47614.8,86682.20241540742
2946,Derby,UK,264031,264031,0,0,0,109611.051147916,591728258.440132,5,6.4,484250,135484,154789.6471703704
2948,DERRY,UK,89543,228333,138790,8,247663.4354725926,934674.428917323,21574074870.4411,4,4,914078.0666666667,292307.4,319898.60415209876
2951,Doncaster,UK,161394,237903,76509,5,154789.6471703704,140299.421780792,1405528722.11805,8,5.375,329645.25,88810.125,100613.27066074075
2957,Dundee,UK,172868,312370.69,139502.69,5,154789.6471703704,681451.222622696,14320220577.7926,4,4,451809.56666666665,186319.23333333334,196066.8864158025
2968,Eastbourne,UK,114507,226670,112163,6,185747.57660444445,100147.96370114,647333929.398832,4,5.666666666666667,395173.6666666667,117656,103193.09811358024
2971,Edinburgh,UK,484001,774387.9,290386.9,9,278621.3649066667,400940.487428141,5740420630.42184,5,5.25,556077.7725,188823.0475,208966.02368
2979,Exeter,UK,112254,314472,202218,9,278621.3649066667,309296.156657669,5126490834.52476,8,5.285714285714286,488519.14285714284,178103,243240.87412486773
2982,Grangemouth,UK,102776,259131.6,156355.6,5,154789.6471703704,605427.207193393,7591237397.07083,5,4.75,714437.6475,200459.1725,201226.5413214815
2991,Bielefeld,DE,339383,1064056,724673,18,557242.7298133334,210072.829574648,2699529507.27722,5,6.8,452580.4,215197.8,216705.50603851854
3000,Coatbridge,UK,1307880,1616749.2,308869.19999999995,8,247663.4354725926,856578.607068921,10205847111.271,4,5,217821.36666666667,117401.4,144470.33735901237
3003,Gloucester,UK,151912,236854,84942,4,123831.7177362963,160330.760091862,1553970030.78984,6,6.166666666666667,345355.6666666667,116551.16666666667,154789.64717037036
3013,Great London,UK,9423910,9423910,0,0,0,201534.85434864,1244683014.83594,7,6.333333333333333,378656.1666666667,177566.33333333334,154789.64717037036
3014,Greater Manchester,UK,3792250,3821051,28801,2,61915.85886814815,139560.89912836,1253700035.54174,8,5.875,573274.5,94857.125,108352.75301925925
3016,Grimsby/Cleethorpes,UK,140669,179059,38390,2,61915.85886814815,219132.899567594,1809346539.02092,3,6,384136,165748.5,139310.68245333334
3024,Harrogate/Knaresborough,UK,91769,128450,36681,2,61915.85886814815,180504.386260132,2003109134.14956,6,5.5,510724.1666666667,67283.66666666667,103193.09811358026
3025,Hartlepool,UK,89967,121948,31981,1,30957.929434074074,115676.439990808,413582963.235399,4,5.666666666666667,706379.3333333334,176167.66666666666,206386.19622716052
3028,Hastings/Bexhill,UK,133361,199214,65853,1,30957.929434074074,166477.300960429,1239273775.62865,5,6.25,416502.025,216009.72499999998,208966.02367999998
3045,High Wycombe,UK,143355,212860,69505,3,92873.78830222222,114984.455816007,870162683.047501,6,5.833333333333333,336523.8333333333,87481.83333333333,103193.09811358024
3058,Ipswich,UK,163210,246108,82898,4,123831.7177362963,226875.962064123,2311318889.3637,4,5.333333333333333,321975.6666666667,159473.66666666666,175428.26679308643
3059,Islwyn // Caerphilly/Bedwas,UK,123915,184637,60722,2,61915.85886814815,157165.513082505,554436423.729088,3,6.666666666666667,378658,134800.66666666666,103193.09811358026
3071,Kingston upon Hull,UK,326900,477783,150883,3,92873.78830222222,289062.22900404,2265621283.61999,5,6,242984.75,101082.25,131571.20009481482
3081,Leicester,UK,505390,658042,152652,5,154789.6471703704,155953.756338185,1574867054.55409,6,6.333333333333333,358340.6666666667,102840.16666666667,103193.09811358026
3087,Lincoln,UK,109875,290489,180614,6,185747.57660444445,230886.504379642,3342667021.97461,7,5.833333333333333,358445.5,89018,103193.09811358026
3090,Livingston,UK,91164.9,154242.8,63077.899999999994,4,123831.7177362963,290774.68985572,3981304641.91927,6,4.8,877784.88,256947.68,247663.4354725926
3098,Luton/Dunstable,UK,256737,306959,50222,3,92873.78830222222,101385.544879101,645775704.124241,5,5.6,276183,133870.2,111448.54596266667
3108,Mansfield,UK,175474,186359,10885,1,30957.929434074074,107845.38214412,732166799.608006,5,6.2,309599.2,75501.6,99065.37418903704
3122,Milton Keynes (Bletchley jusque 1981),UK,230852,365359,134507,4,123831.7177362963,129576.031542157,1052847299.98474,5,6.6,280770.4,103878.4,123831.7177362963
3125,Morecambe/Lancaster,UK,97275,256492,159217,6,185747.57660444445,372705.172036948,6160336965.5329,7,5.5,433071.3333333333,91547,108352.75301925927
3140,Newport // Pontypool/Cwmbran,UK,240294,256146,15852,1,30957.929434074074,184909.898522624,1725563404.70207,7,5.833333333333333,401828.1666666667,151128,149629.99226469136
3149,Northampton,UK,216264,346603,130339,3,92873.78830222222,159385.051877297,1583809532.86896,8,6,356316.5,137710.125,139310.68245333334
3153,Norwich,UK,211970,442341,230371,7,216705.5060385185,268033.267764955,4958959828.69208,4,6.333333333333333,327624.3333333333,166388.33333333334,206386.1962271605
3154,Nottingham,UK,650273,650273,0,0,0,130555.079210965,1082813551.20845,6,6,328961.8333333333,106533.5,118672.06283061729
3155,Nottingham // Alfreton,UK,117945,155554,37609,2,61915.85886814815,91226.9780891623,430786756.183517,5,6,408908,92651,105256.96007585185
3156,Hinckley,UK,130864,242560,111696,3,92873.78830222222,110968.068974124,642833994.331398,5,6,872317.4,142856.4,111448.54596266667
3161,Oxford,UK,163247,346936,183689,8,247663.4354725926,175654.964403515,2134916574.54889,8,5.875,269807.25,80588.375,81264.56476444444
3169,Peterborough,UK,161855,419296,257441,9,278621.3649066667,273163.736171659,4071903289.04473,8,6.285714285714286,413673,134062.7142857143,137099.4017794709
3173,Plymouth,UK,261107,476106,214999,10,309579.2943407408,455160.665846892,5418567188.55787,3,5.5,239433.5,126173.5,170268.61188740743
3178,Portsmouth,UK,466972,633515,166543,8,247663.4354725926,221226.542638979,1372294577.75151,6,5.8,487803.2,159273.4,154789.64717037036
3180,Preston,UK,289299,289299,0,0,0,105678.889147786,583088107.808573,7,5.666666666666667,844200.6666666666,79785.66666666667,87714.13339654321
3184,Braunschweig,DE,248867,297610,48743,1,30957.929434074074,197057.649578939,1506573071.32745,5,6,460291.4,213196,216705.50603851854
3185,Reading // (Wokingham à partir de 1971),UK,430198,430198,0,0,0,101138.569137715,589052445.080345,5,6.4,304624,108795,123831.7177362963
3187,Rhondda // Pontypridd,UK,118293,300963,182670,4,123831.7177362963,254495.510426248,2715034548.63088,6,6.333333333333333,350724.6666666667,140808.33333333334,154789.6471703704
3194,Bremen,DE,588920,818057,229137,7,216705.5060385185,279369.728366948,5124926361.88866,5,7,979358.6,344166.4,346728.8096616296
3205,Bremerhaven,DE,113366,335383,222017,7,216705.5060385185,465733.054766393,4783168629.63248,7,6,882708.2833333333,317323.2833333333,319898.60415209876
3212,Sheffield,UK,793477,816957,23480,1,30957.929434074074,130004.914292208,773899007.676869,5,7,1040436,123246.4,160981.2330571852
3222,Slough,UK,278312,299771,21459,1,30957.929434074074,98171.9121957384,589311111.059855,6,6.166666666666667,1856932.1666666667,86268,92873.78830222222
3226,Hedge End // Botley,UK,333832,583093,249261,7,216705.5060385185,226562.35323619,1779244681.52757,6,6,406363.6,154652.4,204322.3342648889
3228,Southend,UK,332828,458009,125181,4,123831.7177362963,231940.019011938,589594310.803388,6,6.2,366424.82,204639.78,167172.818944
3229,Southport/Formby,UK,114226,165955,51729,2,61915.85886814815,111488.333484116,413496139.799666,5,6,443320,172769.75,147050.16481185186
3232,St Albans/Hatfield,UK,134906,269920,135014,4,123831.7177362963,113492.579993988,766809529.378645,6,6,1798001.5,81402.5,77394.8235851852
3241,Stevenage,UK,97594,342282,244688,4,123831.7177362963,118696.520571253,926631685.034142,5,6.2,257413.8,106448,130023.3036231111
3255,Swansea,UK,284264,486480,202216,11,340537.2237748148,576406.861380078,7193938171.56073,6,7.2,453841.6,234850.8,216705.50603851854
3256,Swindon,UK,183699,212142,28443,2,61915.85886814815,182945.3397986,2186547903.66699,6,6.166666666666667,318192.6666666667,158146.16666666666,185747.57660444445
3261,Teesside,UK,397008,429684,32676,2,61915.85886814815,191968.085375979,1783883826.99554,5,5.5,176443.5,69237.25,92873.78830222222
3264,Telford (Wellington jusque 1981),UK,132900,264274,131374,5,154789.6471703704,327131.86936316,6177308273.71585,8,6.714285714285714,797576.4285714285,255477.7142857143,243240.87412486773
3268,The Medway Towns,UK,394881,737119,342238,8,247663.4354725926,219452.027198559,2507832261.11355,7,6.166666666666667,1859503.85,145420.65,123831.7177362963
3269,The Potteries,UK,360506,730100,369594,13,402453.082642963,192404.824235934,2368959968.85383,9,6.111111111111111,776040.6666666666,123631.55555555556,127271.48767341564
3276,Torbay,UK,114266,164395,50129,2,61915.85886814815,123824.403515333,802278903.061505,3,5.5,395289,208608.5,294100.3296237037
3280,Prudhoe,UK,1102210,1498566,396356,13,402453.082642963,359131.222719934,7639113709.61352,6,5.6,299591.74,128826.76000000001,154789.6471703704
3288,Warrington,UK,171840,410807,238967,7,216705.5060385185,148034.578881031,1178650756.03526,6,7.2,1163407.8,180447.2,179555.99071762964
3289,Warwick/Leamington,UK,94101,191815,97714,3,92873.78830222222,150410.085383771,1534457789.79551,6,6.333333333333333,718091.6666666666,148705.33333333334,123831.7177362963
3294,West Midlands,UK,2458250,2693631,235381,4,123831.7177362963,147267.044982049,1404903763.38328,6,6,282651,127583.33333333333,118672.06283061729
3296,Glusburn // Steeton,UK,1767740,1782549,14809,1,30957.929434074074,133429.520885647,1061703116.45656,5,6,909117.2,54392.8,92873.78830222222
3317,Worcester,UK,105140,333946,228806,6,185747.57660444445,233296.988057435,3111744049.64785,7,6.285714285714286,585012.4285714285,111943.57142857143,101718.91099767196
3324,York,UK,155672,264488,108816,4,123831.7177362963,208485.653489449,2726158987.33023,6,5.8,292356,78244.8,105256.96007585186
3339,Chemnitz,DE,250230,456761.3,206531.3,10,309579.2943407408,278885.703906993,4389741052.35843,6,5.833333333333333,560995.0833333334,268685.25,304419.6394350617
3345,Cottbus,DE,102091,350052.5,247961.5,10,309579.2943407408,357544.400485844,8564254459.34854,7,5.714285714285714,992676.6857142857,211259.04285714286,216705.5060385185
3349,Darmstadt,DE,193395,438918,245523,10,309579.2943407408,194694.867818181,1930211095.21096,5,6.2,947363.2,398089,439602.5979638519
3374,Dresden,DE,688881,835972,147091,7,216705.5060385185,297381.994602686,5644501093.86319,5,6.2,451776.9,226879.8,266238.1931330371
3377,Duren,DE,92820,324357,231537,5,154789.6471703704,203440.734330669,2053723631.84383,6,6.333333333333333,803765.3333333334,204865.66666666666,165108.95698172838
3378,Dusseldorf,DE,825187,1128839,303652,6,185747.57660444445,134285.603200641,948017834.253162,5,5.8,740335.4,233606.8,191939.16249125925
3406,Erfurt,DE,204994,595359,390365,13,402453.082642963,371627.923518592,8495375616.5775,8,6.25,399943.25,252532.5,290230.58844444447
3409,Erlangen,DE,115634,198053,82419,4,123831.7177362963,315088.684870559,2657023940.60938,3,7,548291,216069.33333333334,247663.4354725926
3414,Eschweiler // Stolberg (Rhld.),DE,112979,112979,0,0,0,178367.096604609,950376032.065369,5,6.4,362727.2,159018.4,123831.7177362963
3416,Essen // Duisburg // Dortmund // Bochum // Gelsen*,DE,4016900,4414563,397663,8,247663.4354725926,178413.201207553,2244599286.32314,8,6,573434.5,308406.5,282491.10608592595
3417,Esslingen am Neckar,DE,130557,343893,213336,5,154789.6471703704,83188.0748711412,436990761.693985,5,6,458317.6,190332,185747.57660444445
3427,Flensburg,DE,100181,302784.7,202603.7,7,216705.5060385185,709075.225100746,9609937960.85096,5,6,454315.30000000005,254300.80000000002,247663.4354725926
3431,Frankfurt am Main,DE,1719470,2500659,781189,25,773948.2358518519,288198.282419522,4594445525.41606,6,6.5,441410,260706.16666666666,304419.6394350617
3436,Freiburg im Breisgau,DE,240655,470308.9,229653.90000000002,7,216705.5060385185,293450.299189068,5077679999.87868,6,6.166666666666667,424661.5,234462.33333333334,242503.7805669136
3457,Wien,AT,1948570,2283497.6,334927.6000000001,12,371495.1532088889,451598.848341061,13227773653.6384,6,6.333333333333333,553184.4833333334,291127.43333333335,319898.60415209876
3461,Gera,DE,103005,210375,107370,5,154789.6471703704,248799.159245217,2452368411.4017,5,5.8,564502.8,308458.2,328154.0520011852
3474,Goppingen,DE,133386,355677,222291,5,154789.6471703704,239920.458076474,3487131281.91414,9,5.777777777777778,450387.3333333333,210363.44444444444,240783.8955983539
3477,Gottingen,DE,121060,309472,188412,9,278621.3649066667,298906.04272059,5159641264.8605,5,6.8,369392.6,210505,247663.4354725926
3497,Gutersloh,DE,96404,334978,238574,7,216705.5060385185,142858.163902857,1289184658.91042,5,6.2,570563.2,348289,309579.2943407408
3502,Halle(Saale),DE,232963,590634,357671,9,278621.3649066667,297228.293400003,4696599711.86069,7,6,439587.4285714286,226477.7142857143,247663.4354725926
3505,Hamburg,DE,2058990,2759930,700940,23,712032.3769837037,356997.281777595,8463454838.5711,7,6.285714285714286,490049.5714285714,187255.14285714287,194592.6992998942
3507,Hamm,DE,181783,409238,227455,6,185747.57660444445,179026.711672518,1514589206.79424,4,6.25,426912.5,268565,247663.4354725926
3509,Hannover,DE,677313,996302,318989,9,278621.3649066667,308178.832236644,6304189241.09575,7,5.857142857142857,833552.4285714285,315763.28571428574,296311.61029756616
3516,Heidelberg,DE,214793,387895,173102,8,247663.4354725926,176593.441938867,1819520890.04585,6,5.666666666666667,568215.6666666666,307182.3333333333,350856.53358617285
3519,Heilbronn,DE,181728,353314,171586,8,247663.4354725926,239973.668441367,3501344627.26783,7,6.285714285714286,448385.5714285714,199800.14285714287,229973.19008169312
3535,Salzburg,AT // DE,186121,476963,290842,14,433411.012077037,496887.51121817,14714993597.9354,6,6.333333333333333,357424.15,208308.15,227024.81584987656
3539,Hildesheim,DE,102794,199229,96435,3,92873.78830222222,204995.067181816,2505277356.87711,6,6,541923.3333333334,269373.3333333333,252823.09037827162
3563,Ingolstadt,DE,142870,242510,99640,5,154789.6471703704,303725.343552218,5127038994.87228,5,7,938784.2,331166.2,377686.7390957037
3566,Brussels,BE,4376050,4408925,32875,1,30957.929434074074,181787.690779696,2153261559.70065,7,6.142857142857143,349925.6285714286,108668.91428571429,101718.91099767196
3568,Jena,DE,105129,291685,186556,6,185747.57660444445,278540.972114753,3831690891.92944,5,6.4,501344.33999999997,351889.94,352920.3955484445
3571,Kaiserslautern,DE,99184,208276,109092,3,92873.78830222222,261014.441400432,4071991400.8103,8,6,782864.6125,309414.4875,321188.51787851856
3577,Karlsruhe,DE,329936,728243,398307,11,340537.2237748148,208044.988784828,2691261690.06047,5,6.6,526642.38,227602.18,260046.60724622224
3578,Kassel,DE,237973,468275,230302,12,371495.1532088889,346717.792945776,7920389336.31728,6,6.833333333333333,811732.3333333334,400739.5,433411.01207703707
3589,Kiel,DE,276232,494607,218375,7,216705.5060385185,459709.364342101,5005971488.12199,7,6.333333333333333,767027,284832.3333333334,304419.6394350617
3596,Koblenz // Neuwied,DE,279521,362613,83092,3,92873.78830222222,298903.417454644,5948374935.58702,6,7,1045002.5,347055,319898.60415209876
3597,Koln,DE,1981050,2464850,483800,14,433411.012077037,218775.319458422,2933155822.01225,6,5.666666666666667,672236.3333333334,240555.83333333334,216705.5060385185
3601,Konstanz,DE,104237,455293,351056,10,309579.2943407408,354311.652934668,4167829134.46671,6,5.8,427354.78,256360.58000000002,260046.60724622224
3628,Leipzig,DE,579037,720495,141458,7,216705.5060385185,285675.391588509,5230111320.64971,6,6,475864.1333333333,218721.8,247663.4354725926
3631,Brugge,BE,116885,255228,138343,5,154789.6471703704,142628.318560216,1404901230.22503,6,6,506849.56,124216.56000000001,105256.96007585185
3641,Dornbirn // Bregenz,AT,144916,467463,322547,10,309579.2943407408,382920.968744718,7262509272.13469,7,6.666666666666667,361951.15,189039.81666666665,216705.50603851854
3642,Charleroi,BE,424663,477373.2,52710.20000000001,1,30957.929434074074,262129.618046868,3095867454.83342,5,6.8,1110184.712,85780.91200000001,105256.96007585185
3655,Lubeck,DE,247059,338948,91889,5,154789.6471703704,331329.892175788,3607735556.15872,5,7.5,966471.6,307457.35,325058.25905777776
3662,Dendermonde,BE,90115,150424,60309,2,61915.85886814815,157681.473737519,1662669605.68693,6,6.166666666666667,1208230.76,123753.26000000001,123831.7177362963
3663,Magdeburg,DE,231525,558234,326709,12,371495.1532088889,388861.829291906,8252407521.61552,6,6.166666666666667,339376.3333333333,178279.83333333334,165108.9569817284
3664,Mannheim // Ludwigshafen am Rhein,DE,597267,1092079,494812,18,557242.7298133334,176921.409374343,1785224863.77054,4,6,440833,231506,247663.4354725926
3701,Monchengladbach,DE,257993,603909,345916,8,247663.4354725926,137219.001463954,1141953306.75729,7,5.571428571428571,422978,197242.7142857143,150367.08582264552
3713,Munchen,DE,1619760,2233961,614201,26,804906.165285926,307872.426573331,5111815913.05417,5,6,381814,197069.2,260046.60724622224
3714,Munster,DE,279803,647129,367326,10,309579.2943407408,197740.313130872,2497291017.87909,6,6.333333333333333,1129791.6666666667,341932,294100.3296237037
3717,Hasselt // Genk // Beringen // Sint-Truiden // He*,BE,468798,584502,115704,3,92873.78830222222,191004.760242074,2524383714.81163,8,6.125,953176.8875,162574.0125,143180.4236325926
3734,Neunkirchen // Schiffweiler // Spiesen-Elversberg,DE,95604,294874,199270,6,185747.57660444445,228236.118258166,2482209211.36655,4,8,411515.9925,152773.9925,178008.09424592595
3752,Nurnberg,DE,732555,942874,210319,8,247663.4354725926,366235.706460749,5833797785.44028,7,6.714285714285714,335272.97142857144,192725.4,212282.94469079367
3769,Oldenburg (Oldenburg),DE,162173,367311,205138,7,216705.5060385185,305225.36691014,5515966560.90413,6,6.4,492746.4,256404.4,247663.4354725926
3777,Osnabruck,DE,164119,437867,273748,10,309579.2943407408,267032.062440266,4781683929.33341,8,5.875,662223.125,360905.75,309579.2943407408
3781,La Louviere,BE,186141,247641.1,61500.100000000006,3,92873.78830222222,190091.801623493,1326073116.7034,4,6,1341063.715,62654.71500000001,61915.85886814815
3784,Paderborn,DE,146283,294526,148243,6,185747.57660444445,251586.236527646,4015395904.38871,8,5.5,479842,311243.25,301839.81198222225
3794,Pforzheim,DE,148217,248833,100616,4,123831.7177362963,188268.984836044,1884043281.97775,6,6.333333333333333,555389.15,199245.65,227024.81584987656
3802,Liege,BE,846055,856584,10529,1,30957.929434074074,248732.086931961,3915811734.56668,6,6.5,291186.11666666664,76286.11666666667,67075.51377382716
3806,Potsdam,DE,165684,411390,245706,7,216705.5060385185,413589.756197164,9139896820.21042,6,6.666666666666667,1089781.9166666667,265914.25,278621.3649066667
3820,Ratingen,DE,91088,157967,66879,2,61915.85886814815,116954.266139535,658457893.01757,5,6.4,1358021.6,295807,210513.9201517037
3824,Regensburg,DE,174220,556212,381992,11,340537.2237748148,419486.748760698,11608753482.7852,8,6,649895.6375,238393.85,317318.77669925924
3828,Reutlingen,DE,142228,463892,321664,9,278621.3649066667,235402.98969652,3571596883.67972,6,6.166666666666667,382557.48333333334,231297.15,211545.8511328395
3845,Rosenheim,DE,89171,258230,169059,9,278621.3649066667,369314.848680463,6723665349.19794,4,6.5,878514.25,348665.5,441150.49443555553
3847,Rostock,DE,205615,422417.4,216802.40000000002,8,247663.4354725926,761350.343169161,11324710047.3902,8,5.857142857142857,1146442.9714285715,263232.8285714286,274198.8035589418
3855,Mons,BE,222808,327532.66000000003,104724.66000000003,4,123831.7177362963,235260.732799738,2159880812.68484,6,6.5,567205.3833333333,150583.71666666667,149629.99226469136
3858,Salzgitter,DE,102394,289574,187180,6,185747.57660444445,224852.79030358,2861164896.81608,6,6.166666666666667,425089.6666666667,234722.5,242503.7805669136
3866,Namur,BE,129100,141359.1,12259.100000000006,1,30957.929434074074,294240.866906559,4852732479.91693,6,7.166666666666667,1185979.0833333333,108352.25,98033.44320790123
3892,Schwerin,DE,95220,188932,93712,4,123831.7177362963,420197.692806965,10855593531.2361,8,6.142857142857143,1268483.0571428572,306669.6285714286,318424.41703619045
3898,Oostende,BE,125427,189641,64214,2,61915.85886814815,125346.606954663,966503200.872494,4,6.333333333333333,739185.3333333334,188401.00000000003,175428.26679308643
3903,Siegen,DE,158493,622471,463978,14,433411.012077037,307031.904039099,6645414818.30937,7,6.142857142857143,1138069.142857143,338273.85714285716,358227.4691657143
3905,Sindelfingen // Boblingen,DE,106933,228216,121283,5,154789.6471703704,170727.308255,1437662844.71538,6,6.166666666666667,526932.3,199410.96666666667,190907.23151012347
3937,Stuttgart,DE,867731,938538,70807,3,92873.78830222222,95602.6490814917,572940439.159443,5,5.6,295904.2,164487.2,185747.57660444445
3942,Sint-Niklaas // Beveren,BE,216681,280760,64079,2,61915.85886814815,223850.924770851,1845575130.67072,6,6.6,1113224.4,143426.2,130023.30362311112
3950,Trier,DE,136668,149402,12734,1,30957.929434074074,280652.769330358,5071925723.91049,9,5.777777777777778,380132.40777777776,124538.18555555555,116952.17786205762
3960,Ulm // Neu-Ulm,DE,191794,441957,250163,9,278621.3649066667,309308.207630605,5376035486.69664,5,6.8,469504.4,288917.2,278621.3649066667
3961,Unna // Kamen,DE,110900,431017,320117,9,278621.3649066667,191775.276091114,1797067391.23486,6,6.333333333333333,1305411.8333333333,320973.1666666667,288940.6747180247
