id,name,country,city_pop,cell_pop,diff_pop,n_cities_included,diff_pop_null,cell_perimeter,cell_area,cell_nNeighbors,avg_nNeighbors_of_neighbors,avg_cell_pop_of_neighbors,avg_diff_pop_of_neighbors,avg_diff_pop_of_neighbors_null
74,Wolfsburg,DE,121451,276689,155238,6,204319.74824129144,371003.689142394,8169792947.1956,7,6.285714285714286,920362.3428571429,372497.6285714286,389180.4728405551
80,Wuppertal // Hagen // Solingen,DE,1123370,1444544,321174,12,408639.4964825829,184129.399126634,2260985835.52515,5,6.2,2004898.6,572216,469935.4209549703
82,Wurzburg,DE,170664,383641,212977,9,306479.62236193713,421941.14912419,11671960962.3785,8,6.375,938063.5,485776.75,557622.6462418579
95,Lorrach // Weil am Rhein // Saint-Louis,DE // FR,135378,293153,157775,7,238373.03961484,266696.630963876,1559481135.53907,4,6,422707.3333333333,230247.66666666666,238373.03961484
99,Saarbrucken,DE // FR,363376,897136.07,533760.07,17,578905.9533503257,306809.168593603,6269535572.68637,7,6.142857142857143,582978.8,248406.37142857144,277291.0868988955
101,Aachen,DE // NL,268534,512026,243492,3,102159.87412064572,212763.80981283,2832685533.02188,7,5.714285714285714,841004.1428571428,282741.14285714284,252967.30734636082
107,Aalborg,DK,130227,201499.8,71272.79999999999,3,102159.87412064572,803333.095862566,9547113099.89643,2,3,544572.3,302069.30000000005,306479.62236193713
109,Arhus,DK,242503,544572.3,302069.30000000005,9,306479.62236193713,567457.634259945,13399260810.3995,3,3.5,390112.19999999995,241020.19999999998,272426.33098838857
135,Kobenhavn,DK,1283700,1673858.8,390158.80000000005,15,510799.37060322857,457147.645811693,5527702354.64675,4,6.333333333333333,491171.0333333333,323588.0333333333,329181.81661096954
143,Odense,DK,167957,578724.6,410767.6,13,442692.78785613144,1023561.50015442,10969143489.3362,5,5.25,830159.875,328147.375,374586.20510903426
177,Burgas,BG,193564,256507,62943,4,136213.16549419428,515658.119015928,11912768615.7968,4,5.666666666666667,610364.9,382151.56666666665,340532.9137354857
178,Albacete,ES,169950,207331.4,37381.399999999994,1,34053.29137354857,672235.877477182,29428944944.1031,8,5.75,643272.0125,295799.5125,234116.37819314643
180,Alcala de Henares,ES,198382,456217.6,257835.59999999998,5,170266.45686774285,583627.799516881,23175485214.6873,9,6.222222222222222,975506.9666666667,177020.30000000002,136213.16549419428
186,Algeciras,ES,116251,315749.3,199498.3,4,136213.16549419428,201792.056091418,2054288414.60613,3,5.5,230343.45,28654.449999999997,34053.29137354857
190,Alicante/Alacant,ES,400555,864421.1,463866.1,11,374586.20510903426,313729.741889717,5092942084.95381,4,5.333333333333333,378013.4,196467.73333333334,204319.74824129144
192,Almeria,ES,203021,364559.6,161538.59999999998,2,68106.58274709714,408310.565012936,9792100718.1435,5,4.75,483588.225,200014.475,153239.81118096857
213,Badajoz,ES,151700,489250.6,337550.6,9,306479.62236193713,795141.328821251,44351437512.7425,9,5.888888888888889,751685.9222222222,200930.5888888889,211887.14632430222
217,Barcelona,ES,3437870,3634888.7,197018.7000000002,4,136213.16549419428,225426.93079191,2378185300.21426,5,5.5,353268.425,172236.675,161753.1340243557
230,Bilbao,ES,834872,1022362.6,187490.59999999998,9,306479.62236193713,263285.534000714,3577695788.86582,5,5.5,346959.15,119289.15000000001,136213.16549419428
233,Burgos,ES,177773,210724.2,32951.20000000001,1,34053.29137354857,501977.432783918,15892697467.6412,7,6,437300.2428571429,132156.38571428572,141077.92140470122
253,Cartagena,ES,212982,319287.9,106305.90000000002,3,102159.87412064572,271341.526208897,2193720345.82063,3,5,564948.6,247606.59999999998,136213.16549419428
257,Castellon de la Plana/Castello de la Plana,ES,198429,446464.8,248035.8,8,272426.33098838857,491140.500976765,14308419336.2394,6,6.6,645921.14,189330.34000000003,149834.4820436137
259,Catarroja // Paiporta // Alfafar // Silla // Vale*,ES,150185,513026.3,362841.3,12,408639.4964825829,303861.60344211,4325278018.66809,4,5.666666666666667,820447.3666666667,250072.3666666667,204319.7482412914
271,Cordoba,ES,326590,392122.4,65532.40000000002,3,102159.87412064572,599050.55442345,22745878256.6676,6,7,513955.75,198465.75,153239.81118096857
274,"Coruna, A",ES,330021,589049.3,259028.30000000005,5,170266.45686774285,355036.525035751,6588125736.85938,4,5.333333333333333,304723.1666666666,109595.83333333333,136213.16549419428
281,Donostia-San Sebastian,ES,255733,513588.8,257855.8,8,272426.33098838857,209744.78169021,2429053591.2746,5,5.25,463874.35,92782.59999999999,144726.48833758142
282,Dos Hermanas,ES,125992,264483.9,138491.90000000002,3,102159.87412064572,292085.105566629,4390058285.30214,7,5.428571428571429,467375.7,128039.12857142858,121618.89776267347
288,Elche/Elx,ES,224502,413682.5,189180.5,5,170266.45686774285,229177.700924716,2463722115.78093,4,5.666666666666667,612363.3666666667,278307.36666666664,204319.7482412914
293,Ferrol,ES,144475,160479.7,16004.700000000012,1,34053.29137354857,308937.834146663,5690334445.29575,4,5.666666666666667,363536.9,140213.90000000002,113510.9712451619
297,Fuenlabrada,ES,213719,213719,0,0,0,109616.271384978,282555026.539391,3,6.333333333333333,1846151.6333333333,315026.9666666667,192968.65111677523
302,Gijon,ES,276075,375206.1,99131.09999999998,1,34053.29137354857,266704.500674198,3231250787.39082,4,5.666666666666667,313065.06666666665,105079.4,102159.87412064572
303,Girona,ES,127486,409876.1,282390.1,10,340532.9137354857,343281.43667541,5451490367.73428,4,4.666666666666667,336372.6666666666,162304.3333333333,204319.74824129144
304,Granada,ES,373509,493063,119554,4,136213.16549419428,393753.915254684,8875724885.3726,4,6.333333333333333,464647.5,172174.83333333334,102159.8741206457
305,Granollers // Mollet del Valles,ES,260219,422083.1,161864.09999999998,7,238373.03961484,300207.502377034,4742692827.28102,6,5,956667.88,164200.28000000003,177077.11514245256
310,Huelva,ES,147340,393619.6,246279.59999999998,9,306479.62236193713,575392.022386481,16454148390.7243,6,5.8,463189.22,196353.62,163455.79859303313
319,Jaen,ES,116141,356664.4,240523.40000000002,5,170266.45686774285,573161.196361891,19868120272.4241,7,6.142857142857143,468909.9285714286,157378.35714285713,111889.3859416596
321,Jerez de la Frontera,ES,209250,209250,0,0,0,267514.433732191,4047098650.25177,5,5,317693.125,179432.125,127699.84265080714
326,Leon,ES,162534,261169.69999999998,98635.69999999998,3,102159.87412064572,548147.311949866,19418813804.3419,7,6,312939.65714285715,96226.65714285713,87565.60638912489
327,Graz,AT,307974,750825.5,442851.5,15,510799.37060322857,585068.96367441,22468246266.2892,7,6,933760.6285714286,401116.2,447557.5437666384
332,Lleida,ES,134996,151539.7,16543.70000000001,1,34053.29137354857,567627.097171648,20158539906.8631,8,6,1029946.8,232119.65714285718,238373.03961484
335,Logrono,ES,150958,215044.1,64086.100000000006,2,68106.58274709714,436123.433613361,12432682443.008,5,6.6,412443.46,99409.06,95349.215845936
338,Madrid,ES,4246450,4704365,457915,7,238373.03961484,273806.336740486,3523074327.5267,5,6.4,389362.12,175139.72,122591.84894477486
340,Malaga,ES,558256,672718.5,114462.5,2,68106.58274709714,297273.812587108,5103401461.10559,7,5.5,342846.3666666667,133008.2,113510.9712451619
344,Marbella,ES,194128,251436.9,57308.899999999994,2,68106.58274709714,254222.718083973,3673035339.79749,6,5,352301.86,125818.26,81727.89929651657
349,Mataro,ES,126305,322014.3,195709.3,7,238373.03961484,130009.140977974,809089138.780956,3,5,415979.6,222127.09999999998,289452.97667516285
365,Mostoles,ES,229192,446852.9,217660.90000000002,5,170266.45686774285,480872.867115386,12231771336.4239,6,6.333333333333333,1091273.6333333333,222225.46666666665,158915.35974322667
367,Murcia,ES,431663,765337.6,333674.6,6,204319.74824129144,381540.50811573,8653976862.51372,5,5.4,332305.16000000003,146985.96,108970.53239535543
381,Ourense,ES,117032,173551.6,56519.600000000006,3,102159.87412064572,513848.598688397,17583900344.3658,8,5,346599.2625,144913.38749999998,153239.81118096857
382,Oviedo,ES,222916,328009.8,105093.79999999999,2,68106.58274709714,391071.471732809,8767682304.13568,5,5.75,242601.775,67572.775,68106.58274709714
385,Palma de Mallorca,ES,395867,539510.8,143643.80000000005,4,136213.16549419428,373047.533979282,4154273040.5,1,NaN,NaN,NaN,NaN
386,"Palmas de Gran Canaria, Las",ES,379000,824398.5,445398.5,10,340532.9137354857,530865.644069872,4030716080,1,NaN,NaN,NaN,NaN
388,Pamplona /  Iruna,ES,277969,305745.1,27776.099999999977,2,68106.58274709714,375918.71719954,9302590339.94767,6,5.333333333333333,384362.3,118930.46666666667,130537.6169319362
389,Parla,ES,117732,387237,269505,5,170266.45686774285,519697.847219342,16770799344.9525,8,6.625,908315.4125,201799.9125,148983.149759275
403,"Puerto de Santa Maria, El",ES,116673,439102.4,322429.4,6,204319.74824129144,232855.69974146,1566125775.20852,4,6,289117.8333333333,128257.16666666667,136213.16549419428
420,Salamanca,ES,172601,310286.1,137685.09999999998,4,136213.16549419428,711447.998043655,34473095355.8037,7,6.571428571428571,540997.5,216507.2142857143,228643.52779382613
430,Sant Boi de Llobregat // Viladecans,ES,192337,383214.6,190877.59999999998,4,136213.16549419428,142603.778934078,974389738.522018,3,5,2045562.5,258340.0000000001,187293.10255451716
438,Santa Cruz de Tenerife // San Cristobal de la Lag*,ES,363813,739222.6,375409.6,11,374586.20510903426,334110.19489367,2763109891,1,NaN,NaN,NaN,NaN
444,Santander,ES,238507,350015.7,111508.70000000001,4,136213.16549419428,334803.642688066,6578568703.36352,5,5.75,467365.64999999997,104552.15,119186.51980742
450,Sevilla,ES,823119,913380.1,90261.09999999998,3,102159.87412064572,395803.531188759,9523371198.67289,4,7,384869.125,196963.625,204319.74824129144
457,Tarragona,ES,136575,456236.3,319661.3,7,238373.03961484,386009.281422101,5456542476.62634,5,5.5,1154026.95,163118.95000000004,144726.48833758142
469,Torremolinos // Benalmadena,ES,122669,299307.6,176638.59999999998,3,102159.87412064572,127958.195902187,808467743.511735,3,6.5,462077.7,85885.7,68106.58274709714
481,Valencia,ES,1140620,1389589.6,248969.6000000001,6,204319.74824129144,373789.529768742,6919468613.09222,5,6.75,405760.02499999997,226523.525,221346.39392806572
483,Valladolid,ES,312087,442784.1,130697.09999999998,3,102159.87412064572,515673.46236486,16487985140.5083,6,6.833333333333333,1064935.9166666667,200447.25,141888.7140564524
488,Vigo,ES,323875,580138.2,256263.19999999995,8,272426.33098838857,393800.05600106,4249336529.01509,4,5.666666666666667,323268.73333333334,130738.40000000001,124862.06836967809
500,Vitoria-Gasteiz,ES,238667,313507.9,74840.90000000002,3,102159.87412064572,274428.481330299,4429666472.33393,5,5.6,453492.95999999996,114031.95999999999,149834.4820436137
505,Zaragoza,ES,672381,776022.5,103641.5,3,102159.87412064572,648208.576886822,27772321487.9404,6,6.666666666666667,308190,124402.16666666666,124862.06836967809
516,Helsinki = Helsingfors,FI,1079550,1729925.5,650375.5,17,578905.9533503257,1514567.26535479,44321443255.9428,5,4.75,693525.7,362258.7,357559.55942226003
523,Jyvaskyla,FI,130816,562871,432055,10,340532.9137354857,1273218.17566233,96235768201.8105,4,5,1042860.1666666666,530903.5,431341.69073161524
538,Oulu = Uleaborg,FI,173631,800867,627236,15,510799.37060322857,3692588.20927994,334866260318.058,4,5.333333333333333,595074.3333333334,391310.3333333333,295128.5252374209
543,Plowdiw,BG,350776,1007678.5,656902.5,17,578905.9533503257,763768.960818623,27361060700.1161,4,5.333333333333333,1181393.0666666667,485274.73333333334,431341.69073161524
552,Tampere = Tammerfors,FI,282689,597788,315099,6,204319.74824129144,1395931.69398193,46640029676.3256,6,4.6,812929.7,446278.7,367775.54683432454
553,Turku = Abo,FI,251471,346421,94950,2,68106.58274709714,824439.559527116,13587601367.7811,4,5.666666666666667,984092.5,464083.8333333333,374586.20510903426
562,Aix-en-Provence,FR,142124,564045.1,421921.1,10,340532.9137354857,374481.711810173,6603211634.32801,7,5.166666666666667,665907.5499999999,169887.8833333333,187293.10255451713
572,Amiens,FR,153631,215094.7,61463.70000000001,3,102159.87412064572,405736.198111074,8782382992.11843,8,5.714285714285714,454514.82857142854,235803.25714285715,257832.06325686775
574,Angers,FR,207794,397614.1,189820.09999999998,6,204319.74824129144,488585.795433717,12309872824.7755,5,6.2,536522.4,246701.4,231562.3813401303
578,Annecy,FR,133034,620778.3,487744.30000000005,13,442692.78785613144,592994.327722308,13026133789.462,6,6.2,1022042.54,328554.74,374586.2051090343
595,Avignon,FR,177346,362049.2,184703.2,8,272426.33098838857,415071.178555669,9591836332.89127,4,6.25,511338.7875,269368.5375,238373.03961484
605,Bayonne // Anglet // Biarritz,FR,132859,213881.8,81022.79999999999,3,102159.87412064572,333836.763105914,5807251135.40457,5,5.75,522088.9,179127.4,212833.07108467855
616,Besancon,FR,120045,196132.4,76087.4,4,136213.16549419428,457955.940976438,12322708807.3979,6,6.2,469991.18,271603.98,286047.647537808
626,Bordeaux,FR,696151,994893,298742,11,374586.20510903426,820032.410610608,26355604933.1424,6,6.4,590108.28,236323.88,238373.03961484
632,Brest,FR,161759,368266.2,206507.2,10,340532.9137354857,501169.327244468,10560807182.3577,3,5.5,496038.05,308440.05,306479.62236193713
638,Caen,FR,189066,353215.6,164149.59999999998,6,204319.74824129144,521222.775238786,12800431999.7882,6,6.4,490126.3,203664.69999999998,272426.33098838857
651,Innsbruck,AT,139294,289538.7,150244.7,8,272426.33098838857,495462.095659657,16333111110.1084,6,6.833333333333333,868870.6833333333,438858.01666666666,516474.91916548664
676,Clermont-Ferrand,FR,259013,485943.5,226930.5,8,272426.33098838857,704210.07886871,30231895002.9148,7,6.571428571428571,812780.6785714286,326147.9642857143,321073.89009345794
684,Creil // Nogent-sur-Oise,FR,125973,457705.5,331732.5,13,442692.78785613144,345424.681817463,6728257188.17139,4,8,3019453.975,230333.725,306479.62236193713
691,Dijon,FR,229143,419720.4,190577.40000000002,6,204319.74824129144,578532.960660388,20708220572.0558,7,6.285714285714286,635697.0685714285,268077.35428571433,301614.8664514302
695,Sofiya,BG,1175730,1636531,460801,14,476746.07922968,738008.457999345,24888764945.3945,6,5.4,863349.3,506215.1,435882.12958142173
697,Douai,FR,137461,202078,64617,2,68106.58274709714,214511.054529813,2071210205.11902,4,6.5,734290.925,215400.925,212833.07108467858
701,Dunkerque,FR,147168,451019.9,303851.9,7,238373.03961484,252359.592759269,3845970295.30569,5,6.25,688443.55,188844.55,178779.77971113
715,Stara Zagora,BG,139749,791479,651730,15,510799.37060322857,758404.30435972,24017395897.3406,5,5.25,850703.3,364886.05,383099.5279524214
729,Grenoble,FR,402811,528340.7,125529.69999999995,4,136213.16549419428,467353.655972689,15246951389.5221,7,6,1057344.407142857,442412.1214285714,447557.5437666384
763,Le Havre,FR,215406,283160.3,67754.29999999999,4,136213.16549419428,330217.006636307,2918401230.52286,3,6.5,502889.55,218941.55,272426.33098838857
764,Le Mans,FR,170471,257374,86903,5,170266.45686774285,422995.250293259,12390983559.3077,7,6,1994879.0857142857,284044.3714285714,306479.62236193713
766,Lens // Lievin // Henin-Beaumont // Avion // Carv*,FR,331038,619740.7,288702.69999999995,7,238373.03961484,233792.481586062,3199096522.41859,4,6.5,649372.6,192732.60000000003,178779.77971113
767,Warna,BG,321692,537519,215827,5,170266.45686774285,444578.57928138,10292566680.3007,5,5.75,878726.85,192817.35,229859.71677145286
772,Limoges,FR,182835,423778.6,240943.59999999998,5,170266.45686774285,747810.038136207,34052772950.8524,7,6.142857142857143,727006.5142857142,298010.22857142857,306479.62236193713
783,Lyon,FR,1403560,1812327.3,408767.30000000005,13,442692.78785613144,431148.534389582,11544878149.547,5,6.6,537521.11,281151.51,279236.9892630983
789,Marseille,FR,976447,1055075.2,78628.19999999995,4,136213.16549419428,177489.567130447,1094692971.61168,3,5.5,519091.1,260189.09999999998,221346.39392806572
800,Metz,FR,422419,473703.6,51284.59999999998,3,102159.87412064572,314708.890003496,5508971415.3804,4,8,528889.9675,281071.71749999997,314992.9452053243
816,Montpellier,FR,333555,587454.5,253899.5,7,238373.03961484,485655.20217777,13478181099.9182,6,6.2,580747.39,269754.79,286047.647537808
819,Mulhouse,FR,216679,586370.7,369691.69999999995,9,306479.62236193713,338693.725306005,6154911498.60453,6,6.2,420193.34,178289.34,238373.03961484
821,Nancy,FR,277702,429933.5,152231.5,7,238373.03961484,428162.186991157,13054757835.473,8,6.625,498233.05624999997,234090.55625,272426.33098838857
822,Nantes,FR,573912,838948.8,265036.80000000005,7,238373.03961484,527467.892567175,12347511856.9944,6,5.8,561672.36,269277.16,272426.33098838857
828,Nice,FR,878735,1255696.4,376961.3999999999,10,340532.9137354857,484023.617397022,12415676683.2787,8,5.714285714285714,805114.7285714286,357817.72857142857,355127.1814670065
829,Nimes,FR,165099,320146.7,155047.7,4,136213.16549419428,406167.439923025,7174992967.94284,5,5.75,536592.8625,308874.8625,297966.29951855
837,Orleans,FR,262166,613557.8,351391.80000000005,9,306479.62236193713,588788.154987427,22137600297.0576,7,6.142857142857143,1888714.2971428572,225572.1542857143,257832.06325686775
841,Paris,FR,10416100,10784692,368592,15,510799.37060322857,419050.049757771,10233425397.7758,6,6.833333333333333,449645.53,239115.86333333334,300804.07379967906
845,Ruse // Giurgiu,BG // RO,223199,502096.7,278897.7,10,340532.9137354857,562993.184358899,19827062041.1386,7,5.428571428571429,976998.8,357156.9428571428,316209.134182951
846,Pau,FR,141993,274128.7,132135.7,4,136213.16549419428,554095.854829621,20239616510.8376,6,6.5,606980.9333333333,165034.43333333332,204319.7482412914
848,Perpignan,FR,135681,265020.6,129339.59999999998,4,136213.16549419428,508815.419469713,11313804747.0181,5,6,654804.3,290158.55,340532.9137354857
865,Reims,FR,207920,425465.7,217545.7,8,272426.33098838857,460241.276023941,14826331360.9432,11,5.7272727272727275,1303150.549090909,154506.91272727272,204319.74824129144
867,Rennes,FR,255272,604225.7,348953.69999999995,11,374586.20510903426,596892.208758098,16270478389.9037,7,5.166666666666667,433878.18333333335,196723.85,232697.4910525819
878,Rouen,FR,378830,652563.5,273733.5,10,340532.9137354857,408717.787692759,10482664604.1218,7,5.666666666666667,2058540.35,180099.18333333332,261075.2338638724
886,Lemesos,CY,180866,226083.6,45217.600000000006,1,34053.29137354857,276111.256103289,3916651674.95701,2,2,333067.9,96992.90000000002,68106.58274709714
892,Saint-Etienne,FR,257847,632822.65,374975.65,10,340532.9137354857,477715.720159522,13355430354.8465,6,5.666666666666667,682710.3166666667,225812.98333333334,249724.13673935618
903,Saint-Nazaire,FR,119924,387850.4,267926.4,7,238373.03961484,465789.144480549,6232369765.61908,4,5.333333333333333,603813.5666666667,273499.23333333334,317830.71948645334
919,Strobolos // Leikosia // Lakatameia,CY,236075,333067.9,96992.90000000002,2,68106.58274709714,398595.783652959,5284667234.54304,2,2,226083.6,45217.600000000006,34053.29137354857
932,Toulon,FR,375680,474137.1,98457.09999999998,3,102159.87412064572,232697.433869372,3283199636.75565,4,6,958272.2333333333,292503.5666666666,272426.33098838857
933,Toulouse,FR,737323,1199803.5,462480.5,16,544852.6619767771,714846.666795813,34196813269.275,8,6.428571428571429,454679.8,185504.94285714286,194590.23642027754
935,Tours,FR,266615,558284.9,291669.9,6,204319.74824129144,526126.485316664,16124956965.6084,4,6.5,423081.125,217264.625,212833.07108467858
937,Troyes,FR,117818,291206.68,173388.68,8,272426.33098838857,554487.436846889,19181618377.3649,5,7.8,2534673.88,256067.68000000002,306479.62236193713
942,Valenciennes // Denain,FR,202591,373030.5,170439.5,6,204319.74824129144,262290.317824923,3557669442.75522,5,7.6,579893.772,157869.77200000003,177077.11514245256
971,Lille // Roubaix // Tourcoing,FR // BE,1388300,1729297.8,340997.80000000005,9,306479.62236193713,204232.364771702,2828026599.53557,9,5.111111111111111,826944.9733333334,174043.97333333333,158915.35974322667
977,Strasbourg,FR,435740,696128.9,260388.90000000002,9,306479.62236193713,328486.452514052,6760109016.50596,7,6.571428571428571,565304.1671428571,319762.31,340532.9137354857
987,Dimos Athinaion,GR,3352870,3724245.3,371375.2999999998,12,408639.4964825829,1662378.97261913,16413897603.3835,3,4.5,344716.1,187113.59999999998,170266.45686774285
989,Dimos Boloi,GR,120398,184432.4,64034.399999999994,1,34053.29137354857,687138.801946067,6606759633.60129,5,4.25,1448760.05,332338.29999999993,306479.62236193713
995,Dimos Irakleioi,GR,166482,420173.1,253691.09999999998,5,170266.45686774285,909755.659574198,9888559772,1,NaN,NaN,NaN,NaN
1010,Dimos Larisas,GR,145134,449625.9,304491.9,6,204319.74824129144,816351.762189427,27525840424.1626,5,4.5,737733.95,413732.69999999995,459719.4335429057
1016,Dimos Patreon,GR,194807,504999.8,310192.8,9,306479.62236193713,1436903.30655818,28493711563.5354,4,4.333333333333333,1452767.8666666667,246633.8666666666,215670.84536580762
1018,Brno,CZ,384363,1075667.6,691304.6000000001,24,817278.9929651658,566544.652384966,21161960996.5175,6,6.166666666666667,1336277,625000.1666666667,652688.084659681
1027,Dimos THessalonikis,GR,772876,1116169.2,343293.19999999995,9,306479.62236193713,1075088.1306854,24979259123.5324,5,5,819566.95,371557.45,323506.2680487114
1041,Grad Zagreb,HR,789750,1268866.9,479116.8999999999,13,442692.78785613144,752694.354045473,23241552574.9144,6,5.4,532705.78,307300.98,333722.255460776
1053,Rijeka,HR,169055,240484.1,71429.1,2,68106.58274709714,640172.5878475,10541510161.3316,5,4.75,602123.375,229130.125,238373.03961484
1059,Split,HR,240694,403199.5,162505.5,6,204319.74824129144,992437.335765695,12672006446.944,3,5.5,754675.5,275272.99999999994,255399.68530161428
1082,Budapest,HU,2057700,3171001.4,1113301.4,35,1191865.1980742,605452.743489264,21859913647.8284,7,6.142857142857143,640319.7857142857,433237.78571428574,510799.37060322857
1089,Debrecen,HU,211300,385686.5,174386.5,8,272426.33098838857,408481.162571728,7598023132.74249,6,6,831797.8166666667,352870.14999999997,419990.593607099
1101,Gyor,HU,139519,531486.5,391967.5,14,476746.07922968,553175.701728498,16513175595.5632,5,6.2,1585720.58,614260.78,694687.1440203908
1127,Miskolc,HU,168853,516841.7,347988.7,13,442692.78785613144,516992.224069036,15167915436.3419,5,6.4,1078862.3,511437.5,572095.295075616
1138,Nyiregyhaza,HU,119679,197015.1,77336.1,5,170266.45686774285,365776.255439881,7623349028.92052,5,6,508017.9,316980.9,366072.8822656471
1146,Pecs,HU,156493,807164.6,650671.6,20,681065.8274709714,795841.645581066,29328386920.034,6,6.4,1231317.46,538716.0599999999,599337.9281744548
1156,Szeged,HU,168064,434407,266343,11,374586.20510903426,501728.054635515,12043499493.1404,7,5.666666666666667,903130.35,383883.51666666666,425666.1421693571
1188,CORK,IE,175928,434325.7,258397.7,6,204319.74824129144,1056558.92198292,29162746410.3182,2,4,1454374.5,333064.5,510799.37060322857
1189,Dublin,IE,1121310,1454374.5,333064.5,15,510799.37060322857,892275.02134967,32070997250.5227,4,4.333333333333333,792851.9,425343.9,442692.78785613144
1257,Bari,IT,427538,1342759.5,915221.5,23,783225.7015916171,368174.331470634,7633702865.52357,5,5,669327.5,506843.75,553365.9848201643
1267,Bergamo,IT,517801,1176886.9,659085.8999999999,27,919438.8670858114,459833.12976093,6845125549.81631,5,6.25,1680087.7225,417414.47250000003,510799.37060322857
1273,Bologna,IT,482270,576630.5,94360.5,2,68106.58274709714,230088.427782826,3201183806.99152,4,7,565926.9249999999,252247.675,195806.4253979043
1281,Brescia,IT,355445,598882.8,243437.80000000005,12,408639.4964825829,315853.227166824,5163245552.74352,4,7,631342.2999999999,358543.05,408639.4964825829
1288,Cagliari // Quartu Sant'Elena,IT,290727,429266.5,138539.5,5,170266.45686774285,502556.995150267,11700394614.652,2,4,320183.8,196639.8,136213.16549419428
1313,Caserta // Marcianise // Santa Maria Capua Vetere,IT,275610,667701.1,392091.1,12,408639.4964825829,342470.734476692,7550883240.04153,6,4.8,1106754.14,398851.94,354154.2302849051
1324,Castellammare di Stabia // Torre Annunziata // Ca*,IT,617590,873921.1,256331.09999999998,7,238373.03961484,197484.925720179,1408249034.55747,5,5,1077243.625,318291.625,297966.29951855
1330,Catania,IT,602936,1062213.1,459277.1000000001,16,544852.6619767771,398164.624734514,9178800059.31237,4,2.3333333333333335,852616.6666666666,473153.3333333333,408639.4964825828
1375,Cosenza // Rende,IT,117763,563161.8,445398.80000000005,13,442692.78785613144,570138.782902657,12536893133.8046,5,4.25,814947.85,566737.85,604445.9218804871
1400,Ferrara,IT,143663,250974,107311,3,102159.87412064572,259913.580379912,4167848798.35473,7,5.571428571428571,509485.1142857143,225972.4,214049.26006230531
1404,Firenze // Prato,IT,780016,1141468.9,361452.8999999999,9,306479.62236193713,359507.827196565,8006568292.93929,8,5.125,471263.2625,266579.3875,200063.08681959787
1407,Foggia,IT,147651,466596.3,318945.3,9,306479.62236193713,464721.985838329,11295891305.9306,6,5.4,857102.94,513389.74,463124.7626802606
1433,Genova,IT,618048,1189793.8,571745.8,18,612959.2447238743,461999.576814173,9728270833.578,6,6.4,1914849.558,493127.35799999995,551663.3202514868
1471,Latina,IT,117089,621878.2,504789.19999999995,12,408639.4964825829,311751.707723032,5855608537.06409,4,5.333333333333333,1653646.4333333333,592499.4333333333,522150.4677277448
1481,Livorno,IT,156992,405610.7,248618.7,6,204319.74824129144,605234.059952264,7934541373.0229,6,6,706820.6,288210.39999999997,238373.03961484
1488,Lucca // Capannori,IT,139958,263765,123807,3,102159.87412064572,189444.56103721,2000083786.344,4,6.25,558703.3999999999,195450.39999999997,161753.1340243557
1511,Massa // Carrara // Viareggio,IT,344754,441045.6,96291.59999999998,1,34053.29137354857,252009.633470323,3370434683.29789,6,5.6,516240.6,261801,258805.01443896914
1525,Messina,IT,246201,426957.5,180756.5,6,204319.74824129144,229436.31704918,1668759079.77259,3,3.5,665846.55,273988.05000000005,357559.55942226
1526,Milano,IT,4398340,5300819.79,902479.79,36,1225918.4894477485,550222.8403201,11623710198.6123,5,6,1235841.675,580183.9249999999,672552.5046275842
1534,Modena,IT,178865,460099.8,281234.8,7,238373.03961484,226744.07652532,2498463378.17759,7,5.714285714285714,492324.04285714286,159813.4714285714,150807.4332257151
1554,Napoli,IT,2435950,2672459.6,236509.6000000001,6,204319.74824129144,158388.21229818,800886979.61293,3,5.5,770811.1,324211.1,323506.26804871147
1577,Padova,IT,367475,516591.7,149116.7,6,204319.74824129144,217382.041664787,2275080468.19627,5,5.5,443838.5,243473.5,246886.36245822714
1580,Palermo,IT,773405,1571253.8,797848.8,19,647012.5360974228,488561.006178363,10888634562.6752,2,4,1062213.1,459277.1000000001,544852.6619767771
1585,Ostrava,CZ,317982,1247928,929946,25,851332.2843387143,473020.628376118,12243588112.496,6,6.5,841443.4333333333,594124.6,590257.0504748418
1586,Parma,IT,174902,422994.1,248092.09999999998,6,204319.74824129144,303731.163219317,6121550199.86586,7,5.285714285714286,1354259.0271428572,401216.02714285714,520528.88242424245
1593,Perugia,IT,161379,624554.6,463175.6,10,340532.9137354857,567555.516805738,19479309166.4856,6,5.6,1335279.8,523020.60000000003,422260.8130320023
1595,Pescara,IT,221231,898915.5,677684.5,18,612959.2447238743,509397.966703015,12486616081.664,6,5.2,1155010.58,477344.78,401828.83820787317
1605,Pisa // Cascina,IT,149377,192199.3,42822.29999999999,2,68106.58274709714,145692.911916264,916205613.557579,4,6,603614.8666666667,244626.19999999998,204319.74824129144
1633,Ravenna,IT,152173,411165,258992,4,136213.16549419428,298668.294597087,3406622713.75636,6,5.6,662132.78,269108.57999999996,224751.72306542058
1635,Reggio di Calabria,IT,180781,269480,88699,5,170266.45686774285,275687.571045531,3963340231.05734,3,4,495059.65,313077.65,323506.26804871147
1636,Reggio nell'Emilia,IT,160425,244550.3,84125.29999999999,4,136213.16549419428,222332.098242179,2129185922.97908,4,6.75,462993.375,219241.125,195806.4253979043
1639,Rimini,IT,216457,836081.2,619624.2,13,442692.78785613144,397180.605307665,5809520895.01024,4,6.666666666666667,725729.5,361206.8333333333,261075.23386387236
1645,Roma,IT,2686600,3394322.7,707722.7000000002,16,544852.6619767771,493189.778153913,10161874868.8374,4,5.333333333333333,715116.1,548549.7666666666,454043.8849806476
1651,Plzen,CZ,167613,476249.3,308636.3,13,442692.78785613144,507229.203949505,15737497398.0656,5,6.4,1127455.08,598502.08,633391.2195480034
1660,Salerno,IT,176597,502217.5,325620.5,8,272426.33098838857,379854.596118459,8250567946.50439,5,5.25,811609.675,483974.175,442692.78785613144
1672,Praha,CZ,1232510,1807137.8,574627.8,23,783225.7015916171,523119.272144984,17951615899.8417,6,6.333333333333333,1018915.5,706728.1666666666,737821.3130935524
1695,Sassari,IT,123544,320183.8,196639.8,4,136213.16549419428,849666.400101396,17265502647.0097,4,5.333333333333333,696857.8666666667,254706.5333333333,238373.03961484
1714,Siracusa,IT,118784,559638.7,440854.69999999995,11,374586.20510903426,278014.458392239,3988201342.43494,2,4,1062213.1,459277.1000000001,544852.6619767771
1728,Taranto,IT,207924,1145334.4,937410.3999999999,35,1191865.1980742,642712.323354411,9745654152.63195,4,5,785182.4,555037.4,476746.07922968
1740,Torino,IT,1311880,2153691.9,841811.8999999999,28,953492.15845936,531408.049561474,19226496964.9699,6,6.4,1779085.798,492892.198,551663.3202514868
1747,Trento,IT,122006,397654.2,275648.2,6,204319.74824129144,462584.873631266,11928735775.32,9,5.75,608895.625,374129.375,429922.80359105073
1750,Treviso,IT,130479,450305.2,319826.2,10,340532.9137354857,317651.247246471,5563393377.13399,5,6.2,484147.32,254966.72,251994.35616425943
1752,Trieste,IT,208721,274571.9,65850.90000000002,3,102159.87412064572,332316.344424674,3308464196.47161,4,6,378251.73333333334,194596.06666666668,192968.65111677523
1755,Udine,IT,129104,432415.9,303311.9,9,306479.62236193713,466612.386242865,13599287071.644,7,6.166666666666667,407106.7,233868.53333333335,289452.97667516285
1764,Mestre,IT,342715,505509.3,162794.3,6,204319.74824129144,258249.048998397,679925307.873549,5,5.75,407258.975,208811.475,195806.4253979043
1769,Verona,IT,276488,527834,251346,9,306479.62236193713,247438.835428108,4087320514.37373,7,6.142857142857143,420531.52857142856,231973.1,233508.28370433307
1772,Vicenza,IT,184603,568565.5,383962.5,10,340532.9137354857,224483.868197668,2814082084.39886,5,6.6,428671.82,220649.62,231562.3813401303
1788,Kauno (m.s.),LT,328704,641271.7,312567.69999999995,4,136213.16549419428,759940.541969756,27375170906.9428,6,4.6,686600.658,321116.458,374586.2051090343
1789,Klaipedos (m.s.),LT,163053,342883.1,179830.09999999998,5,170266.45686774285,634996.677346991,19380846042.6277,3,5.5,954147.25,459749.25,476746.07922968
1797,Vilniaus (m.s.),LT,536075,661674.49,125599.48999999999,3,102159.87412064572,950132.838794978,23556372601.1884,3,5.5,954147.25,459749.25,476746.07922968
1801,Luxembourg,LU,142275,363024.6,220749.59999999998,5,170266.45686774285,318483.850529401,6037624293.29773,6,6.666666666666667,495671.5783333333,144748.5783333333,181617.55399225905
1818,Riga,LV,660092,1267022.8,606930.8,24,817278.9929651658,1818604.29140779,80471330196.4348,5,4.25,843938.6975,317093.1975,246886.36245822714
1828,Valletta,MT,222147,222147,0,0,0,65041.8767427853,236353189,1,NaN,NaN,NaN,NaN
1829,'s-Gravenhage,NL,729961,829678,99717,1,34053.29137354857,74069.7998647251,249634356.138153,4,5.333333333333333,581792.3333333334,85013.66666666667,79457.67987161333
1832,'s-Hertogenbosch,NL,165007,341335,176328,6,204319.74824129144,127478.928329101,1078055707.11202,6,6.333333333333333,592886.5,308776,272426.33098838857
1836,Alkmaar // Heerhugowaard,NL,171994,509307,337313,8,272426.33098838857,233992.033094163,2695285051.33737,6,5,714469.6,326591.6,272426.33098838857
1838,Almere,NL,188160,407418,219258,3,102159.87412064572,167517.248836775,1722490148.75111,6,5.666666666666667,689256.5,326572.3333333333,266750.7824261305
1839,Amersfoort,NL,173674,549271,375597,9,306479.62236193713,128217.710284069,1035453371.53934,6,5.833333333333333,550115.3333333334,326173.1666666667,272426.33098838857
1840,Amsterdam,NL,1071050,1178594,107544,2,68106.58274709714,98777.0090129311,591389961.085823,5,5.8,476266.8,207685,170266.45686774285
1841,Apeldoorn,NL,155726,485536,329810,7,238373.03961484,161571.761749902,1509277671.80627,5,6,650646,493659.2,422260.8130320023
1845,Arnhem,NL,147018,658050,511032,13,442692.78785613144,174934.410200646,1587227342.80795,5,6.6,1452421,511128.4,422260.81303200225
1855,Breda,NL,173299,567420,394121,11,374586.20510903426,195630.902440093,1768738703.61342,7,6.5,1259992.3333333333,150354.33333333334,136213.16549419428
1874,Dordrecht,NL,282196,343230,61034,2,68106.58274709714,128598.574033362,966823604.01217,7,5.857142857142857,549652.1428571428,196048.57142857142,184860.72459926366
1882,Eindhoven,NL,356198,770537,414339,10,340532.9137354857,191999.875744709,2390762348.03497,7,5.714285714285714,561225.2857142857,317465.85714285716,287020.5987199094
1884,Enschede,NL,157052,1025247,868195,23,783225.7015916171,291384.779715221,5421545352.25394,8,5.5,1114984.125,458661.25,404382.83506088925
1899,Gouda // Alphen aan den Rijn,NL,216653,228638,11985,1,34053.29137354857,90693.0064035087,518838114.67823,5,6,386378.8,128238.6,122591.84894477486
1902,Groningen,NL,205814,966472,760658,19,647012.5360974228,471172.370921506,8083526656.21065,5,6,666522,513959.75,476746.07922968
1904,Haarlem // Velsen,NL,355336,406620,51284,2,68106.58274709714,77006.8574329536,340238995.668823,4,5.666666666666667,648767.6666666666,186823.66666666666,170266.45686774285
1905,Haarlemmermeer,NL,142788,258402,115614,5,170266.45686774285,83150.6107518719,441245083.615767,6,5.2,586831.8,109387,95349.215845936
1936,Leiden,NL,259554,320720,61166,2,68106.58274709714,65251.8283673309,280653845.052254,5,5,381668.25,78934.75,76619.90559048428
1951,Nijmegen,NL,203111,608766,405655,12,408639.4964825829,189683.074580004,2100534568.98204,6,6.5,1314802.8333333333,462004.5,368910.6565467762
1977,Rotterdam,NL,1109250,1214702,105452,3,102159.87412064572,183916.78666049,1663839241.22681,6,5.8,476567,171833.2,149834.4820436137
1996,Tilburg,NL,204853,485928,281075,8,272426.33098838857,144639.660247395,1021213066.04468,5,6.8,521404.8,232305.2,217941.06479071087
2001,Utrecht,NL,484631,799587,314956,7,238373.03961484,119087.790718625,936570209.570045,7,5.857142857142857,472412.5714285714,152480,136213.16549419428
2025,Zoetermeer,NL,121532,209955,88423,2,68106.58274709714,59848.299208622,216132097.765827,5,5.4,587393.6,67870.8,61295.92447238743
2027,Zwolle,NL,119030,613244,494214,14,476746.07922968,275194.355700325,4635555643.89344,5,6,678796,503046.8,408639.4964825828
2029,Maastricht,NL // BE,144025,412349,268324,6,204319.74824129144,146956.947014685,1115513174.35764,5,6.2,648601.4,208178.6,170266.45686774285
2030,Heerlen // Kerkrade // Landgraaf,NL // DE,262529,519358,256829,8,272426.33098838857,146138.634694227,1056227196.48468,4,6.5,667812.75,411125.25,297966.29951855
2041,Bialystok,PL,293736,674346.1,380610.1,11,374586.20510903426,737554.216809133,23786708834.1278,5,6.25,1192524.325,444852.325,434179.4650127443
2045,Bielsko-Biala,PL,218783,890538.4,671755.4,19,647012.5360974228,409349.209989027,10511001279.8821,8,5.75,1145532.675,608997.3,595932.5990371
2055,Linz,AT,255250,614738.6,359488.6,9,306479.62236193713,567345.420915354,21782376552.1681,7,6,1074043.5428571429,445276.2571428572,564311.6856188049
2064,Bydgoszcz,PL,364037,590844.9,226807.90000000002,8,272426.33098838857,508609.541842215,14720886052.2887,7,5.142857142857143,691249.6,345191.45714285714,330803.4019144718
2076,Czastochowa,PL,247029,406011.4,158982.40000000002,5,170266.45686774285,366690.927288346,8215360399.79289,5,6.8,1160254.68,397311.88,354154.2302849051
2085,Elblag,PL,124554,220101.4,95547.4,3,102159.87412064572,418651.388772072,6717500143.33352,5,5.75,703784.65,319288.9,349046.2365788729
2089,Gdansk // Gdynia,PL,794554,1260443.7,465889.69999999995,13,442692.78785613144,487433.861630005,14170539021.038,4,6,587857.4666666667,288349.4666666667,283777.4281129048
2099,Gorzow Wielkopolski,PL,124443,247962,123519,3,102159.87412064572,472845.468176636,12340612781.8472,5,6.2,1553462.72,504965.72000000003,497178.05405380914
2128,Katowice // Sosnowiec // Gliwice // Bytom // Zabr*,PL,1903450,1974267.8,70817.80000000005,2,68106.58274709714,223671.221751736,2884183669.94204,5,5.6,674664.02,374413.42,299668.9640872274
2132,Kielce,PL,202289,451344.9,249055.90000000002,7,238373.03961484,397911.254295379,10204676750.5348,6,6,933896.7999999999,502331.1333333333,471070.5306674219
2152,Krakow,PL,757304,1458694.5,701390.5,17,578905.9533503257,433167.58992218,12235095289.2079,7,5.571428571428571,838519.5142857142,393316.8,379450.9610195412
2179,Lodz,PL,828971,1511963.9,682992.8999999999,17,578905.9533503257,443535.382171704,13354894264.626,9,5.444444444444445,820580.3,326101.7444444445,325398.11756946414
2187,Lublin,PL,349029,901513.7,552484.7,17,578905.9533503257,637597.005363984,23893105974.9792,6,5.2,1038224.68,429909.48000000004,429071.47130671196
2220,Olsztyn,PL,174465,487076.8,312611.8,12,408639.4964825829,551487.812921523,20231221288.8,7,5.333333333333333,846368.2333333334,310551.06666666665,283777.4281129048
2222,Opole,PL,122700,405002.3,282302.3,9,306479.62236193713,419563.657487137,9626944029.27333,7,6,1122786.142857143,508658.85714285716,432963.27603511757
2240,Plock,PL,124492,325481.9,200989.90000000002,6,204319.74824129144,381230.590822118,8567361433.10266,5,6.4,1093279.04,400570.24,401828.83820787317
2245,Poznan,PL,647305,1430494.6,783189.6000000001,23,783225.7015916171,518542.84394288,16286785996.96,6,6.166666666666667,698528.7333333333,334706.06666666665,306479.62236193713
2259,Radom,PL,221357,418312.89999999997,196955.89999999997,6,204319.74824129144,396412.597823609,9019176926.83681,4,6.75,1401264.4,521569.65,502286.04775984143
2267,Rybnik // Wodzislaw Slaski,PL,244718,613092.3,368374.30000000005,6,204319.74824129144,208467.527617076,2535573637.33803,5,6,1001651.22,463167.82,422260.8130320023
2269,Rzeszow,PL,185704,906884.4,721180.4,21,715119.11884452,623470.128299519,20730340293.7309,5,6.25,890405.8,505834.8,493772.7249164543
2312,Szczecin,PL,409933,952626.1,542693.1,14,476746.07922968,818886.916627877,21017977854.022,6,6.2,1340275.8,302072,320100.93891135656
2323,Torun,PL,204927,476773.2,271846.2,8,272426.33098838857,377345.817637084,6492376454.57269,5,5.8,374770.24,193922.44,224751.72306542058
2328,Tychy,PL,129502,490519.6,361017.6,7,238373.03961484,159009.472445745,1387356999.97585,4,6.25,1234148.25,453084.5,374586.20510903426
2336,Walbrzych,PL,126787,1148246.2,1021459.2,26,885385.5757122629,485677.52106541,15941954709.3819,7,6.142857142857143,1092006.6285714286,592688.0571428572,627553.5124553951
2339,Warszawa - Centrum,PL,2138490,2740235.1,601745.1000000001,18,612959.2447238743,495199.243908051,16400559486.2025,6,6,719782.5499999999,387774.2166666666,391612.8507958086
2343,Wloclawek,PL,116691,250346.2,133655.2,4,136213.16549419428,392181.923609411,7133413809.19318,5,6.4,867111.7,433165.3,422260.81303200225
2345,Wroclaw,PL,629954,957993.4,328039.4,8,272426.33098838857,433686.251917441,11770919619.8157,5,7,1025553.8,656633.2,606148.5864491645
2360,Zielona Gora,PL,118840,632062,513222,14,476746.07922968,462919.422111476,14776672980.3403,6,6,1577372.9166666667,590749.5833333334,567554.8562258095
2383,Braga,PT,130538,207205.3,76667.29999999999,3,102159.87412064572,279470.035433177,3939620668.00865,5,5.5,681765.85,246817.35,297966.29951855
2391,Augsburg,DE,378169,605197,227028,11,374586.20510903426,329231.297782792,5849965135.35361,6,5.833333333333333,769531.1166666667,374194.45,437017.2392938733
2403,Guimaraes // (Santo Tirso 2001),PT,126527,336456,209929,10,340532.9137354857,424617.230001684,9459247644.87338,4,6.5,581990.15,183857.40000000002,204319.74824129144
2407,Lisboa // Sintra,PT,1851170,2075028.5,223858.5,10,340532.9137354857,422523.064591394,10483303797.8607,5,5.75,711196.85,267394.60000000003,246886.36245822714
2421,Porto,PT,1172360,1636917.6,464557.6000000001,14,476746.07922968,528945.734628696,15796041873.4382,6,6,683645.3,197138.09999999998,245183.69788954972
2428,Seixal // Almada,PT,334455,508890.1,174435.09999999998,3,102159.87412064572,132253.330106471,637261255.557384,3,5,1142378.8,158446.8,221346.39392806572
2429,Setubal,PT,116694,209729.1,93035.1,3,102159.87412064572,670655.765259699,15829026826.814,5,5.75,866697.2,245530.94999999998,263913.0081450014
2447,Arad,RO,165390,259039.1,93649.1,2,68106.58274709714,453469.293545362,10631635925.5537,5,5.8,492345.642,261342.842,272426.33098838857
2448,Bacau,RO,185214,508780.9,323566.9,5,170266.45686774285,403394.685672742,8743354345.09695,5,5.8,494029.44,254209.44,258805.01443896914
2449,Baia Mare,RO,154333,379473.3,225140.3,5,170266.45686774285,582286.326334084,13703317614.84,7,5.333333333333333,418186.26666666666,220876.93333333332,272426.33098838857
2466,Braila,RO,210116,210116,0,0,0,409431.852197952,8363181755.75552,4,5.75,351282.3,140518.30000000002,153239.81118096857
2468,Brasov,RO,310137,609000.8,298863.80000000005,11,374586.20510903426,386489.160770743,10979348081.5485,8,5.5,466181.92625,297307.92625,272426.33098838857
2469,Bucuresti,RO,2025660,2243287.5,217627.5,6,204319.74824129144,413083.545301367,9107380003.83585,6,5.666666666666667,471826.06666666665,239127.4,244048.58817709808
2472,Buzau,RO,131043,297503.9,166460.90000000002,6,204319.74824129144,370325.464264528,8216796337.3519,6,5.5,713068.5,179035.83333333334,192968.65111677523
2484,Cluj-Napoca,RO,308026,559981.6,251955.59999999998,7,238373.03961484,468804.92830697,13325735030.037,5,5.8,403695.442,233544.042,211130.40651600115
2487,Constanta,RO,301215,513016.2,211801.2,7,238373.03961484,566004.392832308,12142518707.0285,6,5.4,737304.12,141732.72,129402.50721948457
2491,Craiova,RO,299071,899323.1,600252.1,13,442692.78785613144,789197.50868001,28842113243.9803,6,6.2,757652.782,346384.182,333722.255460776
2505,Focsani,RO,121452,196514.9,75062.9,3,102159.87412064572,369132.104432706,8052874051.03075,5,5.8,404699.16000000003,179527.96000000002,163455.79859303313
2507,Galati,RO,289346,398094.2,108748.20000000001,2,68106.58274709714,568623.775930657,6104637279.41727,6,4.8,407409.32,181805.52,143023.823768904
2515,Iasi,RO,310022,608618.6,298596.6,6,204319.74824129144,546263.231911167,11969848117.3584,4,5.666666666666667,521597.93333333335,307363.6,261075.23386387236
2542,Oradea,RO,204937,292048.4,87111.40000000002,5,170266.45686774285,470901.889413069,11963586311.9645,5,6,403717.5,202294.9,224751.72306542058
2550,Piatra Neamt,RO,168143,657918.7,489775.69999999995,16,544852.6619767771,553849.234064888,18508680945.9139,6,5.8,504468.18,278172.78,231562.3813401303
2551,Pitesti,RO,183427,474345,290918,8,272426.33098838857,430599.963965854,11811575501.3952,6,6.333333333333333,905272.135,363937.30166666664,334857.3651732276
2552,Ploiesti,RO,235616,506475.6,270859.6,7,238373.03961484,285352.58444531,4975964267.2162,4,6.5,906034.3,243467.55000000002,263913.0081450014
2570,Sibiu,RO,154326,671449.11,517123.11,12,408639.4964825829,518801.03043842,18187092599.445,7,5.714285714285714,531714.1428571428,280645.14285714284,257832.06325686775
2584,Targu Mures,RO,171771,416467.3,244696.3,7,238373.03961484,454798.637351789,12870185678.7017,5,6.6,575564.702,356571.702,347343.5720101954
2588,Timisoara,RO,319661,503842.1,184181.09999999998,5,170266.45686774285,580272.954182003,16091147706.9655,5,6.25,566054.5775,369341.8275,323506.2680487114
2627,Goteborg,SE,609808,1182654,572846,11,374586.20510903426,812629.881842305,20681789847.5934,4,5.666666666666667,412093.0333333333,281420.0333333333,227021.94249032383
2632,Helsingborg,SE,129177,453946.1,324769.1,7,238373.03961484,715968.299106545,14992204749.369,5,4.25,994339,410200.5,349046.23657887283
2633,Jonkoping,SE,127382,442943,315561,7,238373.03961484,790020.575463067,32828176994.7363,6,4.4,580926.0599999999,313621.06,238373.03961484
2652,Linkoping,SE,146416,250740,104324,3,102159.87412064572,564993.143851687,13900704360.0041,4,5.666666666666667,335882.6666666667,204918.66666666666,181617.55399225905
2656,Malmo,SE,315664,677900.2,362236.19999999995,8,272426.33098838857,600035.584090455,6074341995.83117,3,5.5,448444.55,320165.05,238373.03961484
2661,Norrkoping,SE,130050,225315,95265,3,102159.87412064572,427895.547342824,7143012319.94385,5,4.75,719555.75,238447.5,195806.4253979043
2664,Orebro,SE,135460,339390,203930,6,204319.74824129144,1114540.47052893,47149914760.4984,6,4.8,507831,277658.4,211130.40651600115
2680,Stockholm,SE,1505350,1850590,345240,7,238373.03961484,449543.7635772,5976355628.92761,4,5.333333333333333,429127.3333333333,274112.6666666667,227021.9424903238
2689,Uppsala,SE,197787,624564,426777,10,340532.9137354857,1821730.48097754,77410596737.8424,6,4.6,806633.8,336564.2,251994.35616425943
2694,Vasteras,SE,137207,437503,300296,7,238373.03961484,1237905.08111436,45265593505.0601,5,5.25,759964.75,267803,221346.39392806572
2703,Ljubljana,SI,252808,461855.2,209047.2,6,204319.74824129144,441956.523749446,11992243917.2903,6,6,589313.2166666667,290859.05,340532.9137354857
2727,Kosice,SK,229662,750070.1,520408.1,17,578905.9533503257,573278.705053736,17208147137.9738,6,6,793994.8200000001,503930.22000000003,510799.37060322857
2743,Bratislava,SK,386562,916113.8,529551.8,20,681065.8274709714,478949.16522016,12026613946.6923,6,6.166666666666667,1533353.25,688867.0833333334,732145.7645312943
2784,Aberdeen,UK,209694,321909.2,112215.20000000001,5,170266.45686774285,907597.359328758,19788602087.1427,2,4,312370.69,139502.69,170266.45686774285
2790,Aldershot,UK,294681,534097,239416,6,204319.74824129144,159016.371823882,1517030631.88973,6,5.666666666666667,521317.6666666667,153233.33333333334,181617.55399225905
2826,BELFAST,UK,568074,1081867,513793,19,647012.5360974228,1304645.76349943,24321395088.3349,3,4,1770436.1,555841.1,578905.9533503257
2838,Birkenhead,UK,358522,862363,503841,14,476746.07922968,602247.148479691,7145517807.50749,8,6.428571428571429,613972.9285714285,239307.35714285713,291885.3546304163
2843,Blackburn/Darwen,UK,148359,148359,0,0,0,136725.287012087,694204439.033432,4,6.75,1234224.25,109371.75,102159.87412064572
2844,Blackpool,UK,262540,617771,355231,7,238373.03961484,413702.12866682,4355377450.62031,7,5.666666666666667,671926.4166666666,248974.41666666666,272426.33098838857
2857,Bournemouth,UK,412329,653308,240979,10,340532.9137354857,332088.476271426,3827712823.84848,8,5.857142857142857,626718.0857142857,278201.3714285714,335668.15782497876
2867,Brighton/Worthing/Littlehampton,UK,502257,648151,145894,5,170266.45686774285,162846.176143369,1305604085.27728,5,5.25,482913,209925.75,221346.39392806572
2868,Chipping Sodbury,UK,631956,1019810,387854,17,578905.9533503257,301239.957489704,3573418882.58772,6,7.2,495875.4,223631.6,238373.03961483997
2877,Burnley/Nelson,UK,155321,208776,53455,3,102159.87412064572,246988.719832005,3232528901.21332,6,5.666666666666667,1444411.3333333333,199393.5,204319.74824129144
2885,Cambridge,UK,158643,348634,189991,8,272426.33098838857,235267.603905624,3620889391.79518,9,5.222222222222222,456780.44444444444,253945.44444444444,234589.3405733346
2888,Cardiff,UK,372985,695047,322062,9,306479.62236193713,328788.36403645,2851120561.49781,8,5.571428571428571,532571.4285714285,236548.85714285713,306479.62236193713
2905,Chesterfield/Staveley,UK,131001,213777,82776,3,102159.87412064572,135458.169388567,870151437.578762,5,6.2,469080,147320.8,190698.431691872
2913,Berlin,DE,3702370,4161286,458916,14,476746.07922968,465525.702170179,11545527878.9924,6,6.666666666666667,700522.9666666667,414956.9666666667,414315.04504484095
2919,Colchester,UK,116893,273833,156940,5,170266.45686774285,200766.391270321,1683414827.36636,4,6.333333333333333,486873.3333333333,268646.3333333333,272426.33098838857
2930,Coventry/Bedworth,UK,357685,580992,223307,4,136213.16549419428,163156.563738207,1734014301.11073,5,6.4,898697.4,274590,245183.69788954972
2935,Crawley,UK,196935,403722,206787,8,272426.33098838857,163424.541507274,1746704423.81228,6,5.333333333333333,2027400.6666666667,189500.33333333334,153239.81118096857
2945,Dearne Valley,UK,140797,329896,189099,6,204319.74824129144,131288.610341181,812605115.934636,5,6.2,1429933.8,95827.2,143023.823768904
2946,Derby,UK,264031,386277,122246,2,68106.58274709714,132787.635793589,1175701010.58676,6,6,898180.5,194309.16666666666,198644.19967903334
2951,Doncaster,UK,161394,296009,134615,8,272426.33098838857,168874.501297936,1884557073.52302,7,5.142857142857143,392014.4285714286,125730.14285714286,121618.89776267347
2957,Dundee,UK,172868,312370.69,139502.69,5,170266.45686774285,698568.395063051,16313721541.7222,4,3.6666666666666665,1122170.1333333333,454978.4666666667,442692.78785613144
2971,Edinburgh,UK,484001,958103.5,474102.5,15,510799.37060322857,557493.839876592,10016010760.6415,5,5,1145324.3475,433949.8475,400126.1736391957
2991,Bielefeld,DE,339383,1273914,934531,23,783225.7015916171,247184.009409135,3446204989.71222,5,6.2,702158.4,412298.2,388207.5216584537
3000,Coatbridge,UK,1307880,2086497.7,778617.7,19,647012.5360974228,1261336.55890541,22985054318.1536,4,4,784113.73,375799.39666666667,442692.78785613144
3003,Gloucester,UK,151912,609929,458017,11,374586.20510903426,244752.139215448,3886377485.78284,7,6.428571428571429,806091.8571428572,210658.85714285713,238373.03961484
3013,Great London,UK,9423910,9423910,0,0,0,218375.749623211,1361780916.10379,6,5.8,602567.2,334994.8,279236.9892630983
3014,Greater Manchester,UK,3792250,3821051,28801,2,68106.58274709714,139560.89912836,1253700035.54171,8,5.625,596249.625,117832.25,144726.48833758142
3016,Grimsby/Cleethorpes,UK,140669,179059,38390,2,68106.58274709714,244630.430312498,3186394825.49272,6,5.8,455870.2,160691,177077.11514245256
3028,Hastings/Bexhill,UK,133361,360318,226957,4,136213.16549419428,199780.531134065,1692035559.43003,4,5.333333333333333,650010,285319,272426.33098838857
3045,High Wycombe,UK,143355,212860,69505,3,102159.87412064572,114984.455816007,870162683.047504,6,5.666666666666667,438202.1666666667,189160.16666666666,175942.00543000095
3058,Ipswich,UK,163210,246108,82898,4,136213.16549419428,226875.962064123,2311318889.3637,4,5.666666666666667,354936,192434,227021.9424903238
3059,Islwyn // Caerphilly/Bedwas,UK,123915,184637,60722,2,68106.58274709714,157165.513082505,554436423.729088,3,6.666666666666667,417385.3333333333,173528,158915.35974322667
3071,Kingston upon Hull,UK,326900,477783,150883,3,102159.87412064572,291630.458181607,2272141830.70309,4,6.333333333333333,289335.3333333333,136757,192968.65111677523
3081,Leicester,UK,505390,693209,187819,6,204319.74824129144,159239.562120802,1596031974.67796,5,6.2,437045.8,152388.4,143023.823768904
3098,Luton/Dunstable,UK,256737,402834,146097,5,170266.45686774285,142498.574754965,1111480220.03046,4,6.5,394254.5,227315.5,212833.07108467858
3108,Mansfield,UK,175474,333691,158217,3,102159.87412064572,159076.041776339,1419500185.79147,5,5.8,307257,67000.6,108970.53239535543
3122,Milton Keynes (Bletchley jusque 1981),UK,230852,470216,239364,5,170266.45686774285,164085.641452665,1360141774.66376,5,6.6,348528.2,160879,197509.0899665817
3140,Newport // Pontypool/Cwmbran,UK,240294,256146,15852,1,34053.29137354857,196092.044040407,1932494318.42664,7,6.166666666666667,512443.3333333333,257116.5,272426.33098838857
3149,Northampton,UK,216264,384524,168260,4,136213.16549419428,183020.887280747,1940325249.86433,7,6.142857142857143,458483.14285714284,214406.57142857142,223778.7718833192
3153,Norwich,UK,211970,442341,230371,7,238373.03961484,268033.267764955,4958959828.69206,4,6.666666666666667,358241.3333333333,197005.33333333334,261075.23386387236
3154,Nottingham,UK,650273,691886,41613,1,34053.29137354857,163795.237303862,1471373764.3509,6,5.666666666666667,371295.3333333333,143734.66666666666,147564.26261871046
3155,Nottingham // Alfreton,UK,117945,155554,37609,2,68106.58274709714,91226.9780891623,430786756.183517,5,6.2,473764,157507,156645.14031832342
3156,Hinckley,UK,130864,242560,111696,3,102159.87412064572,124132.913322082,804559299.458382,5,5.8,981537.4,221213.4,170266.45686774285
3161,Oxford,UK,163247,393789,230542,9,306479.62236193713,194174.863150397,2446746602.88191,7,6,434394.71428571426,189542.57142857142,160536.94504672897
3169,Peterborough,UK,161855,479982,318127,11,374586.20510903426,300326.076322827,4764478668.58301,7,6.166666666666667,456608.8333333333,142740.66666666666,158915.35974322667
3173,Plymouth,UK,261107,795040,533933,17,578905.9533503257,560088.799467961,8799740478.35597,4,7.333333333333333,622150.3333333334,265624.3333333333,351884.0108600019
3178,Portsmouth,UK,466972,633515,166543,8,272426.33098838857,225793.675912231,1411370560.23463,5,6.25,615252,229477.25,246886.36245822714
3180,Preston,UK,289299,289299,0,0,0,135014.174154264,790986940.832394,6,6.4,1172070.2,225368,204319.74824129144
3184,Braunschweig,DE,248867,550694,301827,6,204319.74824129144,270157.632177819,3972597458.72652,4,6.75,594104,306266.75,357559.55942226003
3185,Reading // (Wokingham à partir de 1971),UK,430198,517295,87097,2,68106.58274709714,132373.505547502,1016274649.47277,6,6.166666666666667,388486,155631.66666666666,175942.00543000095
3187,Rhondda // Pontypridd,UK,118293,300963,182670,4,136213.16549419428,256132.827129912,2729908088.50349,5,6.4,383640,152768.4,197509.08996658173
3194,Bremen,DE,588920,1024373,435453,11,374586.20510903426,388838.060098194,7546110058.43817,5,6,1231184.5,465535.75,493772.7249164543
3212,Sheffield,UK,793477,816957,23480,1,34053.29137354857,130004.914292208,773899007.676869,5,6.8,1080784.4,163594.8,224751.72306542058
3222,Slough,UK,278312,299771,21459,1,34053.29137354857,98171.9121957384,589311111.059855,6,6,1939532,168867.83333333334,158915.35974322667
3226,Hedge End // Botley,UK,333832,625452,291620,8,272426.33098838857,245776.736064843,2227402813.35332,6,6.2,520632.4,163056.6,204319.74824129144
3228,Southend,UK,332828,865878,533050,12,408639.4964825829,320685.99969227,1589702058.76507,6,6,2297968.4,252121.8,224751.72306542055
3232,St Albans/Hatfield,UK,134906,545308,410402,9,306479.62236193713,152035.148319064,1456808850.27441,6,6.166666666666667,1925647.8333333333,160017,164590.90830548477
3255,Swansea,UK,284264,518096,233832,12,408639.4964825829,595606.498561984,7576239772.66002,6,6.6,583537.4,334776,333722.255460776
3256,Swindon,UK,183699,264947,81248,4,136213.16549419428,214758.466682963,2926758230.93448,6,6.666666666666667,636597.1666666666,282684.8333333333,323506.2680487114
3261,Teesside,UK,397008,691915,294907,8,272426.33098838857,323427.957600799,4473742730.39624,5,5.5,997271.5,202035.75,246886.36245822714
3264,Telford (Wellington jusque 1981),UK,132900,264274,131374,5,170266.45686774285,339679.980571361,6924622035.93712,8,6.857142857142857,879053,311618.5714285714,316209.134182951
3268,The Medway Towns,UK,394881,898157,503276,11,374586.20510903426,269666.67870579,2784905293.85293,5,5.5,2763457,241698.5,204319.74824129144
3269,The Potteries,UK,360506,743189,382683,14,476746.07922968,196862.120854441,2472093653.40486,9,6.222222222222222,1088193.888888889,174836.55555555556,170266.45686774285
3280,Prudhoe,UK,1102210,1564658,462448,16,544852.6619767771,423722.012514809,9867546830.75463,5,5.75,619141.375,294423.875,280939.6538317757
3288,Warrington,UK,171840,410807,238967,7,238373.03961484,152196.578271168,1202131507.94231,5,7.75,1428975.5,228831.25,255399.68530161428
3294,West Midlands,UK,2458250,2862685,404435,9,306479.62236193713,203610.842997148,2423330708.35579,6,6.666666666666667,471203.5,238220.5,221346.39392806572
3296,Glusburn // Steeton,UK,1767740,1822714,54974,3,102159.87412064572,192469.465997193,1816944082.24041,5,6,1088915.2,160705.6,177077.1151424526
3324,York,UK,155672,392938,237266,7,238373.03961484,251683.283124207,3728007661.77958,6,5.2,723663.4,164895.6,190698.431691872
3339,Chemnitz,DE,250230,1280336,1030106,32,1089705.3239535543,409264.54405172,10576122338.3749,6,6.333333333333333,1170778.2333333334,569846.5666666667,652688.084659681
3349,Darmstadt,DE,193395,775722,582327,20,681065.8274709714,276826.143062867,3250536879.37047,4,6.75,1161707.75,486159.25,587419.2761937128
3374,Dresden,DE,688881,1518255.3,829374.3,26,885385.5757122629,452792.48746484,14059970329.0034,7,6.142857142857143,1472381.142857143,590172.8571428572,612959.2447238743
3378,Dusseldorf,DE,825187,1388837,563650,12,408639.4964825829,173522.951605837,1530717933.72136,4,6.5,2398543.25,553715,468232.75638629287
3406,Erfurt,DE,204994,977966,772972,25,851332.2843387143,461903.694258645,14121579544.7884,8,6,748395.875,428895,489516.0634947607
3416,Essen // Duisburg // Dortmund // Bochum // Gelsen*,DE,4016900,4593285,576385,11,374586.20510903426,206564.334326053,2971746216.48584,8,5.75,948600.875,551686.25,485259.40207306715
3417,Esslingen am Neckar,DE,130557,509923,379366,9,306479.62236193713,127129.595640057,735847380.325195,4,6.5,635535,304266.75,332019.59089209855
3431,Frankfurt am Main,DE,1719470,2665258,945788,32,1089705.3239535543,352300.350390435,6728426303.05501,6,6.333333333333333,650581.5,377696,448368.3364183895
3436,Freiburg im Breisgau,DE,240655,485618.9,244963.90000000002,8,272426.33098838857,376746.039309742,5840459873.08945,6,6.4,596676.52,381688.32,374586.20510903426
3457,Wien,AT,1948570,2283497.6,334927.6000000001,12,408639.4964825829,467686.346376209,13570489510.8009,5,6.2,777766.4,483032.80000000005,558473.9785261966
3474,Goppingen,DE,133386,416497,283111,7,238373.03961484,245062.499097776,3740585102.76118,8,6,564228.625,305408,357559.55942226
3477,Gottingen,DE,121060,324051,202991,10,340532.9137354857,318875.878611889,6337036308.80176,6,6.333333333333333,707285.1666666666,416126,442692.78785613144
3502,Halle(Saale),DE,232963,624928,391965,10,340532.9137354857,326225.718857372,5150752564.979,4,6.5,708927.75,413617.75,468232.75638629287
3505,Hamburg,DE,2058990,2773050,714060,24,817278.9929651658,422344.964529443,9939609035.12288,5,6,729768.6,347573.6,333722.255460776
3507,Hamm,DE,181783,839895,658112,16,544852.6619767771,214836.581775218,3006617895.94328,6,6,1495285.5,484580.1666666667,442692.78785613144
3509,Hannover,DE,677313,1195531,518218,13,442692.78785613144,341307.292886303,7767966156.25785,8,5.5,881376,407741.875,417152.81932597
3516,Heidelberg,DE,214793,387895,173102,8,272426.33098838857,186143.467031767,1882160831.89792,6,6,616631.6666666666,346430.5,408639.4964825828
3519,Heilbronn,DE,181728,353314,171586,8,272426.33098838857,246831.297984812,3708219898.0872,6,6,523020.6666666667,245462.66666666666,266750.7824261305
3535,Salzburg,AT // DE,186121,568715,382594,18,612959.2447238743,536996.00780723,19190539222.1132,7,6.285714285714286,784013.1285714286,372811.7,432963.27603511757
3563,Ingolstadt,DE,142870,242510,99640,5,170266.45686774285,303725.343552218,5127038994.87228,5,6.4,1067852.6,460234.6,531231.3454273577
3566,Brussels,BE,4376050,4499040,122990,2,68106.58274709714,217991.062483134,2816434966.73334,8,6.125,563459.7325,162235.9825,161753.1340243557
3577,Karlsruhe,DE,329936,728243,398307,11,374586.20510903426,234667.163391747,3381131603.98397,5,6.6,688005.994,336127.394,395018.1799331634
3578,Kassel,DE,237973,549005,311032,13,442692.78785613144,350255.632996638,8252339673.38253,6,6.833333333333333,893959.5,473798.8333333333,556203.7591012933
3589,Kiel,DE,276232,661366,385134,11,374586.20510903426,787559.244115691,9930133961.93686,5,6,1070875.25,400970,459719.4335429057
3596,Koblenz // Neuwied,DE,279521,362613,83092,3,102159.87412064572,318916.868857032,6244495509.22384,6,6.5,1294929.6666666667,484682.6666666667,493772.7249164543
3597,Koln,DE,1981050,2580005,598955,16,544852.6619767771,244955.650177638,3709955126.58054,6,6,884471.6666666666,398955.3333333333,340532.91373548575
3628,Leipzig,DE,579037,866210,287173,10,340532.9137354857,344122.024714745,6321872070.2666,5,6.4,962575.06,654024.66,681065.8274709714
3631,Brugge,BE,116885,347870,230985,6,204319.74824129144,226484.697885136,1988254434.05842,4,6.333333333333333,783830.2666666667,207027.6,192968.65111677523
3641,Dornbirn // Bregenz,AT,144916,826736,681820,16,544852.6619767771,535571.906652831,9061448685.55017,7,6.5,469733.63333333336,267375.9666666667,323506.2680487114
3642,Charleroi,BE,424663,477373.2,52710.20000000001,1,34053.29137354857,262129.618046868,3095867454.83342,5,6.8,1128207.712,103803.91200000001,122591.84894477486
3655,Lubeck,DE,247059,490884,243825,8,272426.33098838857,470401.520498771,7567260199.9567,5,6.5,1037986.85,372414.85,425666.14216935716
3663,Magdeburg,DE,231525,580145,348620,13,442692.78785613144,413948.4983921,8504435835.65569,6,6,527619.6666666666,345116.5,363235.1079845181
3664,Mannheim // Ludwigshafen am Rhein,DE,597267,1210037,612770,20,681065.8274709714,240100.572701803,3603482468.96657,7,5.714285714285714,856664.01,394212.72428571427,452422.2996771453
3701,Monchengladbach,DE,257993,976339,718346,16,544852.6619767771,211391.743154787,2592447851.15045,7,6,1567544.857142857,437043.5714285714,350262.42555649957
3713,Munchen,DE,1619760,2382506,762746,31,1055652.0325800057,353308.624098068,7740927714.68182,5,6,452434.54,248299.74,360964.88855961483
3714,Munster,DE,279803,647129,367326,10,340532.9137354857,205633.988803989,2577164807.17223,5,6.6,1634041.6,662194.2,565284.6368009063
3717,Hasselt // Genk // Beringen // Sint-Truiden // He*,BE,468798,584502,115704,3,102159.87412064572,199034.41777173,2598633557.39046,7,6.285714285714286,1104745.3,214805.3,189725.4805097706
3752,Nurnberg,DE,732555,1378851,646296,18,612959.2447238743,442670.847796225,12808043222.8533,7,6.571428571428571,619058.7571428572,441347.7571428571,496205.10287170776
3769,Oldenburg (Oldenburg),DE,162173,518290,356117,11,374586.20510903426,399686.88552248,7130531369.05735,5,6,863489.75,584513.5,536339.33913339
3777,Osnabruck,DE,164119,437867,273748,10,340532.9137354857,293412.600077731,5272270597.63388,6,6,947414,579973.3333333334,516474.91916548664
3781,La Louviere,BE,186141,247641.1,61500.100000000006,3,102159.87412064572,195128.939487898,1351628310.91446,3,6.333333333333333,1767981.9533333334,93474.95333333335,79457.67987161333
3784,Paderborn,DE,146283,390370,244087,8,272426.33098838857,265287.045069742,4323143503.04196,6,6.333333333333333,800811.1666666666,514810.3333333333,505123.82204097044
3794,Pforzheim,DE,148217,248833,100616,4,136213.16549419428,202452.224493885,2367410748.98043,6,6,656318.3166666667,294292.31666666665,340532.9137354857
3802,Liege,BE,846055,856584,10529,1,34053.29137354857,248732.086931961,3915811734.56668,6,6.166666666666667,365506.95,150606.95,113510.97124516191
3806,Potsdam,DE,165684,411390,245706,7,238373.03961484,458774.621194464,10411325428.0847,7,6.285714285714286,1209765.1,386644.8142857143,428098.52012461063
3824,Regensburg,DE,174220,556212,381992,11,374586.20510903426,426639.59855561,11762876026.8542,6,6,943928.3166666667,426566.81666666665,533501.564852261
3828,Reutlingen,DE,142228,580994,438766,14,476746.07922968,280550.107528744,5570841049.27148,8,5.75,604308.85,317684.35,310736.2837836307
3847,Rostock,DE,205615,440842.4,235227.40000000002,9,306479.62236193713,819845.112033646,15210888096.9286,9,5.625,1150853.0625,354054.8125,374586.2051090343
3855,Mons,BE,222808,327532.66000000003,104724.66000000003,4,136213.16549419428,243755.281881654,2255879760.68991,6,6.833333333333333,1291974.7166666668,161030.55000000002,164590.90830548477
3866,Namur,BE,129100,141359.1,12259.100000000006,1,34053.29137354857,294240.866906559,4852732479.91693,6,7.166666666666667,1200998.25,123371.41666666667,113510.9712451619
3898,Oostende,BE,125427,189641,64214,2,68106.58274709714,125346.606954663,966503200.872494,4,6,842729.2333333334,291944.9,249724.13673935618
3903,Siegen,DE,158493,622471,463978,14,476746.07922968,308785.630535309,6729157962.73506,7,5.857142857142857,1261670,451748.5714285714,486475.5910506939
3937,Stuttgart,DE,867731,1191335,323604,10,340532.9137354857,144190.941214342,1118833159.27214,4,6,423266,272583.5,297966.29951855
3942,Sint-Niklaas // Beveren,BE,216681,432552,215871,6,204319.74824129144,354640.494293555,3004505375.61897,6,6.8,1671665.96,238909.16,211130.40651600115
3950,Trier,DE,136668,179781,43113,2,68106.58274709714,310875.984817996,5872041970.25407,6,6.5,700236.7783333333,284065.445,278101.87955064664
3960,Ulm // Neu-Ulm,DE,191794,459399,267605,10,340532.9137354857,321614.32734619,5609677305.74506,4,7.25,607356,407681.25,408639.4964825829
